lab2/exp5/data/day1/TEK00023.CSV

Model,TBS1102C
Firmware Version,v2015-08-04-prequal4ch70_v1.3

Point Format,Y,
Horizontal Units,S,
Horizontal Scale,4e-07,
Sample Interval,4e-09,
Filter Frequency,2e+08,
Record Length,2000,
Gating,0.0% to 100.0%,0.0% to 100.0%
Probe Attenuation,1,1
Vertical Units,V,V
Vertical Offset,0,0
Vertical Scale,0.5,0.5
Label,,
TIME,CH1,CH2
-4.000e-06,2.12,2.14
-3.996e-06,2.12,2.14
-3.992e-06,2.12,2.14
-3.988e-06,2.14,2.14
-3.984e-06,2.14,2.14
-3.980e-06,2.14,2.14
-3.976e-06,2.14,2.14
-3.972e-06,2.14,2.16
-3.968e-06,2.14,2.16
-3.964e-06,2.14,2.16
-3.960e-06,2.16,2.16
-3.956e-06,2.16,2.16
-3.952e-06,2.16,2.16
-3.948e-06,2.16,2.16
-3.944e-06,2.16,2.16
-3.940e-06,2.18,2.18
-3.936e-06,2.16,2.18
-3.932e-06,2.16,2.18
-3.928e-06,2.18,2.18
-3.924e-06,2.18,2.18
-3.920e-06,2.18,2.18
-3.916e-06,2.18,2.18
-3.912e-06,2.2,2.18
-3.908e-06,2.2,2.18
-3.904e-06,2.2,2.18
-3.900e-06,2.22,2.18
-3.896e-06,2.22,2.18
-3.892e-06,2.2,2.18
-3.888e-06,2.2,2.18
-3.884e-06,2.2,2.2
-3.880e-06,2.2,2.2
-3.876e-06,2.2,2.2
-3.872e-06,2.2,2.2
-3.868e-06,2.22,2.2
-3.864e-06,2.22,2.2
-3.860e-06,2.22,2.2
-3.856e-06,2.22,2.2
-3.852e-06,2.22,2.2
-3.848e-06,2.22,2.2
-3.844e-06,2.22,2.2
-3.840e-06,2.22,2.2
-3.836e-06,2.22,2.22
-3.832e-06,2.22,2.2
-3.828e-06,2.22,2.2
-3.824e-06,2.22,2.2
-3.820e-06,2.22,2.2
-3.816e-06,2.22,2.2
-3.812e-06,2.22,2.2
-3.808e-06,2.22,2.2
-3.804e-06,2.24,2.2
-3.800e-06,2.22,2.2
-3.796e-06,2.22,2.2
-3.792e-06,2.24,2.2
-3.788e-06,2.24,2.2
-3.784e-06,2.22,2.22
-3.780e-06,2.24,2.2
-3.776e-06,2.26,2.2
-3.772e-06,2.24,2.22
-3.768e-06,2.24,2.2
-3.764e-06,2.24,2.2
-3.760e-06,2.24,2.22
-3.756e-06,2.26,2.2
-3.752e-06,2.24,2.2
-3.748e-06,2.24,2.2
-3.744e-06,2.24,2.2
-3.740e-06,2.24,2.2
-3.736e-06,2.24,2.2
-3.732e-06,2.24,2.2
-3.728e-06,2.24,2.2
-3.724e-06,2.24,2.2
-3.720e-06,2.24,2.2
-3.716e-06,2.22,2.2
-3.712e-06,2.24,2.2
-3.708e-06,2.24,2.2
-3.704e-06,2.24,2.2
-3.700e-06,2.24,2.18
-3.696e-06,2.24,2.18
-3.692e-06,2.22,2.18
-3.688e-06,2.22,2.18
-3.684e-06,2.24,2.18
-3.680e-06,2.24,2.18
-3.676e-06,2.22,2.18
-3.672e-06,2.22,2.18
-3.668e-06,2.22,2.2
-3.664e-06,2.22,2.18
-3.660e-06,2.22,2.18
-3.656e-06,2.22,2.18
-3.652e-06,2.24,2.18
-3.648e-06,2.22,2.18
-3.644e-06,2.22,2.18
-3.640e-06,2.22,2.16
-3.636e-06,2.22,2.16
-3.632e-06,2.22,2.16
-3.628e-06,2.22,2.18
-3.624e-06,2.2,2.16
-3.620e-06,2.2,2.16
-3.616e-06,2.2,2.16
-3.612e-06,2.2,2.16
-3.608e-06,2.2,2.14
-3.604e-06,2.2,2.14
-3.600e-06,2.2,2.14
-3.596e-06,2.2,2.14
-3.592e-06,2.2,2.14
-3.588e-06,2.2,2.14
-3.584e-06,2.2,2.14
-3.580e-06,2.18,2.14
-3.576e-06,2.18,2.14
-3.572e-06,2.18,2.14
-3.568e-06,2.18,2.14
-3.564e-06,2.18,2.12
-3.560e-06,2.2,2.12
-3.556e-06,2.18,2.12
-3.552e-06,2.18,2.12
-3.548e-06,2.16,2.12
-3.544e-06,2.16,2.1
-3.540e-06,2.16,2.1
-3.536e-06,2.16,2.1
-3.532e-06,2.16,2.1
-3.528e-06,2.16,2.1
-3.524e-06,2.16,2.08
-3.520e-06,2.16,2.08
-3.516e-06,2.14,2.08
-3.512e-06,2.14,2.08
-3.508e-06,2.14,2.08
-3.504e-06,2.14,2.08
-3.500e-06,2.12,2.06
-3.496e-06,2.12,2.06
-3.492e-06,2.12,2.06
-3.488e-06,2.12,2.04
-3.484e-06,2.12,2.04
-3.480e-06,2.12,2.04
-3.476e-06,2.12,2.04
-3.472e-06,2.1,2.02
-3.468e-06,2.1,2.02
-3.464e-06,2.1,2.02
-3.460e-06,2.1,2.02
-3.456e-06,2.08,2.02
-3.452e-06,2.08,2
-3.448e-06,2.08,2
-3.444e-06,2.08,2
-3.440e-06,2.08,2
-3.436e-06,2.08,1.98
-3.432e-06,2.06,1.98
-3.428e-06,2.06,2
-3.424e-06,2.06,1.98
-3.420e-06,2.06,1.98
-3.416e-06,2.06,1.98
-3.412e-06,2.04,1.96
-3.408e-06,2.04,1.96
-3.404e-06,2.04,1.96
-3.400e-06,2.04,1.94
-3.396e-06,2.02,1.94
-3.392e-06,2.02,1.94
-3.388e-06,2.02,1.94
-3.384e-06,2.02,1.92
-3.380e-06,2.02,1.92
-3.376e-06,2,1.9
-3.372e-06,2,1.9
-3.368e-06,2,1.9
-3.364e-06,1.98,1.9
-3.360e-06,1.98,1.9
-3.356e-06,1.96,1.88
-3.352e-06,1.98,1.9
-3.348e-06,1.98,1.88
-3.344e-06,1.98,1.88
-3.340e-06,1.96,1.86
-3.336e-06,1.94,1.86
-3.332e-06,1.94,1.86
-3.328e-06,1.94,1.84
-3.324e-06,1.94,1.84
-3.320e-06,1.94,1.84
-3.316e-06,1.92,1.82
-3.312e-06,1.92,1.84
-3.308e-06,1.92,1.82
-3.304e-06,1.92,1.82
-3.300e-06,1.9,1.8
-3.296e-06,1.9,1.8
-3.292e-06,1.9,1.8
-3.288e-06,1.88,1.8
-3.284e-06,1.88,1.78
-3.280e-06,1.88,1.78
-3.276e-06,1.88,1.78
-3.272e-06,1.86,1.76
-3.268e-06,1.86,1.76
-3.264e-06,1.86,1.76
-3.260e-06,1.84,1.74
-3.256e-06,1.84,1.74
-3.252e-06,1.82,1.74
-3.248e-06,1.82,1.72
-3.244e-06,1.82,1.72
-3.240e-06,1.82,1.72
-3.236e-06,1.8,1.7
-3.232e-06,1.8,1.7
-3.228e-06,1.8,1.68
-3.224e-06,1.78,1.66
-3.220e-06,1.76,1.68
-3.216e-06,1.76,1.66
-3.212e-06,1.76,1.66
-3.208e-06,1.78,1.66
-3.204e-06,1.76,1.64
-3.200e-06,1.74,1.64
-3.196e-06,1.74,1.64
-3.192e-06,1.72,1.62
-3.188e-06,1.74,1.62
-3.184e-06,1.72,1.62
-3.180e-06,1.7,1.6
-3.176e-06,1.7,1.6
-3.172e-06,1.7,1.58
-3.168e-06,1.7,1.56
-3.164e-06,1.68,1.58
-3.160e-06,1.68,1.56
-3.156e-06,1.66,1.56
-3.152e-06,1.66,1.54
-3.148e-06,1.64,1.54
-3.144e-06,1.64,1.54
-3.140e-06,1.64,1.52
-3.136e-06,1.64,1.52
-3.132e-06,1.62,1.5
-3.128e-06,1.62,1.5
-3.124e-06,1.6,1.5
-3.120e-06,1.6,1.48
-3.116e-06,1.6,1.48
-3.112e-06,1.6,1.46
-3.108e-06,1.58,1.46
-3.104e-06,1.56,1.44
-3.100e-06,1.56,1.44
-3.096e-06,1.54,1.44
-3.092e-06,1.56,1.42
-3.088e-06,1.54,1.42
-3.084e-06,1.52,1.42
-3.080e-06,1.52,1.4
-3.076e-06,1.52,1.4
-3.072e-06,1.5,1.38
-3.068e-06,1.5,1.38
-3.064e-06,1.48,1.36
-3.060e-06,1.48,1.36
-3.056e-06,1.46,1.36
-3.052e-06,1.46,1.34
-3.048e-06,1.46,1.32
-3.044e-06,1.44,1.32
-3.040e-06,1.46,1.32
-3.036e-06,1.44,1.32
-3.032e-06,1.44,1.3
-3.028e-06,1.42,1.28
-3.024e-06,1.42,1.28
-3.020e-06,1.4,1.28
-3.016e-06,1.38,1.26
-3.012e-06,1.38,1.24
-3.008e-06,1.38,1.24
-3.004e-06,1.36,1.24
-3.000e-06,1.34,1.22
-2.996e-06,1.34,1.2
-2.992e-06,1.34,1.2
-2.988e-06,1.32,1.2
-2.984e-06,1.32,1.2
-2.980e-06,1.3,1.18
-2.976e-06,1.3,1.16
-2.972e-06,1.28,1.16
-2.968e-06,1.28,1.14
-2.964e-06,1.26,1.14
-2.960e-06,1.26,1.12
-2.956e-06,1.26,1.12
-2.952e-06,1.24,1.1
-2.948e-06,1.24,1.1
-2.944e-06,1.22,1.1
-2.940e-06,1.2,1.08
-2.936e-06,1.2,1.08
-2.932e-06,1.2,1.08
-2.928e-06,1.18,1.06
-2.924e-06,1.18,1.04
-2.920e-06,1.16,1.04
-2.916e-06,1.14,1.02
-2.912e-06,1.14,1.02
-2.908e-06,1.14,1.02
-2.904e-06,1.14,1
-2.900e-06,1.12,0.98
-2.896e-06,1.1,0.98
-2.892e-06,1.1,0.98
-2.888e-06,1.08,0.96
-2.884e-06,1.08,0.94
-2.880e-06,1.08,0.94
-2.876e-06,1.06,0.94
-2.872e-06,1.06,0.92
-2.868e-06,1.04,0.92
-2.864e-06,1.04,0.9
-2.860e-06,1.02,0.9
-2.856e-06,1,0.88
-2.852e-06,1,0.88
-2.848e-06,0.98,0.86
-2.844e-06,0.98,0.86
-2.840e-06,0.96,0.84
-2.836e-06,0.96,0.82
-2.832e-06,0.96,0.82
-2.828e-06,0.94,0.8
-2.824e-06,0.92,0.8
-2.820e-06,0.92,0.78
-2.816e-06,0.9,0.78
-2.812e-06,0.9,0.76
-2.808e-06,0.88,0.76
-2.804e-06,0.88,0.74
-2.800e-06,0.88,0.74
-2.796e-06,0.86,0.72
-2.792e-06,0.84,0.72
-2.788e-06,0.84,0.7
-2.784e-06,0.82,0.68
-2.780e-06,0.82,0.68
-2.776e-06,0.8,0.68
-2.772e-06,0.8,0.66
-2.768e-06,0.78,0.66
-2.764e-06,0.78,0.64
-2.760e-06,0.76,0.64
-2.756e-06,0.76,0.62
-2.752e-06,0.74,0.62
-2.748e-06,0.72,0.6
-2.744e-06,0.72,0.6
-2.740e-06,0.72,0.58
-2.736e-06,0.7,0.56
-2.732e-06,0.68,0.54
-2.728e-06,0.68,0.54
-2.724e-06,0.66,0.54
-2.720e-06,0.66,0.52
-2.716e-06,0.64,0.52
-2.712e-06,0.64,0.5
-2.708e-06,0.62,0.48
-2.704e-06,0.62,0.48
-2.700e-06,0.6,0.46
-2.696e-06,0.6,0.46
-2.692e-06,0.58,0.44
-2.688e-06,0.56,0.44
-2.684e-06,0.56,0.42
-2.680e-06,0.56,0.4
-2.676e-06,0.54,0.4
-2.672e-06,0.52,0.4
-2.668e-06,0.5,0.38
-2.664e-06,0.5,0.38
-2.660e-06,0.5,0.36
-2.656e-06,0.48,0.34
-2.652e-06,0.48,0.34
-2.648e-06,0.46,0.34
-2.644e-06,0.46,0.32
-2.640e-06,0.44,0.3
-2.636e-06,0.44,0.3
-2.632e-06,0.4,0.3
-2.628e-06,0.4,0.28
-2.624e-06,0.4,0.26
-2.620e-06,0.38,0.26
-2.616e-06,0.36,0.24
-2.612e-06,0.36,0.22
-2.608e-06,0.36,0.22
-2.604e-06,0.34,0.2
-2.600e-06,0.32,0.2
-2.596e-06,0.32,0.2
-2.592e-06,0.3,0.18
-2.588e-06,0.28,0.18
-2.584e-06,0.28,0.16
-2.580e-06,0.28,0.14
-2.576e-06,0.26,0.14
-2.572e-06,0.26,0.12
-2.568e-06,0.26,0.1
-2.564e-06,0.24,0.1
-2.560e-06,0.22,0.1
-2.556e-06,0.2,0.08
-2.552e-06,0.2,0.06
-2.548e-06,0.2,0.06
-2.544e-06,0.18,0.06
-2.540e-06,0.16,0.04
-2.536e-06,0.16,0.02
-2.532e-06,0.14,0
-2.528e-06,0.12,0
-2.524e-06,0.12,0
-2.520e-06,0.12,-0.02
-2.516e-06,0.1,-0.04
-2.512e-06,0.1,-0.04
-2.508e-06,0.08,-0.06
-2.504e-06,0.06,-0.06
-2.500e-06,0.04,-0.08
-2.496e-06,0.04,-0.08
-2.492e-06,0.02,-0.1
-2.488e-06,0.02,-0.12
-2.484e-06,0,-0.12
-2.480e-06,0,-0.14
-2.476e-06,-0.02,-0.14
-2.472e-06,-0.02,-0.16
-2.468e-06,-0.02,-0.16
-2.464e-06,-0.04,-0.18
-2.460e-06,-0.06,-0.18
-2.456e-06,-0.06,-0.2
-2.452e-06,-0.08,-0.22
-2.448e-06,-0.1,-0.22
-2.444e-06,-0.1,-0.24
-2.440e-06,-0.12,-0.24
-2.436e-06,-0.12,-0.24
-2.432e-06,-0.14,-0.26
-2.428e-06,-0.14,-0.28
-2.424e-06,-0.16,-0.28
-2.420e-06,-0.16,-0.3
-2.416e-06,-0.18,-0.32
-2.412e-06,-0.2,-0.32
-2.408e-06,-0.2,-0.34
-2.404e-06,-0.22,-0.34
-2.400e-06,-0.22,-0.36
-2.396e-06,-0.22,-0.36
-2.392e-06,-0.24,-0.38
-2.388e-06,-0.26,-0.38
-2.384e-06,-0.26,-0.4
-2.380e-06,-0.26,-0.4
-2.376e-06,-0.28,-0.42
-2.372e-06,-0.3,-0.42
-2.368e-06,-0.3,-0.44
-2.364e-06,-0.32,-0.46
-2.360e-06,-0.34,-0.44
-2.356e-06,-0.34,-0.46
-2.352e-06,-0.36,-0.48
-2.348e-06,-0.36,-0.48
-2.344e-06,-0.38,-0.5
-2.340e-06,-0.38,-0.5
-2.336e-06,-0.4,-0.52
-2.332e-06,-0.4,-0.52
-2.328e-06,-0.42,-0.54
-2.324e-06,-0.42,-0.54
-2.320e-06,-0.44,-0.56
-2.316e-06,-0.46,-0.58
-2.312e-06,-0.46,-0.58
-2.308e-06,-0.48,-0.6
-2.304e-06,-0.48,-0.6
-2.300e-06,-0.48,-0.62
-2.296e-06,-0.5,-0.62
-2.292e-06,-0.52,-0.64
-2.288e-06,-0.52,-0.64
-2.284e-06,-0.54,-0.66
-2.280e-06,-0.54,-0.66
-2.276e-06,-0.56,-0.68
-2.272e-06,-0.56,-0.7
-2.268e-06,-0.58,-0.7
-2.264e-06,-0.58,-0.7
-2.260e-06,-0.6,-0.72
-2.256e-06,-0.62,-0.72
-2.252e-06,-0.62,-0.74
-2.248e-06,-0.62,-0.74
-2.244e-06,-0.64,-0.76
-2.240e-06,-0.66,-0.76
-2.236e-06,-0.66,-0.76
-2.232e-06,-0.66,-0.78
-2.228e-06,-0.68,-0.78
-2.224e-06,-0.7,-0.8
-2.220e-06,-0.72,-0.82
-2.216e-06,-0.72,-0.82
-2.212e-06,-0.72,-0.84
-2.208e-06,-0.74,-0.84
-2.204e-06,-0.74,-0.86
-2.200e-06,-0.76,-0.86
-2.196e-06,-0.76,-0.88
-2.192e-06,-0.78,-0.88
-2.188e-06,-0.8,-0.9
-2.184e-06,-0.8,-0.9
-2.180e-06,-0.8,-0.92
-2.176e-06,-0.82,-0.92
-2.172e-06,-0.82,-0.94
-2.168e-06,-0.84,-0.96
-2.164e-06,-0.86,-0.96
-2.160e-06,-0.86,-0.98
-2.156e-06,-0.86,-0.98
-2.152e-06,-0.88,-0.98
-2.148e-06,-0.88,-1
-2.144e-06,-0.9,-1
-2.140e-06,-0.92,-1.02
-2.136e-06,-0.92,-1.02
-2.132e-06,-0.94,-1.04
-2.128e-06,-0.94,-1.04
-2.124e-06,-0.94,-1.06
-2.120e-06,-0.96,-1.08
-2.116e-06,-0.96,-1.08
-2.112e-06,-0.98,-1.1
-2.108e-06,-0.98,-1.08
-2.104e-06,-1,-1.1
-2.100e-06,-1,-1.12
-2.096e-06,-1.02,-1.12
-2.092e-06,-1.04,-1.12
-2.088e-06,-1.04,-1.14
-2.084e-06,-1.04,-1.16
-2.080e-06,-1.06,-1.16
-2.076e-06,-1.08,-1.16
-2.072e-06,-1.08,-1.18
-2.068e-06,-1.1,-1.18
-2.064e-06,-1.1,-1.2
-2.060e-06,-1.1,-1.2
-2.056e-06,-1.12,-1.22
-2.052e-06,-1.12,-1.22
-2.048e-06,-1.14,-1.24
-2.044e-06,-1.14,-1.24
-2.040e-06,-1.16,-1.26
-2.036e-06,-1.16,-1.26
-2.032e-06,-1.18,-1.26
-2.028e-06,-1.18,-1.28
-2.024e-06,-1.2,-1.28
-2.020e-06,-1.2,-1.3
-2.016e-06,-1.2,-1.3
-2.012e-06,-1.22,-1.32
-2.008e-06,-1.22,-1.32
-2.004e-06,-1.24,-1.34
-2.000e-06,-1.26,-1.34
-1.996e-06,-1.26,-1.34
-1.992e-06,-1.26,-1.36
-1.988e-06,-1.26,-1.36
-1.984e-06,-1.28,-1.38
-1.980e-06,-1.3,-1.38
-1.976e-06,-1.32,-1.4
-1.972e-06,-1.3,-1.4
-1.968e-06,-1.32,-1.4
-1.964e-06,-1.32,-1.42
-1.960e-06,-1.34,-1.42
-1.956e-06,-1.34,-1.42
-1.952e-06,-1.36,-1.44
-1.948e-06,-1.36,-1.46
-1.944e-06,-1.38,-1.46
-1.940e-06,-1.38,-1.46
-1.936e-06,-1.4,-1.46
-1.932e-06,-1.4,-1.48
-1.928e-06,-1.42,-1.48
-1.924e-06,-1.42,-1.5
-1.920e-06,-1.42,-1.5
-1.916e-06,-1.42,-1.5
-1.912e-06,-1.44,-1.52
-1.908e-06,-1.46,-1.52
-1.904e-06,-1.46,-1.54
-1.900e-06,-1.46,-1.54
-1.896e-06,-1.48,-1.54
-1.892e-06,-1.5,-1.56
-1.888e-06,-1.5,-1.58
-1.884e-06,-1.5,-1.56
-1.880e-06,-1.5,-1.58
-1.876e-06,-1.52,-1.58
-1.872e-06,-1.52,-1.58
-1.868e-06,-1.54,-1.6
-1.864e-06,-1.56,-1.6
-1.860e-06,-1.54,-1.6
-1.856e-06,-1.56,-1.62
-1.852e-06,-1.58,-1.62
-1.848e-06,-1.56,-1.64
-1.844e-06,-1.58,-1.64
-1.840e-06,-1.58,-1.64
-1.836e-06,-1.6,-1.64
-1.832e-06,-1.6,-1.66
-1.828e-06,-1.62,-1.68
-1.824e-06,-1.62,-1.66
-1.820e-06,-1.62,-1.68
-1.816e-06,-1.64,-1.68
-1.812e-06,-1.64,-1.7
-1.808e-06,-1.64,-1.7
-1.804e-06,-1.66,-1.72
-1.800e-06,-1.66,-1.72
-1.796e-06,-1.68,-1.72
-1.792e-06,-1.68,-1.74
-1.788e-06,-1.68,-1.74
-1.784e-06,-1.7,-1.74
-1.780e-06,-1.7,-1.74
-1.776e-06,-1.72,-1.76
-1.772e-06,-1.72,-1.76
-1.768e-06,-1.72,-1.76
-1.764e-06,-1.72,-1.78
-1.760e-06,-1.72,-1.78
-1.756e-06,-1.74,-1.78
-1.752e-06,-1.74,-1.8
-1.748e-06,-1.74,-1.8
-1.744e-06,-1.76,-1.8
-1.740e-06,-1.76,-1.82
-1.736e-06,-1.78,-1.82
-1.732e-06,-1.78,-1.82
-1.728e-06,-1.78,-1.82
-1.724e-06,-1.78,-1.84
-1.720e-06,-1.8,-1.84
-1.716e-06,-1.8,-1.84
-1.712e-06,-1.82,-1.86
-1.708e-06,-1.82,-1.86
-1.704e-06,-1.82,-1.86
-1.700e-06,-1.82,-1.86
-1.696e-06,-1.84,-1.86
-1.692e-06,-1.84,-1.88
-1.688e-06,-1.84,-1.88
-1.684e-06,-1.86,-1.88
-1.680e-06,-1.86,-1.9
-1.676e-06,-1.88,-1.9
-1.672e-06,-1.86,-1.9
-1.668e-06,-1.86,-1.9
-1.664e-06,-1.88,-1.92
-1.660e-06,-1.88,-1.92
-1.656e-06,-1.88,-1.92
-1.652e-06,-1.9,-1.92
-1.648e-06,-1.9,-1.94
-1.644e-06,-1.9,-1.94
-1.640e-06,-1.92,-1.94
-1.636e-06,-1.92,-1.94
-1.632e-06,-1.92,-1.96
-1.628e-06,-1.92,-1.96
-1.624e-06,-1.94,-1.96
-1.620e-06,-1.94,-1.96
-1.616e-06,-1.94,-1.96
-1.612e-06,-1.94,-1.98
-1.608e-06,-1.96,-1.98
-1.604e-06,-1.96,-1.98
-1.600e-06,-1.96,-1.98
-1.596e-06,-1.96,-1.98
-1.592e-06,-1.96,-2
-1.588e-06,-1.98,-2
-1.584e-06,-1.98,-2
-1.580e-06,-1.98,-2
-1.576e-06,-1.98,-2
-1.572e-06,-2,-2.02
-1.568e-06,-2,-2.02
-1.564e-06,-2,-2.02
-1.560e-06,-2,-2.02
-1.556e-06,-2,-2.04
-1.552e-06,-2.02,-2.04
-1.548e-06,-2.02,-2.04
-1.544e-06,-2.02,-2.04
-1.540e-06,-2.04,-2.04
-1.536e-06,-2.04,-2.04
-1.532e-06,-2.04,-2.06
-1.528e-06,-2.04,-2.06
-1.524e-06,-2.04,-2.06
-1.520e-06,-2.04,-2.06
-1.516e-06,-2.04,-2.06
-1.512e-06,-2.06,-2.06
-1.508e-06,-2.06,-2.06
-1.504e-06,-2.06,-2.06
-1.500e-06,-2.08,-2.08
-1.496e-06,-2.08,-2.08
-1.492e-06,-2.08,-2.08
-1.488e-06,-2.1,-2.08
-1.484e-06,-2.08,-2.08
-1.480e-06,-2.08,-2.08
-1.476e-06,-2.1,-2.08
-1.472e-06,-2.1,-2.08
-1.468e-06,-2.1,-2.1
-1.464e-06,-2.1,-2.1
-1.460e-06,-2.1,-2.1
-1.456e-06,-2.1,-2.1
-1.452e-06,-2.1,-2.1
-1.448e-06,-2.1,-2.1
-1.444e-06,-2.12,-2.1
-1.440e-06,-2.12,-2.1
-1.436e-06,-2.12,-2.1
-1.432e-06,-2.14,-2.1
-1.428e-06,-2.12,-2.12
-1.424e-06,-2.12,-2.12
-1.420e-06,-2.12,-2.12
-1.416e-06,-2.14,-2.12
-1.412e-06,-2.14,-2.12
-1.408e-06,-2.12,-2.12
-1.404e-06,-2.14,-2.12
-1.400e-06,-2.14,-2.12
-1.396e-06,-2.14,-2.12
-1.392e-06,-2.14,-2.12
-1.388e-06,-2.14,-2.12
-1.384e-06,-2.14,-2.14
-1.380e-06,-2.14,-2.14
-1.376e-06,-2.16,-2.14
-1.372e-06,-2.16,-2.14
-1.368e-06,-2.16,-2.12
-1.364e-06,-2.16,-2.14
-1.360e-06,-2.16,-2.14
-1.356e-06,-2.16,-2.14
-1.352e-06,-2.18,-2.14
-1.348e-06,-2.16,-2.14
-1.344e-06,-2.16,-2.14
-1.340e-06,-2.16,-2.14
-1.336e-06,-2.16,-2.14
-1.332e-06,-2.16,-2.14
-1.328e-06,-2.18,-2.14
-1.324e-06,-2.18,-2.14
-1.320e-06,-2.18,-2.14
-1.316e-06,-2.18,-2.14
-1.312e-06,-2.18,-2.14
-1.308e-06,-2.18,-2.14
-1.304e-06,-2.18,-2.14
-1.300e-06,-2.18,-2.14
-1.296e-06,-2.18,-2.14
-1.292e-06,-2.18,-2.14
-1.288e-06,-2.18,-2.14
-1.284e-06,-2.18,-2.14
-1.280e-06,-2.18,-2.14
-1.276e-06,-2.18,-2.14
-1.272e-06,-2.18,-2.14
-1.268e-06,-2.18,-2.14
-1.264e-06,-2.2,-2.14
-1.260e-06,-2.18,-2.14
-1.256e-06,-2.18,-2.14
-1.252e-06,-2.2,-2.14
-1.248e-06,-2.18,-2.14
-1.244e-06,-2.18,-2.14
-1.240e-06,-2.18,-2.14
-1.236e-06,-2.18,-2.14
-1.232e-06,-2.18,-2.14
-1.228e-06,-2.2,-2.14
-1.224e-06,-2.18,-2.14
-1.220e-06,-2.18,-2.14
-1.216e-06,-2.18,-2.14
-1.212e-06,-2.18,-2.14
-1.208e-06,-2.18,-2.14
-1.204e-06,-2.2,-2.12
-1.200e-06,-2.18,-2.12
-1.196e-06,-2.18,-2.12
-1.192e-06,-2.18,-2.12
-1.188e-06,-2.18,-2.12
-1.184e-06,-2.18,-2.12
-1.180e-06,-2.18,-2.12
-1.176e-06,-2.18,-2.12
-1.172e-06,-2.18,-2.12
-1.168e-06,-2.18,-2.12
-1.164e-06,-2.18,-2.12
-1.160e-06,-2.16,-2.12
-1.156e-06,-2.18,-2.12
-1.152e-06,-2.18,-2.12
-1.148e-06,-2.18,-2.12
-1.144e-06,-2.18,-2.12
-1.140e-06,-2.16,-2.1
-1.136e-06,-2.16,-2.1
-1.132e-06,-2.16,-2.1
-1.128e-06,-2.16,-2.1
-1.124e-06,-2.16,-2.1
-1.120e-06,-2.16,-2.1
-1.116e-06,-2.16,-2.1
-1.112e-06,-2.16,-2.1
-1.108e-06,-2.16,-2.1
-1.104e-06,-2.16,-2.08
-1.100e-06,-2.16,-2.08
-1.096e-06,-2.14,-2.08
-1.092e-06,-2.14,-2.08
-1.088e-06,-2.14,-2.08
-1.084e-06,-2.14,-2.08
-1.080e-06,-2.14,-2.06
-1.076e-06,-2.14,-2.08
-1.072e-06,-2.14,-2.08
-1.068e-06,-2.14,-2.06
-1.064e-06,-2.12,-2.06
-1.060e-06,-2.12,-2.06
-1.056e-06,-2.12,-2.04
-1.052e-06,-2.14,-2.06
-1.048e-06,-2.14,-2.04
-1.044e-06,-2.12,-2.04
-1.040e-06,-2.12,-2.04
-1.036e-06,-2.12,-2.04
-1.032e-06,-2.1,-2.02
-1.028e-06,-2.1,-2.02
-1.024e-06,-2.12,-2.02
-1.020e-06,-2.1,-2.02
-1.016e-06,-2.1,-2.02
-1.012e-06,-2.08,-2.02
-1.008e-06,-2.08,-2
-1.004e-06,-2.08,-2
-1.000e-06,-2.08,-2
-9.960e-07,-2.08,-2
-9.920e-07,-2.08,-1.98
-9.880e-07,-2.06,-1.98
-9.840e-07,-2.06,-1.98
-9.800e-07,-2.06,-1.98
-9.760e-07,-2.06,-1.96
-9.720e-07,-2.04,-1.96
-9.680e-07,-2.04,-1.96
-9.640e-07,-2.04,-1.96
-9.600e-07,-2.04,-1.96
-9.560e-07,-2.04,-1.94
-9.520e-07,-2.04,-1.94
-9.480e-07,-2.02,-1.94
-9.440e-07,-2.02,-1.92
-9.400e-07,-2.02,-1.92
-9.360e-07,-2.02,-1.92
-9.320e-07,-2,-1.92
-9.280e-07,-2,-1.92
-9.240e-07,-2,-1.9
-9.200e-07,-2,-1.92
-9.160e-07,-2,-1.9
-9.120e-07,-1.98,-1.9
-9.080e-07,-1.98,-1.88
-9.040e-07,-1.98,-1.88
-9.000e-07,-1.98,-1.88
-8.960e-07,-1.96,-1.86
-8.920e-07,-1.96,-1.86
-8.880e-07,-1.96,-1.86
-8.840e-07,-1.96,-1.86
-8.800e-07,-1.94,-1.84
-8.760e-07,-1.96,-1.84
-8.720e-07,-1.94,-1.84
-8.680e-07,-1.94,-1.84
-8.640e-07,-1.94,-1.82
-8.600e-07,-1.92,-1.82
-8.560e-07,-1.92,-1.8
-8.520e-07,-1.92,-1.82
-8.480e-07,-1.92,-1.8
-8.440e-07,-1.9,-1.8
-8.400e-07,-1.88,-1.8
-8.360e-07,-1.88,-1.78
-8.320e-07,-1.88,-1.78
-8.280e-07,-1.88,-1.78
-8.240e-07,-1.86,-1.76
-8.200e-07,-1.88,-1.76
-8.160e-07,-1.86,-1.76
-8.120e-07,-1.86,-1.74
-8.080e-07,-1.84,-1.74
-8.040e-07,-1.84,-1.74
-8.000e-07,-1.84,-1.72
-7.960e-07,-1.82,-1.72
-7.920e-07,-1.82,-1.7
-7.880e-07,-1.82,-1.72
-7.840e-07,-1.8,-1.7
-7.800e-07,-1.8,-1.68
-7.760e-07,-1.78,-1.68
-7.720e-07,-1.8,-1.68
-7.680e-07,-1.78,-1.68
-7.640e-07,-1.78,-1.66
-7.600e-07,-1.76,-1.66
-7.560e-07,-1.76,-1.64
-7.520e-07,-1.78,-1.64
-7.480e-07,-1.76,-1.64
-7.440e-07,-1.74,-1.64
-7.400e-07,-1.72,-1.62
-7.360e-07,-1.74,-1.62
-7.320e-07,-1.72,-1.62
-7.280e-07,-1.72,-1.6
-7.240e-07,-1.7,-1.6
-7.200e-07,-1.72,-1.6
-7.160e-07,-1.7,-1.6
-7.120e-07,-1.7,-1.58
-7.080e-07,-1.68,-1.56
-7.040e-07,-1.68,-1.56
-7.000e-07,-1.68,-1.56
-6.960e-07,-1.66,-1.54
-6.920e-07,-1.66,-1.54
-6.880e-07,-1.66,-1.54
-6.840e-07,-1.64,-1.52
-6.800e-07,-1.64,-1.52
-6.760e-07,-1.62,-1.52
-6.720e-07,-1.62,-1.5
-6.680e-07,-1.62,-1.5
-6.640e-07,-1.6,-1.48
-6.600e-07,-1.6,-1.48
-6.560e-07,-1.6,-1.46
-6.520e-07,-1.58,-1.46
-6.480e-07,-1.56,-1.46
-6.440e-07,-1.56,-1.44
-6.400e-07,-1.56,-1.44
-6.360e-07,-1.56,-1.44
-6.320e-07,-1.54,-1.42
-6.280e-07,-1.54,-1.42
-6.240e-07,-1.52,-1.4
-6.200e-07,-1.52,-1.4
-6.160e-07,-1.52,-1.4
-6.120e-07,-1.5,-1.38
-6.080e-07,-1.5,-1.38
-6.040e-07,-1.48,-1.36
-6.000e-07,-1.48,-1.36
-5.960e-07,-1.48,-1.36
-5.920e-07,-1.46,-1.34
-5.880e-07,-1.46,-1.32
-5.840e-07,-1.44,-1.32
-5.800e-07,-1.44,-1.32
-5.760e-07,-1.44,-1.3
-5.720e-07,-1.42,-1.3
-5.680e-07,-1.42,-1.3
-5.640e-07,-1.4,-1.28
-5.600e-07,-1.4,-1.28
-5.560e-07,-1.38,-1.28
-5.520e-07,-1.38,-1.26
-5.480e-07,-1.38,-1.24
-5.440e-07,-1.36,-1.26
-5.400e-07,-1.36,-1.24
-5.360e-07,-1.34,-1.22
-5.320e-07,-1.34,-1.22
-5.280e-07,-1.34,-1.2
-5.240e-07,-1.32,-1.2
-5.200e-07,-1.3,-1.18
-5.160e-07,-1.3,-1.18
-5.120e-07,-1.3,-1.18
-5.080e-07,-1.28,-1.16
-5.040e-07,-1.28,-1.14
-5.000e-07,-1.26,-1.14
-4.960e-07,-1.26,-1.14
-4.920e-07,-1.26,-1.12
-4.880e-07,-1.24,-1.12
-4.840e-07,-1.22,-1.1
-4.800e-07,-1.22,-1.1
-4.760e-07,-1.2,-1.08
-4.720e-07,-1.2,-1.08
-4.680e-07,-1.18,-1.06
-4.640e-07,-1.18,-1.04
-4.600e-07,-1.18,-1.06
-4.560e-07,-1.16,-1.04
-4.520e-07,-1.16,-1.02
-4.480e-07,-1.14,-1.02
-4.440e-07,-1.14,-1
-4.400e-07,-1.14,-0.98
-4.360e-07,-1.12,-0.98
-4.320e-07,-1.1,-0.98
-4.280e-07,-1.1,-0.96
-4.240e-07,-1.08,-0.96
-4.200e-07,-1.08,-0.94
-4.160e-07,-1.06,-0.94
-4.120e-07,-1.06,-0.94
-4.080e-07,-1.04,-0.92
-4.040e-07,-1.04,-0.9
-4.000e-07,-1.04,-0.9
-3.960e-07,-1.04,-0.9
-3.920e-07,-1.02,-0.88
-3.880e-07,-1,-0.88
-3.840e-07,-1,-0.88
-3.800e-07,-0.98,-0.86
-3.760e-07,-0.96,-0.84
