lab2/exp5/data/day1/TEK00013.CSV

Model,TBS1102C
Firmware Version,v2015-08-04-prequal4ch70_v1.3

Point Format,Y,
Horizontal Units,S,
Horizontal Scale,4e-05,
Sample Interval,3.2e-07,
Filter Frequency,2e+08,
Record Length,2000,
Gating,0.0% to 100.0%,0.0% to 100.0%
Probe Attenuation,1,1
Vertical Units,V,V
Vertical Offset,0,0
Vertical Scale,0.5,0.5
Label,,
TIME,CH1,CH2
-3.200e-04,1.54,1.66
-3.197e-04,1.54,1.66
-3.194e-04,1.52,1.66
-3.190e-04,1.52,1.66
-3.187e-04,1.52,1.64
-3.184e-04,1.52,1.64
-3.181e-04,1.52,1.64
-3.178e-04,1.5,1.64
-3.174e-04,1.5,1.62
-3.171e-04,1.48,1.62
-3.168e-04,1.48,1.62
-3.165e-04,1.48,1.62
-3.162e-04,1.48,1.62
-3.158e-04,1.48,1.6
-3.155e-04,1.48,1.6
-3.152e-04,1.46,1.6
-3.149e-04,1.46,1.6
-3.146e-04,1.46,1.6
-3.142e-04,1.46,1.58
-3.139e-04,1.46,1.58
-3.136e-04,1.44,1.58
-3.133e-04,1.44,1.56
-3.130e-04,1.42,1.58
-3.126e-04,1.42,1.56
-3.123e-04,1.42,1.56
-3.120e-04,1.4,1.56
-3.117e-04,1.4,1.56
-3.114e-04,1.4,1.54
-3.110e-04,1.4,1.54
-3.107e-04,1.38,1.54
-3.104e-04,1.38,1.52
-3.101e-04,1.38,1.54
-3.098e-04,1.36,1.52
-3.094e-04,1.36,1.52
-3.091e-04,1.36,1.52
-3.088e-04,1.36,1.52
-3.085e-04,1.36,1.52
-3.082e-04,1.36,1.5
-3.078e-04,1.34,1.5
-3.075e-04,1.32,1.48
-3.072e-04,1.34,1.48
-3.069e-04,1.32,1.48
-3.066e-04,1.32,1.48
-3.062e-04,1.3,1.46
-3.059e-04,1.3,1.46
-3.056e-04,1.32,1.48
-3.053e-04,1.3,1.46
-3.050e-04,1.28,1.44
-3.046e-04,1.28,1.44
-3.043e-04,1.26,1.44
-3.040e-04,1.26,1.44
-3.037e-04,1.26,1.42
-3.034e-04,1.26,1.42
-3.030e-04,1.26,1.44
-3.027e-04,1.24,1.42
-3.024e-04,1.24,1.4
-3.021e-04,1.22,1.4
-3.018e-04,1.22,1.4
-3.014e-04,1.22,1.4
-3.011e-04,1.22,1.38
-3.008e-04,1.2,1.4
-3.005e-04,1.2,1.38
-3.002e-04,1.2,1.36
-2.998e-04,1.18,1.36
-2.995e-04,1.2,1.36
-2.992e-04,1.18,1.34
-2.989e-04,1.18,1.34
-2.986e-04,1.16,1.34
-2.982e-04,1.14,1.34
-2.979e-04,1.16,1.34
-2.976e-04,1.14,1.32
-2.973e-04,1.14,1.32
-2.970e-04,1.12,1.32
-2.966e-04,1.14,1.3
-2.963e-04,1.12,1.32
-2.960e-04,1.12,1.3
-2.957e-04,1.1,1.3
-2.954e-04,1.1,1.28
-2.950e-04,1.08,1.28
-2.947e-04,1.08,1.28
-2.944e-04,1.08,1.26
-2.941e-04,1.06,1.26
-2.938e-04,1.06,1.26
-2.934e-04,1.08,1.26
-2.931e-04,1.06,1.24
-2.928e-04,1.04,1.24
-2.925e-04,1.04,1.24
-2.922e-04,1.02,1.22
-2.918e-04,1.02,1.22
-2.915e-04,1,1.22
-2.912e-04,1.02,1.2
-2.909e-04,1,1.22
-2.906e-04,1,1.2
-2.902e-04,0.98,1.2
-2.899e-04,0.98,1.18
-2.896e-04,0.96,1.18
-2.893e-04,0.96,1.18
-2.890e-04,0.96,1.16
-2.886e-04,0.96,1.16
-2.883e-04,0.94,1.16
-2.880e-04,0.96,1.14
-2.877e-04,0.94,1.14
-2.874e-04,0.92,1.14
-2.870e-04,0.92,1.12
-2.867e-04,0.92,1.12
-2.864e-04,0.9,1.12
-2.861e-04,0.9,1.12
-2.858e-04,0.9,1.12
-2.854e-04,0.88,1.1
-2.851e-04,0.88,1.1
-2.848e-04,0.88,1.08
-2.845e-04,0.88,1.1
-2.842e-04,0.88,1.08
-2.838e-04,0.84,1.06
-2.835e-04,0.84,1.06
-2.832e-04,0.84,1.08
-2.829e-04,0.84,1.06
-2.826e-04,0.82,1.04
-2.822e-04,0.82,1.04
-2.819e-04,0.8,1.02
-2.816e-04,0.8,1.02
-2.813e-04,0.8,1
-2.810e-04,0.8,1.02
-2.806e-04,0.78,1
-2.803e-04,0.78,1
-2.800e-04,0.78,1
-2.797e-04,0.76,0.98
-2.794e-04,0.74,0.98
-2.790e-04,0.74,0.98
-2.787e-04,0.74,0.96
-2.784e-04,0.72,0.98
-2.781e-04,0.72,0.96
-2.778e-04,0.72,0.96
-2.774e-04,0.7,0.94
-2.771e-04,0.7,0.92
-2.768e-04,0.7,0.92
-2.765e-04,0.68,0.94
-2.762e-04,0.68,0.92
-2.758e-04,0.68,0.9
-2.755e-04,0.66,0.9
-2.752e-04,0.66,0.88
-2.749e-04,0.64,0.88
-2.746e-04,0.64,0.88
-2.742e-04,0.64,0.86
-2.739e-04,0.62,0.86
-2.736e-04,0.62,0.86
-2.733e-04,0.62,0.84
-2.730e-04,0.62,0.84
-2.726e-04,0.6,0.84
-2.723e-04,0.58,0.84
-2.720e-04,0.58,0.82
-2.717e-04,0.58,0.82
-2.714e-04,0.58,0.8
-2.710e-04,0.56,0.82
-2.707e-04,0.56,0.78
-2.704e-04,0.54,0.8
-2.701e-04,0.54,0.78
-2.698e-04,0.54,0.78
-2.694e-04,0.52,0.76
-2.691e-04,0.52,0.76
-2.688e-04,0.5,0.74
-2.685e-04,0.5,0.74
-2.682e-04,0.5,0.74
-2.678e-04,0.5,0.74
-2.675e-04,0.48,0.74
-2.672e-04,0.48,0.72
-2.669e-04,0.46,0.72
-2.666e-04,0.46,0.72
-2.662e-04,0.46,0.7
-2.659e-04,0.44,0.68
-2.656e-04,0.46,0.68
-2.653e-04,0.42,0.68
-2.650e-04,0.42,0.68
-2.646e-04,0.42,0.66
-2.643e-04,0.4,0.66
-2.640e-04,0.4,0.64
-2.637e-04,0.4,0.64
-2.634e-04,0.38,0.64
-2.630e-04,0.38,0.62
-2.627e-04,0.36,0.62
-2.624e-04,0.36,0.62
-2.621e-04,0.36,0.6
-2.618e-04,0.34,0.6
-2.614e-04,0.36,0.6
-2.611e-04,0.32,0.58
-2.608e-04,0.34,0.58
-2.605e-04,0.32,0.56
-2.602e-04,0.32,0.56
-2.598e-04,0.3,0.56
-2.595e-04,0.3,0.54
-2.592e-04,0.3,0.52
-2.589e-04,0.28,0.54
-2.586e-04,0.28,0.52
-2.582e-04,0.28,0.52
-2.579e-04,0.26,0.52
-2.576e-04,0.26,0.5
-2.573e-04,0.24,0.5
-2.570e-04,0.24,0.48
-2.566e-04,0.24,0.48
-2.563e-04,0.22,0.46
-2.560e-04,0.22,0.46
-2.557e-04,0.2,0.46
-2.554e-04,0.2,0.44
-2.550e-04,0.2,0.44
-2.547e-04,0.18,0.44
-2.544e-04,0.18,0.42
-2.541e-04,0.16,0.42
-2.538e-04,0.16,0.42
-2.534e-04,0.14,0.4
-2.531e-04,0.14,0.4
-2.528e-04,0.14,0.38
-2.525e-04,0.12,0.38
-2.522e-04,0.12,0.38
-2.518e-04,0.12,0.38
-2.515e-04,0.12,0.36
-2.512e-04,0.1,0.36
-2.509e-04,0.08,0.34
-2.506e-04,0.08,0.34
-2.502e-04,0.08,0.32
-2.499e-04,0.08,0.34
-2.496e-04,0.06,0.3
-2.493e-04,0.04,0.3
-2.490e-04,0.04,0.3
-2.486e-04,0.04,0.3
-2.483e-04,0.02,0.28
-2.480e-04,0.02,0.28
-2.477e-04,0,0.28
-2.474e-04,0,0.26
-2.470e-04,0,0.26
-2.467e-04,0,0.24
-2.464e-04,0,0.24
-2.461e-04,-0.02,0.22
-2.458e-04,-0.04,0.24
-2.454e-04,-0.04,0.22
-2.451e-04,-0.04,0.22
-2.448e-04,-0.04,0.2
-2.445e-04,-0.06,0.2
-2.442e-04,-0.06,0.18
-2.438e-04,-0.06,0.18
-2.435e-04,-0.08,0.18
-2.432e-04,-0.08,0.16
-2.429e-04,-0.08,0.16
-2.426e-04,-0.1,0.16
-2.422e-04,-0.1,0.14
-2.419e-04,-0.12,0.12
-2.416e-04,-0.12,0.12
-2.413e-04,-0.14,0.1
-2.410e-04,-0.14,0.12
-2.406e-04,-0.14,0.1
-2.403e-04,-0.14,0.1
-2.400e-04,-0.16,0.08
-2.397e-04,-0.16,0.08
-2.394e-04,-0.18,0.06
-2.390e-04,-0.18,0.06
-2.387e-04,-0.18,0.04
-2.384e-04,-0.2,0.04
-2.381e-04,-0.2,0.04
-2.378e-04,-0.2,0.04
-2.374e-04,-0.22,0.02
-2.371e-04,-0.22,0.02
-2.368e-04,-0.24,0
-2.365e-04,-0.24,0.02
-2.362e-04,-0.24,-0.02
-2.358e-04,-0.26,0
-2.355e-04,-0.26,-0.02
-2.352e-04,-0.28,-0.02
-2.349e-04,-0.28,-0.02
-2.346e-04,-0.28,-0.04
-2.342e-04,-0.3,-0.06
-2.339e-04,-0.3,-0.04
-2.336e-04,-0.32,-0.06
-2.333e-04,-0.32,-0.06
-2.330e-04,-0.32,-0.08
-2.326e-04,-0.32,-0.08
-2.323e-04,-0.34,-0.1
-2.320e-04,-0.34,-0.1
-2.317e-04,-0.34,-0.12
-2.314e-04,-0.36,-0.12
-2.310e-04,-0.36,-0.14
-2.307e-04,-0.38,-0.12
-2.304e-04,-0.38,-0.14
-2.301e-04,-0.4,-0.16
-2.298e-04,-0.42,-0.16
-2.294e-04,-0.4,-0.16
-2.291e-04,-0.42,-0.18
-2.288e-04,-0.44,-0.18
-2.285e-04,-0.42,-0.2
-2.282e-04,-0.44,-0.2
-2.278e-04,-0.44,-0.18
-2.275e-04,-0.46,-0.2
-2.272e-04,-0.44,-0.22
-2.269e-04,-0.46,-0.22
-2.266e-04,-0.48,-0.22
-2.262e-04,-0.48,-0.22
-2.259e-04,-0.48,-0.24
-2.256e-04,-0.5,-0.24
-2.253e-04,-0.52,-0.24
-2.250e-04,-0.52,-0.26
-2.246e-04,-0.52,-0.26
-2.243e-04,-0.52,-0.28
-2.240e-04,-0.54,-0.28
-2.237e-04,-0.54,-0.28
-2.234e-04,-0.54,-0.32
-2.230e-04,-0.56,-0.3
-2.227e-04,-0.56,-0.32
-2.224e-04,-0.56,-0.32
-2.221e-04,-0.56,-0.34
-2.218e-04,-0.6,-0.36
-2.214e-04,-0.58,-0.34
-2.211e-04,-0.6,-0.36
-2.208e-04,-0.6,-0.36
-2.205e-04,-0.62,-0.36
-2.202e-04,-0.64,-0.36
-2.198e-04,-0.62,-0.38
-2.195e-04,-0.62,-0.38
-2.192e-04,-0.64,-0.4
-2.189e-04,-0.64,-0.4
-2.186e-04,-0.66,-0.4
-2.182e-04,-0.66,-0.42
-2.179e-04,-0.68,-0.42
-2.176e-04,-0.68,-0.44
-2.173e-04,-0.68,-0.44
-2.170e-04,-0.68,-0.44
-2.166e-04,-0.7,-0.44
-2.163e-04,-0.7,-0.48
-2.160e-04,-0.72,-0.46
-2.157e-04,-0.72,-0.48
-2.154e-04,-0.72,-0.48
-2.150e-04,-0.72,-0.48
-2.147e-04,-0.76,-0.5
-2.144e-04,-0.74,-0.5
-2.141e-04,-0.76,-0.5
-2.138e-04,-0.76,-0.52
-2.134e-04,-0.76,-0.52
-2.131e-04,-0.78,-0.54
-2.128e-04,-0.78,-0.54
-2.125e-04,-0.8,-0.54
-2.122e-04,-0.82,-0.54
-2.118e-04,-0.8,-0.56
-2.115e-04,-0.8,-0.56
-2.112e-04,-0.84,-0.58
-2.109e-04,-0.82,-0.58
-2.106e-04,-0.84,-0.6
-2.102e-04,-0.84,-0.58
-2.099e-04,-0.84,-0.6
-2.096e-04,-0.86,-0.62
-2.093e-04,-0.86,-0.62
-2.090e-04,-0.86,-0.62
-2.086e-04,-0.86,-0.64
-2.083e-04,-0.88,-0.64
-2.080e-04,-0.88,-0.64
-2.077e-04,-0.9,-0.64
-2.074e-04,-0.92,-0.66
-2.070e-04,-0.9,-0.68
-2.067e-04,-0.92,-0.7
-2.064e-04,-0.9,-0.68
-2.061e-04,-0.94,-0.68
-2.058e-04,-0.92,-0.7
-2.054e-04,-0.94,-0.7
-2.051e-04,-0.94,-0.72
-2.048e-04,-0.96,-0.72
-2.045e-04,-0.96,-0.74
-2.042e-04,-0.96,-0.72
-2.038e-04,-0.98,-0.74
-2.035e-04,-0.98,-0.74
-2.032e-04,-0.98,-0.76
-2.029e-04,-0.98,-0.76
-2.026e-04,-1,-0.76
-2.022e-04,-1,-0.78
-2.019e-04,-1,-0.78
-2.016e-04,-1.02,-0.78
-2.013e-04,-1.02,-0.8
-2.010e-04,-1.04,-0.8
-2.006e-04,-1.04,-0.8
-2.003e-04,-1.06,-0.8
-2.000e-04,-1.04,-0.82
-1.997e-04,-1.06,-0.82
-1.994e-04,-1.06,-0.82
-1.990e-04,-1.08,-0.84
-1.987e-04,-1.08,-0.84
-1.984e-04,-1.1,-0.86
-1.981e-04,-1.08,-0.88
-1.978e-04,-1.1,-0.86
-1.974e-04,-1.1,-0.88
-1.971e-04,-1.1,-0.88
-1.968e-04,-1.1,-0.9
-1.965e-04,-1.12,-0.9
-1.962e-04,-1.12,-0.9
-1.958e-04,-1.14,-0.92
-1.955e-04,-1.14,-0.9
-1.952e-04,-1.14,-0.92
-1.949e-04,-1.14,-0.94
-1.946e-04,-1.16,-0.94
-1.942e-04,-1.16,-0.94
-1.939e-04,-1.18,-0.94
-1.936e-04,-1.16,-0.96
-1.933e-04,-1.18,-0.96
-1.930e-04,-1.18,-0.96
-1.926e-04,-1.18,-0.98
-1.923e-04,-1.2,-1
-1.920e-04,-1.2,-0.98
-1.917e-04,-1.22,-1
-1.914e-04,-1.22,-1
-1.910e-04,-1.22,-1
-1.907e-04,-1.22,-1.02
-1.904e-04,-1.24,-1.02
-1.901e-04,-1.26,-1.02
-1.898e-04,-1.26,-1.04
-1.894e-04,-1.26,-1.02
-1.891e-04,-1.26,-1.04
-1.888e-04,-1.28,-1.06
-1.885e-04,-1.26,-1.06
-1.882e-04,-1.28,-1.08
-1.878e-04,-1.28,-1.08
-1.875e-04,-1.28,-1.08
-1.872e-04,-1.3,-1.08
-1.869e-04,-1.3,-1.08
-1.866e-04,-1.3,-1.1
-1.862e-04,-1.32,-1.1
-1.859e-04,-1.32,-1.1
-1.856e-04,-1.32,-1.12
-1.853e-04,-1.32,-1.12
-1.850e-04,-1.34,-1.12
-1.846e-04,-1.34,-1.12
-1.843e-04,-1.34,-1.14
-1.840e-04,-1.36,-1.14
-1.837e-04,-1.36,-1.16
-1.834e-04,-1.36,-1.16
-1.830e-04,-1.36,-1.18
-1.827e-04,-1.38,-1.18
-1.824e-04,-1.38,-1.18
-1.821e-04,-1.38,-1.18
-1.818e-04,-1.4,-1.18
-1.814e-04,-1.4,-1.2
-1.811e-04,-1.4,-1.2
-1.808e-04,-1.4,-1.2
-1.805e-04,-1.42,-1.2
-1.802e-04,-1.42,-1.22
-1.798e-04,-1.42,-1.22
-1.795e-04,-1.42,-1.24
-1.792e-04,-1.44,-1.24
-1.789e-04,-1.44,-1.24
-1.786e-04,-1.44,-1.26
-1.782e-04,-1.46,-1.24
-1.779e-04,-1.46,-1.28
-1.776e-04,-1.46,-1.26
-1.773e-04,-1.48,-1.28
-1.770e-04,-1.46,-1.28
-1.766e-04,-1.48,-1.28
-1.763e-04,-1.48,-1.28
-1.760e-04,-1.5,-1.3
-1.757e-04,-1.5,-1.3
-1.754e-04,-1.5,-1.3
-1.750e-04,-1.5,-1.32
-1.747e-04,-1.5,-1.32
-1.744e-04,-1.52,-1.32
-1.741e-04,-1.52,-1.32
-1.738e-04,-1.54,-1.32
-1.734e-04,-1.54,-1.34
-1.731e-04,-1.54,-1.34
-1.728e-04,-1.56,-1.34
-1.725e-04,-1.54,-1.34
-1.722e-04,-1.56,-1.36
-1.718e-04,-1.56,-1.36
-1.715e-04,-1.56,-1.38
-1.712e-04,-1.56,-1.36
-1.709e-04,-1.56,-1.38
-1.706e-04,-1.56,-1.38
-1.702e-04,-1.58,-1.38
-1.699e-04,-1.58,-1.4
-1.696e-04,-1.6,-1.4
-1.693e-04,-1.6,-1.4
-1.690e-04,-1.6,-1.4
-1.686e-04,-1.6,-1.4
-1.683e-04,-1.6,-1.42
-1.680e-04,-1.6,-1.42
-1.677e-04,-1.62,-1.44
-1.674e-04,-1.62,-1.44
-1.670e-04,-1.62,-1.46
-1.667e-04,-1.64,-1.44
-1.664e-04,-1.62,-1.44
-1.661e-04,-1.64,-1.44
-1.658e-04,-1.66,-1.46
-1.654e-04,-1.64,-1.46
-1.651e-04,-1.64,-1.46
-1.648e-04,-1.66,-1.48
-1.645e-04,-1.66,-1.48
-1.642e-04,-1.66,-1.48
-1.638e-04,-1.66,-1.48
-1.635e-04,-1.68,-1.48
-1.632e-04,-1.68,-1.5
-1.629e-04,-1.68,-1.5
-1.626e-04,-1.68,-1.5
-1.622e-04,-1.68,-1.52
-1.619e-04,-1.68,-1.52
-1.616e-04,-1.7,-1.52
-1.613e-04,-1.7,-1.52
-1.610e-04,-1.7,-1.52
-1.606e-04,-1.7,-1.54
-1.603e-04,-1.72,-1.54
-1.600e-04,-1.72,-1.54
-1.597e-04,-1.72,-1.54
-1.594e-04,-1.72,-1.56
-1.590e-04,-1.72,-1.58
-1.587e-04,-1.72,-1.56
-1.584e-04,-1.72,-1.56
-1.581e-04,-1.74,-1.58
-1.578e-04,-1.74,-1.58
-1.574e-04,-1.76,-1.58
-1.571e-04,-1.74,-1.58
-1.568e-04,-1.74,-1.6
-1.565e-04,-1.76,-1.58
-1.562e-04,-1.74,-1.6
-1.558e-04,-1.76,-1.6
-1.555e-04,-1.78,-1.6
-1.552e-04,-1.76,-1.6
-1.549e-04,-1.78,-1.62
-1.546e-04,-1.76,-1.62
-1.542e-04,-1.76,-1.64
-1.539e-04,-1.78,-1.64
-1.536e-04,-1.78,-1.64
-1.533e-04,-1.78,-1.62
-1.530e-04,-1.78,-1.64
-1.526e-04,-1.8,-1.64
-1.523e-04,-1.8,-1.64
-1.520e-04,-1.78,-1.64
-1.517e-04,-1.78,-1.64
-1.514e-04,-1.78,-1.64
-1.510e-04,-1.78,-1.64
-1.507e-04,-1.8,-1.64
-1.504e-04,-1.78,-1.66
-1.501e-04,-1.78,-1.66
-1.498e-04,-1.78,-1.66
-1.494e-04,-1.8,-1.66
-1.491e-04,-1.8,-1.66
-1.488e-04,-1.8,-1.66
-1.485e-04,-1.8,-1.68
-1.482e-04,-1.82,-1.68
-1.478e-04,-1.8,-1.68
-1.475e-04,-1.82,-1.7
-1.472e-04,-1.82,-1.68
-1.469e-04,-1.82,-1.7
-1.466e-04,-1.82,-1.7
-1.462e-04,-1.82,-1.7
-1.459e-04,-1.82,-1.7
-1.456e-04,-1.82,-1.7
-1.453e-04,-1.82,-1.72
-1.450e-04,-1.84,-1.72
-1.446e-04,-1.84,-1.72
-1.443e-04,-1.84,-1.72
-1.440e-04,-1.84,-1.74
-1.437e-04,-1.84,-1.72
-1.434e-04,-1.86,-1.74
-1.430e-04,-1.84,-1.74
-1.427e-04,-1.86,-1.74
-1.424e-04,-1.84,-1.74
-1.421e-04,-1.86,-1.76
-1.418e-04,-1.86,-1.74
-1.414e-04,-1.86,-1.74
-1.411e-04,-1.86,-1.76
-1.408e-04,-1.86,-1.76
-1.405e-04,-1.86,-1.76
-1.402e-04,-1.86,-1.76
-1.398e-04,-1.86,-1.76
-1.395e-04,-1.86,-1.76
-1.392e-04,-1.86,-1.78
-1.389e-04,-1.86,-1.78
-1.386e-04,-1.86,-1.78
-1.382e-04,-1.88,-1.78
-1.379e-04,-1.88,-1.78
-1.376e-04,-1.88,-1.78
-1.373e-04,-1.88,-1.78
-1.370e-04,-1.88,-1.78
-1.366e-04,-1.88,-1.8
-1.363e-04,-1.88,-1.8
-1.360e-04,-1.88,-1.8
-1.357e-04,-1.88,-1.8
-1.354e-04,-1.88,-1.8
-1.350e-04,-1.88,-1.8
-1.347e-04,-1.88,-1.8
-1.344e-04,-1.88,-1.82
-1.341e-04,-1.88,-1.82
-1.338e-04,-1.9,-1.8
-1.334e-04,-1.88,-1.82
-1.331e-04,-1.88,-1.82
-1.328e-04,-1.9,-1.82
-1.325e-04,-1.88,-1.8
-1.322e-04,-1.88,-1.82
-1.318e-04,-1.9,-1.82
-1.315e-04,-1.9,-1.82
-1.312e-04,-1.9,-1.82
-1.309e-04,-1.9,-1.82
-1.306e-04,-1.9,-1.84
-1.302e-04,-1.9,-1.84
-1.299e-04,-1.9,-1.84
-1.296e-04,-1.9,-1.84
-1.293e-04,-1.9,-1.84
-1.290e-04,-1.9,-1.82
-1.286e-04,-1.9,-1.84
-1.283e-04,-1.9,-1.84
-1.280e-04,-1.9,-1.84
-1.277e-04,-1.9,-1.84
-1.274e-04,-1.9,-1.84
-1.270e-04,-1.9,-1.84
-1.267e-04,-1.92,-1.86
-1.264e-04,-1.92,-1.84
-1.261e-04,-1.9,-1.84
-1.258e-04,-1.9,-1.84
-1.254e-04,-1.9,-1.86
-1.251e-04,-1.9,-1.84
-1.248e-04,-1.9,-1.86
-1.245e-04,-1.9,-1.84
-1.242e-04,-1.9,-1.84
-1.238e-04,-1.9,-1.86
-1.235e-04,-1.92,-1.86
-1.232e-04,-1.9,-1.86
-1.229e-04,-1.9,-1.86
-1.226e-04,-1.9,-1.86
-1.222e-04,-1.92,-1.86
-1.219e-04,-1.9,-1.86
-1.216e-04,-1.9,-1.86
-1.213e-04,-1.9,-1.86
-1.210e-04,-1.9,-1.86
-1.206e-04,-1.9,-1.86
-1.203e-04,-1.9,-1.86
-1.200e-04,-1.9,-1.86
-1.197e-04,-1.9,-1.86
-1.194e-04,-1.9,-1.86
-1.190e-04,-1.9,-1.86
-1.187e-04,-1.9,-1.86
-1.184e-04,-1.9,-1.86
-1.181e-04,-1.9,-1.86
-1.178e-04,-1.88,-1.86
-1.174e-04,-1.9,-1.86
-1.171e-04,-1.9,-1.86
-1.168e-04,-1.88,-1.86
-1.165e-04,-1.9,-1.88
-1.162e-04,-1.88,-1.86
-1.158e-04,-1.88,-1.86
-1.155e-04,-1.88,-1.86
-1.152e-04,-1.88,-1.86
-1.149e-04,-1.88,-1.86
-1.146e-04,-1.88,-1.86
-1.142e-04,-1.88,-1.86
-1.139e-04,-1.88,-1.86
-1.136e-04,-1.88,-1.86
-1.133e-04,-1.88,-1.86
-1.130e-04,-1.88,-1.86
-1.126e-04,-1.88,-1.86
-1.123e-04,-1.88,-1.86
-1.120e-04,-1.88,-1.86
-1.117e-04,-1.88,-1.86
-1.114e-04,-1.86,-1.86
-1.110e-04,-1.86,-1.86
-1.107e-04,-1.86,-1.86
-1.104e-04,-1.86,-1.86
-1.101e-04,-1.86,-1.86
-1.098e-04,-1.86,-1.86
-1.094e-04,-1.86,-1.86
-1.091e-04,-1.84,-1.86
-1.088e-04,-1.88,-1.86
-1.085e-04,-1.86,-1.86
-1.082e-04,-1.86,-1.86
-1.078e-04,-1.86,-1.86
-1.075e-04,-1.86,-1.86
-1.072e-04,-1.86,-1.86
-1.069e-04,-1.86,-1.86
-1.066e-04,-1.84,-1.86
-1.062e-04,-1.84,-1.86
-1.059e-04,-1.84,-1.86
-1.056e-04,-1.84,-1.86
-1.053e-04,-1.84,-1.86
-1.050e-04,-1.86,-1.86
-1.046e-04,-1.84,-1.86
-1.043e-04,-1.82,-1.86
-1.040e-04,-1.82,-1.86
-1.037e-04,-1.84,-1.86
-1.034e-04,-1.82,-1.84
-1.030e-04,-1.82,-1.84
-1.027e-04,-1.82,-1.84
-1.024e-04,-1.82,-1.84
-1.021e-04,-1.82,-1.86
-1.018e-04,-1.82,-1.84
-1.014e-04,-1.8,-1.84
-1.011e-04,-1.8,-1.84
-1.008e-04,-1.8,-1.82
-1.005e-04,-1.8,-1.82
-1.002e-04,-1.82,-1.82
-9.984e-05,-1.8,-1.82
-9.952e-05,-1.8,-1.82
-9.920e-05,-1.8,-1.84
-9.888e-05,-1.78,-1.82
-9.856e-05,-1.78,-1.82
-9.824e-05,-1.78,-1.82
-9.792e-05,-1.78,-1.82
-9.760e-05,-1.78,-1.82
-9.728e-05,-1.78,-1.82
-9.696e-05,-1.78,-1.82
-9.664e-05,-1.78,-1.82
-9.632e-05,-1.76,-1.82
-9.600e-05,-1.76,-1.82
-9.568e-05,-1.76,-1.8
-9.536e-05,-1.76,-1.8
-9.504e-05,-1.76,-1.8
-9.472e-05,-1.78,-1.8
-9.440e-05,-1.76,-1.8
-9.408e-05,-1.76,-1.82
-9.376e-05,-1.74,-1.8
-9.344e-05,-1.74,-1.8
-9.312e-05,-1.74,-1.8
-9.280e-05,-1.74,-1.8
-9.248e-05,-1.74,-1.8
-9.216e-05,-1.74,-1.8
-9.184e-05,-1.74,-1.78
-9.152e-05,-1.74,-1.78
-9.120e-05,-1.72,-1.78
-9.088e-05,-1.72,-1.78
-9.056e-05,-1.72,-1.78
-9.024e-05,-1.72,-1.78
-8.992e-05,-1.72,-1.78
-8.960e-05,-1.7,-1.78
-8.928e-05,-1.7,-1.78
-8.896e-05,-1.7,-1.78
-8.864e-05,-1.7,-1.76
-8.832e-05,-1.7,-1.78
-8.800e-05,-1.68,-1.76
-8.768e-05,-1.68,-1.76
-8.736e-05,-1.68,-1.74
-8.704e-05,-1.7,-1.74
-8.672e-05,-1.68,-1.76
-8.640e-05,-1.68,-1.74
-8.608e-05,-1.68,-1.74
-8.576e-05,-1.66,-1.74
-8.544e-05,-1.66,-1.74
-8.512e-05,-1.66,-1.74
-8.480e-05,-1.66,-1.74
-8.448e-05,-1.66,-1.74
-8.416e-05,-1.64,-1.74
-8.384e-05,-1.66,-1.72
-8.352e-05,-1.64,-1.72
-8.320e-05,-1.64,-1.72
-8.288e-05,-1.64,-1.72
-8.256e-05,-1.64,-1.7
-8.224e-05,-1.62,-1.7
-8.192e-05,-1.62,-1.7
-8.160e-05,-1.62,-1.7
-8.128e-05,-1.62,-1.7
-8.096e-05,-1.62,-1.7
-8.064e-05,-1.6,-1.7
-8.032e-05,-1.6,-1.68
-8.000e-05,-1.6,-1.68
-7.968e-05,-1.6,-1.68
-7.936e-05,-1.6,-1.68
-7.904e-05,-1.58,-1.68
-7.872e-05,-1.58,-1.66
-7.840e-05,-1.58,-1.68
-7.808e-05,-1.58,-1.66
-7.776e-05,-1.58,-1.66
-7.744e-05,-1.56,-1.66
-7.712e-05,-1.56,-1.66
-7.680e-05,-1.56,-1.66
-7.648e-05,-1.56,-1.66
-7.616e-05,-1.54,-1.64
-7.584e-05,-1.54,-1.64
-7.552e-05,-1.54,-1.64
-7.520e-05,-1.54,-1.64
-7.488e-05,-1.54,-1.64
-7.456e-05,-1.52,-1.62
-7.424e-05,-1.52,-1.62
-7.392e-05,-1.52,-1.62
-7.360e-05,-1.52,-1.62
-7.328e-05,-1.5,-1.62
-7.296e-05,-1.52,-1.62
-7.264e-05,-1.5,-1.6
-7.232e-05,-1.48,-1.6
-7.200e-05,-1.48,-1.6
-7.168e-05,-1.48,-1.6
-7.136e-05,-1.48,-1.6
-7.104e-05,-1.48,-1.58
-7.072e-05,-1.46,-1.58
-7.040e-05,-1.46,-1.58
-7.008e-05,-1.46,-1.58
-6.976e-05,-1.44,-1.58
-6.944e-05,-1.44,-1.56
-6.912e-05,-1.44,-1.58
-6.880e-05,-1.44,-1.56
-6.848e-05,-1.44,-1.56
-6.816e-05,-1.42,-1.54
-6.784e-05,-1.42,-1.56
-6.752e-05,-1.42,-1.54
-6.720e-05,-1.42,-1.54
-6.688e-05,-1.4,-1.54
-6.656e-05,-1.4,-1.52
-6.624e-05,-1.4,-1.52
-6.592e-05,-1.4,-1.52
-6.560e-05,-1.38,-1.52
-6.528e-05,-1.38,-1.52
-6.496e-05,-1.38,-1.52
-6.464e-05,-1.36,-1.5
-6.432e-05,-1.36,-1.5
-6.400e-05,-1.36,-1.48
-6.368e-05,-1.36,-1.5
-6.336e-05,-1.34,-1.5
-6.304e-05,-1.34,-1.48
-6.272e-05,-1.34,-1.48
-6.240e-05,-1.32,-1.48
-6.208e-05,-1.32,-1.48
-6.176e-05,-1.32,-1.46
-6.144e-05,-1.3,-1.46
-6.112e-05,-1.3,-1.44
-6.080e-05,-1.32,-1.44
-6.048e-05,-1.3,-1.44
-6.016e-05,-1.28,-1.44
-5.984e-05,-1.28,-1.44
-5.952e-05,-1.28,-1.42
-5.920e-05,-1.28,-1.42
-5.888e-05,-1.28,-1.44
-5.856e-05,-1.26,-1.42
-5.824e-05,-1.26,-1.4
-5.792e-05,-1.26,-1.4
-5.760e-05,-1.24,-1.42
-5.728e-05,-1.24,-1.4
-5.696e-05,-1.22,-1.38
-5.664e-05,-1.22,-1.38
-5.632e-05,-1.22,-1.38
-5.600e-05,-1.22,-1.38
-5.568e-05,-1.2,-1.38
-5.536e-05,-1.2,-1.36
-5.504e-05,-1.2,-1.38
-5.472e-05,-1.2,-1.36
-5.440e-05,-1.18,-1.36
-5.408e-05,-1.18,-1.34
-5.376e-05,-1.18,-1.36
-5.344e-05,-1.16,-1.34
-5.312e-05,-1.16,-1.32
-5.280e-05,-1.16,-1.32
-5.248e-05,-1.14,-1.32
-5.216e-05,-1.14,-1.32
-5.184e-05,-1.14,-1.32
-5.152e-05,-1.12,-1.3
-5.120e-05,-1.12,-1.3
-5.088e-05,-1.12,-1.28
-5.056e-05,-1.12,-1.28
-5.024e-05,-1.1,-1.28
-4.992e-05,-1.1,-1.28
-4.960e-05,-1.08,-1.26
-4.928e-05,-1.08,-1.26
-4.896e-05,-1.08,-1.26
-4.864e-05,-1.08,-1.26
-4.832e-05,-1.06,-1.24
-4.800e-05,-1.06,-1.24
-4.768e-05,-1.06,-1.24
-4.736e-05,-1.06,-1.22
-4.704e-05,-1.06,-1.22
-4.672e-05,-1.04,-1.22
-4.640e-05,-1.04,-1.2
-4.608e-05,-1.04,-1.2
-4.576e-05,-1.02,-1.22
-4.544e-05,-1,-1.2
-4.512e-05,-1,-1.18
-4.480e-05,-1,-1.18
-4.448e-05,-0.98,-1.18
-4.416e-05,-0.98,-1.16
-4.384e-05,-1,-1.16
-4.352e-05,-0.96,-1.16
-4.320e-05,-0.96,-1.16
-4.288e-05,-0.96,-1.14
-4.256e-05,-0.94,-1.16
-4.224e-05,-0.94,-1.14
-4.192e-05,-0.92,-1.14
-4.160e-05,-0.92,-1.12
-4.128e-05,-0.92,-1.12
-4.096e-05,-0.92,-1.1
-4.064e-05,-0.9,-1.1
-4.032e-05,-0.9,-1.12
-4.000e-05,-0.9,-1.1
-3.968e-05,-0.88,-1.1
-3.936e-05,-0.88,-1.08
-3.904e-05,-0.88,-1.08
-3.872e-05,-0.88,-1.08
-3.840e-05,-0.86,-1.06
-3.808e-05,-0.86,-1.06
-3.776e-05,-0.84,-1.04
-3.744e-05,-0.86,-1.04
-3.712e-05,-0.86,-1.06
-3.680e-05,-0.82,-1.02
-3.648e-05,-0.82,-1.02
-3.616e-05,-0.82,-1.02
-3.584e-05,-0.8,-1.02
-3.552e-05,-0.8,-1
-3.520e-05,-0.8,-1.02
-3.488e-05,-0.78,-1
-3.456e-05,-0.78,-0.98
-3.424e-05,-0.78,-0.98
