lab2/exp5/data/day1/TEK00018.CSV

Model,TBS1102C
Firmware Version,v2015-08-04-prequal4ch70_v1.3

Point Format,Y,
Horizontal Units,S,
Horizontal Scale,1e-05,
Sample Interval,8e-08,
Filter Frequency,2e+08,
Record Length,2000,
Gating,0.0% to 100.0%,0.0% to 100.0%
Probe Attenuation,1,1
Vertical Units,V,V
Vertical Offset,0,0
Vertical Scale,0.2,0.2
Label,,
TIME,CH1,CH2
-8.000e-05,-0.464,0
-7.992e-05,-0.464,0.008
-7.984e-05,-0.464,0
-7.976e-05,-0.456,0
-7.968e-05,-0.456,0
-7.960e-05,-0.456,0
-7.952e-05,-0.456,0
-7.944e-05,-0.456,0.008
-7.936e-05,-0.456,0
-7.928e-05,-0.448,0
-7.920e-05,-0.448,0
-7.912e-05,-0.448,-0.008
-7.904e-05,-0.448,0
-7.896e-05,-0.456,0
-7.888e-05,-0.448,0
-7.880e-05,-0.448,0
-7.872e-05,-0.448,0
-7.864e-05,-0.44,0
-7.856e-05,-0.448,0
-7.848e-05,-0.44,0
-7.840e-05,-0.44,0
-7.832e-05,-0.44,0
-7.824e-05,-0.432,-0.008
-7.816e-05,-0.432,0
-7.808e-05,-0.432,0
-7.800e-05,-0.424,-0.008
-7.792e-05,-0.424,0
-7.784e-05,-0.432,-0.008
-7.776e-05,-0.424,-0.008
-7.768e-05,-0.424,-0.008
-7.760e-05,-0.424,-0.008
-7.752e-05,-0.424,-0.008
-7.744e-05,-0.424,-0.016
-7.736e-05,-0.416,-0.008
-7.728e-05,-0.416,-0.008
-7.720e-05,-0.416,-0.008
-7.712e-05,-0.408,-0.008
-7.704e-05,-0.408,-0.008
-7.696e-05,-0.408,-0.008
-7.688e-05,-0.4,-0.008
-7.680e-05,-0.4,-0.008
-7.672e-05,-0.4,-0.008
-7.664e-05,-0.4,-0.016
-7.656e-05,-0.392,-0.008
-7.648e-05,-0.392,-0.008
-7.640e-05,-0.392,-0.016
-7.632e-05,-0.392,-0.016
-7.624e-05,-0.384,-0.016
-7.616e-05,-0.384,-0.016
-7.608e-05,-0.384,-0.016
-7.600e-05,-0.384,-0.016
-7.592e-05,-0.376,-0.016
-7.584e-05,-0.384,-0.016
-7.576e-05,-0.376,-0.016
-7.568e-05,-0.368,-0.016
-7.560e-05,-0.376,-0.016
-7.552e-05,-0.368,-0.016
-7.544e-05,-0.36,-0.024
-7.536e-05,-0.36,-0.016
-7.528e-05,-0.36,-0.016
-7.520e-05,-0.352,-0.016
-7.512e-05,-0.352,-0.024
-7.504e-05,-0.352,-0.016
-7.496e-05,-0.344,-0.016
-7.488e-05,-0.344,-0.016
-7.480e-05,-0.344,-0.016
-7.472e-05,-0.336,-0.016
-7.464e-05,-0.336,-0.016
-7.456e-05,-0.336,-0.016
-7.448e-05,-0.328,-0.016
-7.440e-05,-0.336,-0.016
-7.432e-05,-0.328,-0.024
-7.424e-05,-0.32,-0.016
-7.416e-05,-0.32,-0.016
-7.408e-05,-0.32,-0.016
-7.400e-05,-0.312,-0.016
-7.392e-05,-0.312,-0.016
-7.384e-05,-0.312,-0.024
-7.376e-05,-0.304,-0.016
-7.368e-05,-0.304,-0.024
-7.360e-05,-0.296,-0.016
-7.352e-05,-0.296,-0.016
-7.344e-05,-0.288,-0.016
-7.336e-05,-0.288,-0.016
-7.328e-05,-0.288,-0.016
-7.320e-05,-0.28,-0.016
-7.312e-05,-0.288,-0.024
-7.304e-05,-0.272,-0.016
-7.296e-05,-0.272,-0.024
-7.288e-05,-0.272,-0.024
-7.280e-05,-0.272,-0.016
-7.272e-05,-0.264,-0.024
-7.264e-05,-0.264,-0.016
-7.256e-05,-0.256,-0.024
-7.248e-05,-0.256,-0.024
-7.240e-05,-0.248,-0.024
-7.232e-05,-0.256,-0.016
-7.224e-05,-0.24,-0.024
-7.216e-05,-0.24,-0.024
-7.208e-05,-0.24,-0.024
-7.200e-05,-0.232,-0.024
-7.192e-05,-0.232,-0.024
-7.184e-05,-0.224,-0.024
-7.176e-05,-0.224,-0.024
-7.168e-05,-0.216,-0.016
-7.160e-05,-0.216,-0.024
-7.152e-05,-0.216,-0.024
-7.144e-05,-0.208,-0.024
-7.136e-05,-0.208,-0.024
-7.128e-05,-0.208,-0.024
-7.120e-05,-0.2,-0.024
-7.112e-05,-0.2,-0.016
-7.104e-05,-0.2,-0.024
-7.096e-05,-0.192,-0.024
-7.088e-05,-0.184,-0.024
-7.080e-05,-0.184,-0.024
-7.072e-05,-0.184,-0.024
-7.064e-05,-0.176,-0.016
-7.056e-05,-0.168,-0.024
-7.048e-05,-0.168,-0.024
-7.040e-05,-0.176,-0.024
-7.032e-05,-0.16,-0.024
-7.024e-05,-0.16,-0.024
-7.016e-05,-0.152,-0.024
-7.008e-05,-0.152,-0.032
-7.000e-05,-0.152,-0.024
-6.992e-05,-0.144,-0.024
-6.984e-05,-0.144,-0.024
-6.976e-05,-0.144,-0.024
-6.968e-05,-0.128,-0.024
-6.960e-05,-0.128,-0.032
-6.952e-05,-0.128,-0.016
-6.944e-05,-0.12,-0.024
-6.936e-05,-0.12,-0.032
-6.928e-05,-0.12,-0.024
-6.920e-05,-0.112,-0.024
-6.912e-05,-0.112,-0.024
-6.904e-05,-0.104,-0.024
-6.896e-05,-0.104,-0.024
-6.888e-05,-0.096,-0.016
-6.880e-05,-0.096,-0.024
-6.872e-05,-0.088,-0.024
-6.864e-05,-0.088,-0.024
-6.856e-05,-0.08,-0.024
-6.848e-05,-0.08,-0.024
-6.840e-05,-0.08,-0.024
-6.832e-05,-0.072,-0.024
-6.824e-05,-0.072,-0.024
-6.816e-05,-0.064,-0.024
-6.808e-05,-0.056,-0.024
-6.800e-05,-0.056,-0.024
-6.792e-05,-0.056,-0.024
-6.784e-05,-0.048,-0.024
-6.776e-05,-0.048,-0.024
-6.768e-05,-0.04,-0.024
-6.760e-05,-0.04,-0.032
-6.752e-05,-0.032,-0.024
-6.744e-05,-0.024,-0.024
-6.736e-05,-0.024,-0.024
-6.728e-05,-0.024,-0.024
-6.720e-05,-0.016,-0.024
-6.712e-05,-0.016,-0.024
-6.704e-05,-0.016,-0.024
-6.696e-05,-0.016,-0.024
-6.688e-05,0,-0.024
-6.680e-05,-0.008,-0.024
-6.672e-05,0,-0.024
-6.664e-05,0.008,-0.024
-6.656e-05,0.008,-0.016
-6.648e-05,0.008,-0.024
-6.640e-05,0.016,-0.024
-6.632e-05,0.016,-0.024
-6.624e-05,0.024,-0.024
-6.616e-05,0.024,-0.024
-6.608e-05,0.032,-0.024
-6.600e-05,0.032,-0.024
-6.592e-05,0.04,-0.024
-6.584e-05,0.04,-0.016
-6.576e-05,0.04,-0.024
-6.568e-05,0.048,-0.024
-6.560e-05,0.056,-0.024
-6.552e-05,0.056,-0.024
-6.544e-05,0.064,-0.024
-6.536e-05,0.064,-0.024
-6.528e-05,0.064,-0.016
-6.520e-05,0.072,-0.016
-6.512e-05,0.08,-0.016
-6.504e-05,0.08,-0.016
-6.496e-05,0.08,-0.016
-6.488e-05,0.088,-0.016
-6.480e-05,0.088,-0.016
-6.472e-05,0.096,-0.016
-6.464e-05,0.096,-0.016
-6.456e-05,0.104,-0.016
-6.448e-05,0.112,-0.016
-6.440e-05,0.112,-0.016
-6.432e-05,0.112,-0.016
-6.424e-05,0.112,-0.024
-6.416e-05,0.12,-0.016
-6.408e-05,0.128,-0.016
-6.400e-05,0.128,-0.016
-6.392e-05,0.128,-0.016
-6.384e-05,0.136,-0.016
-6.376e-05,0.136,-0.016
-6.368e-05,0.152,-0.016
-6.360e-05,0.152,-0.016
-6.352e-05,0.152,-0.016
-6.344e-05,0.152,-0.016
-6.336e-05,0.16,-0.016
-6.328e-05,0.16,-0.016
-6.320e-05,0.16,-0.016
-6.312e-05,0.168,-0.008
-6.304e-05,0.176,-0.016
-6.296e-05,0.176,-0.016
-6.288e-05,0.176,-0.008
-6.280e-05,0.184,-0.008
-6.272e-05,0.192,-0.016
-6.264e-05,0.192,-0.008
-6.256e-05,0.192,-0.016
-6.248e-05,0.2,-0.008
-6.240e-05,0.208,-0.008
-6.232e-05,0.208,-0.008
-6.224e-05,0.208,-0.008
-6.216e-05,0.224,-0.016
-6.208e-05,0.224,-0.008
-6.200e-05,0.216,-0.008
-6.192e-05,0.224,-0.008
-6.184e-05,0.224,-0.008
-6.176e-05,0.232,-0.008
-6.168e-05,0.232,-0.016
-6.160e-05,0.24,-0.008
-6.152e-05,0.248,-0.008
-6.144e-05,0.24,-0.008
-6.136e-05,0.248,-0.008
-6.128e-05,0.256,-0.008
-6.120e-05,0.256,-0.008
-6.112e-05,0.264,-0.008
-6.104e-05,0.264,0
-6.096e-05,0.272,-0.008
-6.088e-05,0.272,-0.008
-6.080e-05,0.28,-0.008
-6.072e-05,0.272,0
-6.064e-05,0.28,0
-6.056e-05,0.28,0
-6.048e-05,0.288,0
-6.040e-05,0.288,0
-6.032e-05,0.296,0
-6.024e-05,0.296,0
-6.016e-05,0.304,0
-6.008e-05,0.304,0
-6.000e-05,0.312,0
-5.992e-05,0.312,0
-5.984e-05,0.32,0
-5.976e-05,0.32,0
-5.968e-05,0.32,0
-5.960e-05,0.32,0
-5.952e-05,0.328,0
-5.944e-05,0.328,-0.008
-5.936e-05,0.328,0
-5.928e-05,0.336,0
-5.920e-05,0.336,-0.008
-5.912e-05,0.336,0
-5.904e-05,0.344,0.008
-5.896e-05,0.344,0
-5.888e-05,0.352,0
-5.880e-05,0.352,0
-5.872e-05,0.352,0
-5.864e-05,0.36,0
-5.856e-05,0.36,0
-5.848e-05,0.368,0
-5.840e-05,0.368,0
-5.832e-05,0.376,0
-5.824e-05,0.376,0
-5.816e-05,0.376,0
-5.808e-05,0.376,0
-5.800e-05,0.376,0
-5.792e-05,0.384,0
-5.784e-05,0.384,0
-5.776e-05,0.384,0.008
-5.768e-05,0.384,0
-5.760e-05,0.392,0.008
-5.752e-05,0.4,0.008
-5.744e-05,0.4,0.008
-5.736e-05,0.4,0
-5.728e-05,0.4,0.008
-5.720e-05,0.416,0
-5.712e-05,0.416,0.008
-5.704e-05,0.408,0.008
-5.696e-05,0.416,0.016
-5.688e-05,0.424,0.008
-5.680e-05,0.416,0.008
-5.672e-05,0.424,0.008
-5.664e-05,0.424,0.008
-5.656e-05,0.424,0.008
-5.648e-05,0.424,0.016
-5.640e-05,0.432,0.008
-5.632e-05,0.432,0.008
-5.624e-05,0.432,0.008
-5.616e-05,0.44,0.008
-5.608e-05,0.448,0.008
-5.600e-05,0.44,0.008
-5.592e-05,0.44,0.008
-5.584e-05,0.448,0.016
-5.576e-05,0.448,0.008
-5.568e-05,0.448,0.008
-5.560e-05,0.456,0.008
-5.552e-05,0.456,0.008
-5.544e-05,0.456,0.008
-5.536e-05,0.456,0.008
-5.528e-05,0.456,0.016
-5.520e-05,0.464,0.008
-5.512e-05,0.472,0.016
-5.504e-05,0.464,0.016
-5.496e-05,0.464,0.016
-5.488e-05,0.472,0.016
-5.480e-05,0.472,0.016
-5.472e-05,0.472,0.024
-5.464e-05,0.472,0.016
-5.456e-05,0.48,0.016
-5.448e-05,0.472,0.016
-5.440e-05,0.48,0.016
-5.432e-05,0.48,0.016
-5.424e-05,0.48,0.016
-5.416e-05,0.488,0.016
-5.408e-05,0.488,0.016
-5.400e-05,0.488,0.016
-5.392e-05,0.488,0.016
-5.384e-05,0.488,0.024
-5.376e-05,0.488,0.016
-5.368e-05,0.504,0.024
-5.360e-05,0.504,0.024
-5.352e-05,0.504,0.024
-5.344e-05,0.496,0.024
-5.336e-05,0.504,0.032
-5.328e-05,0.504,0.024
-5.320e-05,0.512,0.024
-5.312e-05,0.504,0.024
-5.304e-05,0.512,0.024
-5.296e-05,0.512,0.024
-5.288e-05,0.512,0.024
-5.280e-05,0.52,0.032
-5.272e-05,0.512,0.032
-5.264e-05,0.512,0.032
-5.256e-05,0.512,0.032
-5.248e-05,0.52,0.032
-5.240e-05,0.52,0.032
-5.232e-05,0.52,0.032
-5.224e-05,0.52,0.032
-5.216e-05,0.52,0.04
-5.208e-05,0.52,0.04
-5.200e-05,0.52,0.032
-5.192e-05,0.528,0.032
-5.184e-05,0.528,0.032
-5.176e-05,0.528,0.04
-5.168e-05,0.528,0.032
-5.160e-05,0.528,0.04
-5.152e-05,0.528,0.04
-5.144e-05,0.528,0.04
-5.136e-05,0.528,0.04
-5.128e-05,0.528,0.04
-5.120e-05,0.528,0.04
-5.112e-05,0.536,0.04
-5.104e-05,0.536,0.04
-5.096e-05,0.536,0.048
-5.088e-05,0.528,0.04
-5.080e-05,0.536,0.04
-5.072e-05,0.536,0.048
-5.064e-05,0.536,0.04
-5.056e-05,0.536,0.048
-5.048e-05,0.536,0.04
-5.040e-05,0.536,0.04
-5.032e-05,0.544,0.048
-5.024e-05,0.536,0.048
-5.016e-05,0.536,0.048
-5.008e-05,0.536,0.04
-5.000e-05,0.536,0.04
-4.992e-05,0.536,0.048
-4.984e-05,0.536,0.04
-4.976e-05,0.536,0.04
-4.968e-05,0.536,0.04
-4.960e-05,0.536,0.048
-4.952e-05,0.536,0.048
-4.944e-05,0.536,0.048
-4.936e-05,0.536,0.04
-4.928e-05,0.528,0.04
-4.920e-05,0.528,0.04
-4.912e-05,0.536,0.048
-4.904e-05,0.536,0.048
-4.896e-05,0.536,0.048
-4.888e-05,0.528,0.048
-4.880e-05,0.528,0.04
-4.872e-05,0.536,0.04
-4.864e-05,0.528,0.048
-4.856e-05,0.528,0.056
-4.848e-05,0.528,0.048
-4.840e-05,0.528,0.048
-4.832e-05,0.528,0.048
-4.824e-05,0.528,0.048
-4.816e-05,0.528,0.048
-4.808e-05,0.528,0.048
-4.800e-05,0.528,0.048
-4.792e-05,0.536,0.048
-4.784e-05,0.528,0.048
-4.776e-05,0.52,0.056
-4.768e-05,0.52,0.048
-4.760e-05,0.52,0.048
-4.752e-05,0.528,0.048
-4.744e-05,0.52,0.048
-4.736e-05,0.52,0.048
-4.728e-05,0.52,0.048
-4.720e-05,0.52,0.048
-4.712e-05,0.52,0.048
-4.704e-05,0.52,0.048
-4.696e-05,0.52,0.048
-4.688e-05,0.512,0.056
-4.680e-05,0.512,0.048
-4.672e-05,0.512,0.048
-4.664e-05,0.512,0.048
-4.656e-05,0.512,0.056
-4.648e-05,0.512,0.056
-4.640e-05,0.512,0.048
-4.632e-05,0.504,0.056
-4.624e-05,0.504,0.056
-4.616e-05,0.504,0.056
-4.608e-05,0.504,0.056
-4.600e-05,0.504,0.056
-4.592e-05,0.504,0.056
-4.584e-05,0.496,0.056
-4.576e-05,0.496,0.056
-4.568e-05,0.496,0.064
-4.560e-05,0.496,0.064
-4.552e-05,0.496,0.056
-4.544e-05,0.496,0.056
-4.536e-05,0.496,0.056
-4.528e-05,0.488,0.056
-4.520e-05,0.488,0.056
-4.512e-05,0.488,0.056
-4.504e-05,0.488,0.064
-4.496e-05,0.488,0.064
-4.488e-05,0.48,0.064
-4.480e-05,0.48,0.064
-4.472e-05,0.48,0.064
-4.464e-05,0.48,0.064
-4.456e-05,0.472,0.064
-4.448e-05,0.472,0.064
-4.440e-05,0.48,0.064
-4.432e-05,0.472,0.064
-4.424e-05,0.464,0.064
-4.416e-05,0.464,0.064
-4.408e-05,0.464,0.064
-4.400e-05,0.464,0.064
-4.392e-05,0.464,0.064
-4.384e-05,0.456,0.064
-4.376e-05,0.464,0.064
-4.368e-05,0.456,0.064
-4.360e-05,0.456,0.064
-4.352e-05,0.448,0.064
-4.344e-05,0.448,0.072
-4.336e-05,0.448,0.064
-4.328e-05,0.448,0.072
-4.320e-05,0.44,0.072
-4.312e-05,0.44,0.064
-4.304e-05,0.44,0.072
-4.296e-05,0.44,0.072
-4.288e-05,0.432,0.072
-4.280e-05,0.44,0.072
-4.272e-05,0.424,0.072
-4.264e-05,0.432,0.072
-4.256e-05,0.424,0.072
-4.248e-05,0.416,0.072
-4.240e-05,0.416,0.064
-4.232e-05,0.416,0.072
-4.224e-05,0.416,0.072
-4.216e-05,0.408,0.064
-4.208e-05,0.408,0.072
-4.200e-05,0.408,0.072
-4.192e-05,0.408,0.072
-4.184e-05,0.4,0.072
-4.176e-05,0.4,0.072
-4.168e-05,0.392,0.072
-4.160e-05,0.392,0.072
-4.152e-05,0.392,0.072
-4.144e-05,0.384,0.072
-4.136e-05,0.392,0.072
-4.128e-05,0.384,0.072
-4.120e-05,0.376,0.072
-4.112e-05,0.376,0.072
-4.104e-05,0.376,0.072
-4.096e-05,0.376,0.072
-4.088e-05,0.368,0.072
-4.080e-05,0.368,0.072
-4.072e-05,0.36,0.072
-4.064e-05,0.36,0.072
-4.056e-05,0.36,0.072
-4.048e-05,0.352,0.072
-4.040e-05,0.344,0.072
-4.032e-05,0.344,0.072
-4.024e-05,0.344,0.072
-4.016e-05,0.344,0.072
-4.008e-05,0.336,0.072
-4.000e-05,0.336,0.072
-3.992e-05,0.328,0.072
-3.984e-05,0.328,0.072
-3.976e-05,0.328,0.072
-3.968e-05,0.32,0.072
-3.960e-05,0.32,0.08
-3.952e-05,0.312,0.072
-3.944e-05,0.312,0.072
-3.936e-05,0.304,0.072
-3.928e-05,0.312,0.072
-3.920e-05,0.304,0.072
-3.912e-05,0.296,0.072
-3.904e-05,0.304,0.08
-3.896e-05,0.296,0.072
-3.888e-05,0.296,0.08
-3.880e-05,0.288,0.08
-3.872e-05,0.28,0.072
-3.864e-05,0.28,0.072
-3.856e-05,0.28,0.08
-3.848e-05,0.272,0.072
-3.840e-05,0.264,0.072
-3.832e-05,0.264,0.072
-3.824e-05,0.264,0.072
-3.816e-05,0.256,0.072
-3.808e-05,0.256,0.072
-3.800e-05,0.256,0.072
-3.792e-05,0.248,0.08
-3.784e-05,0.248,0.072
-3.776e-05,0.24,0.072
-3.768e-05,0.232,0.072
-3.760e-05,0.24,0.072
-3.752e-05,0.232,0.08
-3.744e-05,0.224,0.072
-3.736e-05,0.224,0.072
-3.728e-05,0.224,0.072
-3.720e-05,0.208,0.072
-3.712e-05,0.208,0.072
-3.704e-05,0.208,0.072
-3.696e-05,0.208,0.072
-3.688e-05,0.2,0.072
-3.680e-05,0.2,0.072
-3.672e-05,0.192,0.072
-3.664e-05,0.192,0.072
-3.656e-05,0.184,0.08
-3.648e-05,0.184,0.072
-3.640e-05,0.176,0.072
-3.632e-05,0.176,0.072
-3.624e-05,0.168,0.072
-3.616e-05,0.16,0.072
-3.608e-05,0.16,0.072
-3.600e-05,0.16,0.072
-3.592e-05,0.152,0.072
-3.584e-05,0.152,0.08
-3.576e-05,0.144,0.072
-3.568e-05,0.144,0.08
-3.560e-05,0.144,0.072
-3.552e-05,0.136,0.072
-3.544e-05,0.136,0.072
-3.536e-05,0.128,0.072
-3.528e-05,0.128,0.072
-3.520e-05,0.12,0.072
-3.512e-05,0.112,0.072
-3.504e-05,0.112,0.072
-3.496e-05,0.112,0.072
-3.488e-05,0.104,0.08
-3.480e-05,0.112,0.072
-3.472e-05,0.096,0.072
-3.464e-05,0.104,0.072
-3.456e-05,0.096,0.08
-3.448e-05,0.088,0.072
-3.440e-05,0.08,0.072
-3.432e-05,0.08,0.072
-3.424e-05,0.08,0.072
-3.416e-05,0.072,0.072
-3.408e-05,0.072,0.072
-3.400e-05,0.064,0.072
-3.392e-05,0.064,0.072
-3.384e-05,0.064,0.072
-3.376e-05,0.056,0.072
-3.368e-05,0.048,0.072
-3.360e-05,0.048,0.072
-3.352e-05,0.04,0.072
-3.344e-05,0.04,0.072
-3.336e-05,0.032,0.072
-3.328e-05,0.032,0.072
-3.320e-05,0.024,0.072
-3.312e-05,0.024,0.072
-3.304e-05,0.016,0.072
-3.296e-05,0.016,0.072
-3.288e-05,0.016,0.072
-3.280e-05,0.016,0.072
-3.272e-05,0.008,0.072
-3.264e-05,0,0.072
-3.256e-05,-0.008,0.072
-3.248e-05,0,0.072
-3.240e-05,-0.008,0.072
-3.232e-05,-0.016,0.072
-3.224e-05,-0.016,0.064
-3.216e-05,-0.024,0.064
-3.208e-05,-0.032,0.072
-3.200e-05,-0.024,0.072
-3.192e-05,-0.032,0.064
-3.184e-05,-0.032,0.072
-3.176e-05,-0.04,0.064
-3.168e-05,-0.04,0.064
-3.160e-05,-0.04,0.064
-3.152e-05,-0.048,0.072
-3.144e-05,-0.056,0.064
-3.136e-05,-0.056,0.072
-3.128e-05,-0.064,0.064
-3.120e-05,-0.064,0.072
-3.112e-05,-0.072,0.072
-3.104e-05,-0.072,0.064
-3.096e-05,-0.08,0.072
-3.088e-05,-0.08,0.064
-3.080e-05,-0.088,0.064
-3.072e-05,-0.088,0.064
-3.064e-05,-0.096,0.064
-3.056e-05,-0.096,0.064
-3.048e-05,-0.096,0.064
-3.040e-05,-0.104,0.064
-3.032e-05,-0.104,0.064
-3.024e-05,-0.112,0.064
-3.016e-05,-0.112,0.064
-3.008e-05,-0.112,0.064
-3.000e-05,-0.128,0.064
-2.992e-05,-0.128,0.064
-2.984e-05,-0.128,0.064
-2.976e-05,-0.136,0.064
-2.968e-05,-0.136,0.064
-2.960e-05,-0.136,0.064
-2.952e-05,-0.144,0.064
-2.944e-05,-0.144,0.064
-2.936e-05,-0.152,0.064
-2.928e-05,-0.152,0.064
-2.920e-05,-0.16,0.064
-2.912e-05,-0.16,0.056
-2.904e-05,-0.176,0.056
-2.896e-05,-0.168,0.064
-2.888e-05,-0.176,0.056
-2.880e-05,-0.176,0.056
-2.872e-05,-0.176,0.056
-2.864e-05,-0.192,0.064
-2.856e-05,-0.184,0.056
-2.848e-05,-0.192,0.056
-2.840e-05,-0.192,0.056
-2.832e-05,-0.2,0.056
-2.824e-05,-0.208,0.056
-2.816e-05,-0.208,0.056
-2.808e-05,-0.208,0.064
-2.800e-05,-0.216,0.064
-2.792e-05,-0.216,0.056
-2.784e-05,-0.216,0.056
-2.776e-05,-0.216,0.056
-2.768e-05,-0.224,0.056
-2.760e-05,-0.224,0.056
-2.752e-05,-0.232,0.056
-2.744e-05,-0.232,0.056
-2.736e-05,-0.24,0.056
-2.728e-05,-0.24,0.056
-2.720e-05,-0.24,0.056
-2.712e-05,-0.248,0.048
-2.704e-05,-0.256,0.056
-2.696e-05,-0.256,0.056
-2.688e-05,-0.256,0.056
-2.680e-05,-0.264,0.048
-2.672e-05,-0.264,0.048
-2.664e-05,-0.272,0.048
-2.656e-05,-0.272,0.048
-2.648e-05,-0.28,0.056
-2.640e-05,-0.28,0.048
-2.632e-05,-0.28,0.048
-2.624e-05,-0.288,0.048
-2.616e-05,-0.288,0.048
-2.608e-05,-0.288,0.048
-2.600e-05,-0.296,0.048
-2.592e-05,-0.296,0.048
-2.584e-05,-0.304,0.048
-2.576e-05,-0.304,0.048
-2.568e-05,-0.304,0.056
-2.560e-05,-0.304,0.048
-2.552e-05,-0.312,0.048
-2.544e-05,-0.312,0.048
-2.536e-05,-0.312,0.048
-2.528e-05,-0.32,0.048
-2.520e-05,-0.32,0.048
-2.512e-05,-0.32,0.048
-2.504e-05,-0.328,0.048
-2.496e-05,-0.328,0.048
-2.488e-05,-0.336,0.04
-2.480e-05,-0.336,0.048
-2.472e-05,-0.344,0.048
-2.464e-05,-0.336,0.048
-2.456e-05,-0.336,0.048
-2.448e-05,-0.344,0.048
-2.440e-05,-0.352,0.048
-2.432e-05,-0.352,0.04
-2.424e-05,-0.352,0.04
-2.416e-05,-0.36,0.04
-2.408e-05,-0.36,0.04
-2.400e-05,-0.36,0.04
-2.392e-05,-0.36,0.04
-2.384e-05,-0.376,0.04
-2.376e-05,-0.376,0.04
-2.368e-05,-0.376,0.048
-2.360e-05,-0.376,0.048
-2.352e-05,-0.376,0.04
-2.344e-05,-0.376,0.048
-2.336e-05,-0.392,0.04
-2.328e-05,-0.384,0.04
-2.320e-05,-0.384,0.04
-2.312e-05,-0.392,0.04
-2.304e-05,-0.392,0.04
-2.296e-05,-0.392,0.04
-2.288e-05,-0.392,0.04
-2.280e-05,-0.4,0.04
-2.272e-05,-0.4,0.04
-2.264e-05,-0.4,0.04
-2.256e-05,-0.408,0.04
-2.248e-05,-0.408,0.032
-2.240e-05,-0.408,0.032
-2.232e-05,-0.416,0.032
-2.224e-05,-0.408,0.032
-2.216e-05,-0.416,0.032
-2.208e-05,-0.416,0.032
-2.200e-05,-0.416,0.04
-2.192e-05,-0.424,0.032
-2.184e-05,-0.424,0.032
-2.176e-05,-0.424,0.04
-2.168e-05,-0.432,0.032
-2.160e-05,-0.424,0.032
-2.152e-05,-0.432,0.032
-2.144e-05,-0.432,0.032
-2.136e-05,-0.432,0.032
-2.128e-05,-0.44,0.032
-2.120e-05,-0.44,0.032
-2.112e-05,-0.44,0.032
-2.104e-05,-0.44,0.032
-2.096e-05,-0.44,0.032
-2.088e-05,-0.448,0.032
-2.080e-05,-0.448,0.024
-2.072e-05,-0.448,0.024
-2.064e-05,-0.448,0.024
-2.056e-05,-0.448,0.024
-2.048e-05,-0.456,0.032
-2.040e-05,-0.456,0.024
-2.032e-05,-0.448,0.024
-2.024e-05,-0.464,0.024
-2.016e-05,-0.464,0.024
-2.008e-05,-0.464,0.024
-2.000e-05,-0.456,0.024
-1.992e-05,-0.464,0.016
-1.984e-05,-0.464,0.024
-1.976e-05,-0.464,0.016
-1.968e-05,-0.464,0.024
-1.960e-05,-0.472,0.016
-1.952e-05,-0.472,0.016
-1.944e-05,-0.472,0.016
-1.936e-05,-0.472,0.016
-1.928e-05,-0.472,0.016
-1.920e-05,-0.472,0.016
-1.912e-05,-0.472,0.016
-1.904e-05,-0.48,0.024
-1.896e-05,-0.488,0.024
-1.888e-05,-0.48,0.016
-1.880e-05,-0.48,0.016
-1.872e-05,-0.48,0.016
-1.864e-05,-0.488,0.016
-1.856e-05,-0.48,0.016
-1.848e-05,-0.488,0.008
-1.840e-05,-0.488,0.008
-1.832e-05,-0.488,0.008
-1.824e-05,-0.488,0.008
-1.816e-05,-0.488,0.016
-1.808e-05,-0.488,0.008
-1.800e-05,-0.496,0.008
-1.792e-05,-0.488,0.008
-1.784e-05,-0.496,0.008
-1.776e-05,-0.496,0.008
-1.768e-05,-0.496,0.008
-1.760e-05,-0.496,0.008
-1.752e-05,-0.496,0.008
-1.744e-05,-0.496,0
-1.736e-05,-0.496,0
-1.728e-05,-0.496,0
-1.720e-05,-0.496,0
-1.712e-05,-0.496,0
-1.704e-05,-0.504,0
-1.696e-05,-0.496,0
-1.688e-05,-0.504,0
-1.680e-05,-0.504,0.008
-1.672e-05,-0.496,0
-1.664e-05,-0.496,0
-1.656e-05,-0.496,0
-1.648e-05,-0.496,0.008
-1.640e-05,-0.496,0.008
-1.632e-05,-0.496,0
-1.624e-05,-0.496,0.008
-1.616e-05,-0.488,0.008
-1.608e-05,-0.488,0.008
-1.600e-05,-0.488,0.008
-1.592e-05,-0.488,0.008
-1.584e-05,-0.488,0.008
-1.576e-05,-0.488,0.008
-1.568e-05,-0.488,0.008
-1.560e-05,-0.488,0.008
-1.552e-05,-0.488,0.008
-1.544e-05,-0.488,0.008
-1.536e-05,-0.488,0.016
-1.528e-05,-0.488,0.008
-1.520e-05,-0.48,0.008
-1.512e-05,-0.488,0.016
-1.504e-05,-0.48,0.008
-1.496e-05,-0.48,0.008
-1.488e-05,-0.48,0.008
-1.480e-05,-0.48,0.008
-1.472e-05,-0.48,0.008
-1.464e-05,-0.48,0.008
-1.456e-05,-0.472,0.016
-1.448e-05,-0.472,0.008
-1.440e-05,-0.472,0.008
-1.432e-05,-0.472,0.008
-1.424e-05,-0.472,0.008
-1.416e-05,-0.472,0.008
-1.408e-05,-0.472,0
-1.400e-05,-0.472,0.008
-1.392e-05,-0.472,0.008
-1.384e-05,-0.472,0
-1.376e-05,-0.464,0
-1.368e-05,-0.464,0
-1.360e-05,-0.464,0.008
-1.352e-05,-0.464,0
-1.344e-05,-0.464,0
-1.336e-05,-0.464,0
-1.328e-05,-0.464,0
-1.320e-05,-0.464,0
-1.312e-05,-0.464,0.008
-1.304e-05,-0.464,0
-1.296e-05,-0.456,0
-1.288e-05,-0.464,0
-1.280e-05,-0.456,0.008
-1.272e-05,-0.456,0
-1.264e-05,-0.456,0
-1.256e-05,-0.456,0
-1.248e-05,-0.448,0
-1.240e-05,-0.448,0
-1.232e-05,-0.456,-0.008
-1.224e-05,-0.448,0
-1.216e-05,-0.448,0
-1.208e-05,-0.448,0
-1.200e-05,-0.448,0
-1.192e-05,-0.448,0
-1.184e-05,-0.44,0
-1.176e-05,-0.44,-0.008
