lab2/exp5/data/day1/TEK00047.CSV

Model,TBS1102C,
Firmware Version,v2015-08-04-prequal4ch70_v1.3,

Point Format,Y,
Horizontal Units,S,
Horizontal Scale,4e-06,
Sample Interval,3.2e-08,
Filter Frequency,2e+08,
Record Length,2000,
Gating,0.0% to 100.0%,0.0% to 100.0%
Probe Attenuation,1,1
Vertical Units,V,V
Vertical Offset,0,0
Vertical Scale,1,0.5
Label,,
TIME,CH1,CH2
-3.200e-05,-2,-2.02
-3.197e-05,-2,-2.02
-3.194e-05,-2,-2.02
-3.190e-05,-2,-2.02
-3.187e-05,-2,-2.02
-3.184e-05,-2,-2.02
-3.181e-05,-2,-2.04
-3.178e-05,-2.04,-2.04
-3.174e-05,-2,-2.04
-3.171e-05,-2.04,-2.04
-3.168e-05,-2,-2.04
-3.165e-05,-2,-2.04
-3.162e-05,-2,-2.04
-3.158e-05,-2.04,-2.04
-3.155e-05,-2.04,-2.04
-3.152e-05,-2.04,-2.04
-3.149e-05,-2.04,-2.06
-3.146e-05,-2.04,-2.06
-3.142e-05,-2.04,-2.06
-3.139e-05,-2.04,-2.06
-3.136e-05,-2.04,-2.06
-3.133e-05,-2.04,-2.06
-3.130e-05,-2.04,-2.06
-3.126e-05,-2.04,-2.06
-3.123e-05,-2.04,-2.06
-3.120e-05,-2.04,-2.06
-3.117e-05,-2.08,-2.08
-3.114e-05,-2.04,-2.06
-3.110e-05,-2.04,-2.06
-3.107e-05,-2.04,-2.08
-3.104e-05,-2.08,-2.08
-3.101e-05,-2.04,-2.08
-3.098e-05,-2.04,-2.08
-3.094e-05,-2.04,-2.08
-3.091e-05,-2.08,-2.08
-3.088e-05,-2.08,-2.1
-3.085e-05,-2.04,-2.08
-3.082e-05,-2.08,-2.1
-3.078e-05,-2.08,-2.08
-3.075e-05,-2.04,-2.08
-3.072e-05,-2.08,-2.08
-3.069e-05,-2.08,-2.1
-3.066e-05,-2.08,-2.1
-3.062e-05,-2.08,-2.1
-3.059e-05,-2.08,-2.1
-3.056e-05,-2.08,-2.1
-3.053e-05,-2.08,-2.1
-3.050e-05,-2.08,-2.1
-3.046e-05,-2.08,-2.1
-3.043e-05,-2.12,-2.1
-3.040e-05,-2.08,-2.1
-3.037e-05,-2.12,-2.12
-3.034e-05,-2.12,-2.1
-3.030e-05,-2.08,-2.12
-3.027e-05,-2.08,-2.12
-3.024e-05,-2.12,-2.12
-3.021e-05,-2.12,-2.12
-3.018e-05,-2.12,-2.12
-3.014e-05,-2.12,-2.12
-3.011e-05,-2.12,-2.12
-3.008e-05,-2.12,-2.12
-3.005e-05,-2.12,-2.12
-3.002e-05,-2.12,-2.12
-2.998e-05,-2.12,-2.12
-2.995e-05,-2.12,-2.12
-2.992e-05,-2.12,-2.12
-2.989e-05,-2.12,-2.12
-2.986e-05,-2.12,-2.12
-2.982e-05,-2.12,-2.12
-2.979e-05,-2.12,-2.12
-2.976e-05,-2.12,-2.14
-2.973e-05,-2.12,-2.14
-2.970e-05,-2.12,-2.12
-2.966e-05,-2.12,-2.14
-2.963e-05,-2.12,-2.14
-2.960e-05,-2.12,-2.14
-2.957e-05,-2.12,-2.14
-2.954e-05,-2.12,-2.14
-2.950e-05,-2.12,-2.14
-2.947e-05,-2.12,-2.14
-2.944e-05,-2.12,-2.14
-2.941e-05,-2.16,-2.14
-2.938e-05,-2.12,-2.14
-2.934e-05,-2.12,-2.14
-2.931e-05,-2.12,-2.14
-2.928e-05,-2.16,-2.14
-2.925e-05,-2.16,-2.14
-2.922e-05,-2.16,-2.14
-2.918e-05,-2.12,-2.14
-2.915e-05,-2.16,-2.14
-2.912e-05,-2.16,-2.16
-2.909e-05,-2.12,-2.14
-2.906e-05,-2.12,-2.14
-2.902e-05,-2.16,-2.14
-2.899e-05,-2.16,-2.14
-2.896e-05,-2.16,-2.14
-2.893e-05,-2.12,-2.16
-2.890e-05,-2.12,-2.14
-2.886e-05,-2.12,-2.16
-2.883e-05,-2.16,-2.16
-2.880e-05,-2.16,-2.14
-2.877e-05,-2.16,-2.14
-2.874e-05,-2.16,-2.14
-2.870e-05,-2.12,-2.16
-2.867e-05,-2.12,-2.16
-2.864e-05,-2.16,-2.16
-2.861e-05,-2.16,-2.16
-2.858e-05,-2.16,-2.16
-2.854e-05,-2.16,-2.16
-2.851e-05,-2.12,-2.16
-2.848e-05,-2.16,-2.16
-2.845e-05,-2.16,-2.16
-2.842e-05,-2.12,-2.16
-2.838e-05,-2.16,-2.16
-2.835e-05,-2.16,-2.16
-2.832e-05,-2.16,-2.16
-2.829e-05,-2.16,-2.16
-2.826e-05,-2.16,-2.16
-2.822e-05,-2.12,-2.16
-2.819e-05,-2.12,-2.16
-2.816e-05,-2.12,-2.16
-2.813e-05,-2.16,-2.16
-2.810e-05,-2.16,-2.16
-2.806e-05,-2.12,-2.16
-2.803e-05,-2.12,-2.16
-2.800e-05,-2.16,-2.14
-2.797e-05,-2.16,-2.16
-2.794e-05,-2.16,-2.16
-2.790e-05,-2.16,-2.14
-2.787e-05,-2.12,-2.16
-2.784e-05,-2.12,-2.14
-2.781e-05,-2.12,-2.14
-2.778e-05,-2.12,-2.16
-2.774e-05,-2.16,-2.14
-2.771e-05,-2.16,-2.16
-2.768e-05,-2.12,-2.14
-2.765e-05,-2.12,-2.14
-2.762e-05,-2.16,-2.14
-2.758e-05,-2.12,-2.14
-2.755e-05,-2.16,-2.16
-2.752e-05,-2.12,-2.14
-2.749e-05,-2.12,-2.14
-2.746e-05,-2.12,-2.14
-2.742e-05,-2.12,-2.14
-2.739e-05,-2.16,-2.14
-2.736e-05,-2.12,-2.14
-2.733e-05,-2.12,-2.14
-2.730e-05,-2.12,-2.14
-2.726e-05,-2.12,-2.14
-2.723e-05,-2.12,-2.14
-2.720e-05,-2.12,-2.14
-2.717e-05,-2.16,-2.14
-2.714e-05,-2.12,-2.14
-2.710e-05,-2.12,-2.14
-2.707e-05,-2.12,-2.14
-2.704e-05,-2.12,-2.14
-2.701e-05,-2.16,-2.14
-2.698e-05,-2.12,-2.14
-2.694e-05,-2.12,-2.12
-2.691e-05,-2.12,-2.12
-2.688e-05,-2.12,-2.14
-2.685e-05,-2.12,-2.12
-2.682e-05,-2.12,-2.12
-2.678e-05,-2.12,-2.12
-2.675e-05,-2.12,-2.12
-2.672e-05,-2.12,-2.12
-2.669e-05,-2.12,-2.12
-2.666e-05,-2.12,-2.12
-2.662e-05,-2.12,-2.12
-2.659e-05,-2.12,-2.12
-2.656e-05,-2.08,-2.12
-2.653e-05,-2.08,-2.12
-2.650e-05,-2.08,-2.12
-2.646e-05,-2.12,-2.12
-2.643e-05,-2.08,-2.12
-2.640e-05,-2.08,-2.1
-2.637e-05,-2.08,-2.1
-2.634e-05,-2.12,-2.1
-2.630e-05,-2.12,-2.1
-2.627e-05,-2.12,-2.1
-2.624e-05,-2.12,-2.1
-2.621e-05,-2.08,-2.1
-2.618e-05,-2.08,-2.1
-2.614e-05,-2.08,-2.1
-2.611e-05,-2.08,-2.08
-2.608e-05,-2.08,-2.1
-2.605e-05,-2.08,-2.08
-2.602e-05,-2.08,-2.1
-2.598e-05,-2.08,-2.08
-2.595e-05,-2.08,-2.08
-2.592e-05,-2.08,-2.08
-2.589e-05,-2.08,-2.08
-2.586e-05,-2.08,-2.08
-2.582e-05,-2.08,-2.08
-2.579e-05,-2.08,-2.08
-2.576e-05,-2.08,-2.08
-2.573e-05,-2.08,-2.08
-2.570e-05,-2.04,-2.08
-2.566e-05,-2.08,-2.08
-2.563e-05,-2.04,-2.08
-2.560e-05,-2.08,-2.06
-2.557e-05,-2.04,-2.06
-2.554e-05,-2.04,-2.06
-2.550e-05,-2.04,-2.06
-2.547e-05,-2.04,-2.06
-2.544e-05,-2.04,-2.06
-2.541e-05,-2.04,-2.04
-2.538e-05,-2.04,-2.06
-2.534e-05,-2.04,-2.04
-2.531e-05,-2.04,-2.04
-2.528e-05,-2.04,-2.04
-2.525e-05,-2.04,-2.04
-2.522e-05,-2.04,-2.04
-2.518e-05,-2.04,-2.04
-2.515e-05,-2.04,-2.04
-2.512e-05,-2.04,-2.04
-2.509e-05,-2.04,-2.04
-2.506e-05,-2.04,-2.04
-2.502e-05,-2.04,-2.02
-2.499e-05,-2.04,-2.02
-2.496e-05,-2.04,-2.02
-2.493e-05,-2,-2.02
-2.490e-05,-2,-2.02
-2.486e-05,-2.04,-2.02
-2.483e-05,-2.04,-2.02
-2.480e-05,-2,-2.02
-2.477e-05,-2.04,-2.02
-2.474e-05,-2,-2.02
-2.470e-05,-2,-2
-2.467e-05,-2,-2
-2.464e-05,-2,-2
-2.461e-05,-2,-2
-2.458e-05,-2,-2
-2.454e-05,-1.96,-2
-2.451e-05,-2,-1.98
-2.448e-05,-2,-1.98
-2.445e-05,-2,-1.98
-2.442e-05,-1.96,-1.98
-2.438e-05,-2,-1.98
-2.435e-05,-2,-1.98
-2.432e-05,-1.96,-1.98
-2.429e-05,-1.96,-1.98
-2.426e-05,-1.96,-1.98
-2.422e-05,-1.96,-1.96
-2.419e-05,-1.96,-1.96
-2.416e-05,-1.96,-1.96
-2.413e-05,-1.96,-1.96
-2.410e-05,-1.96,-1.96
-2.406e-05,-1.96,-1.96
-2.403e-05,-1.96,-1.94
-2.400e-05,-1.92,-1.96
-2.397e-05,-1.96,-1.94
-2.394e-05,-1.96,-1.94
-2.390e-05,-1.92,-1.94
-2.387e-05,-1.92,-1.94
-2.384e-05,-1.92,-1.94
-2.381e-05,-1.92,-1.94
-2.378e-05,-1.92,-1.92
-2.374e-05,-1.92,-1.92
-2.371e-05,-1.92,-1.92
-2.368e-05,-1.92,-1.92
-2.365e-05,-1.92,-1.92
-2.362e-05,-1.92,-1.92
-2.358e-05,-1.92,-1.9
-2.355e-05,-1.92,-1.9
-2.352e-05,-1.92,-1.9
-2.349e-05,-1.92,-1.9
-2.346e-05,-1.92,-1.9
-2.342e-05,-1.92,-1.9
-2.339e-05,-1.92,-1.9
-2.336e-05,-1.92,-1.9
-2.333e-05,-1.88,-1.9
-2.330e-05,-1.88,-1.88
-2.326e-05,-1.88,-1.88
-2.323e-05,-1.88,-1.88
-2.320e-05,-1.88,-1.88
-2.317e-05,-1.92,-1.88
-2.314e-05,-1.88,-1.86
-2.310e-05,-1.84,-1.86
-2.307e-05,-1.88,-1.86
-2.304e-05,-1.84,-1.86
-2.301e-05,-1.84,-1.86
-2.298e-05,-1.84,-1.86
-2.294e-05,-1.84,-1.86
-2.291e-05,-1.88,-1.84
-2.288e-05,-1.88,-1.84
-2.285e-05,-1.84,-1.84
-2.282e-05,-1.84,-1.84
-2.278e-05,-1.84,-1.84
-2.275e-05,-1.84,-1.84
-2.272e-05,-1.84,-1.84
-2.269e-05,-1.84,-1.82
-2.266e-05,-1.84,-1.82
-2.262e-05,-1.84,-1.82
-2.259e-05,-1.84,-1.82
-2.256e-05,-1.84,-1.82
-2.253e-05,-1.8,-1.8
-2.250e-05,-1.84,-1.8
-2.246e-05,-1.8,-1.8
-2.243e-05,-1.8,-1.8
-2.240e-05,-1.8,-1.8
-2.237e-05,-1.8,-1.78
-2.234e-05,-1.8,-1.8
-2.230e-05,-1.8,-1.78
-2.227e-05,-1.8,-1.78
-2.224e-05,-1.8,-1.78
-2.221e-05,-1.76,-1.78
-2.218e-05,-1.76,-1.76
-2.214e-05,-1.76,-1.76
-2.211e-05,-1.76,-1.76
-2.208e-05,-1.76,-1.76
-2.205e-05,-1.76,-1.76
-2.202e-05,-1.76,-1.76
-2.198e-05,-1.72,-1.74
-2.195e-05,-1.72,-1.74
-2.192e-05,-1.72,-1.74
-2.189e-05,-1.72,-1.74
-2.186e-05,-1.72,-1.72
-2.182e-05,-1.72,-1.72
-2.179e-05,-1.72,-1.72
-2.176e-05,-1.76,-1.74
-2.173e-05,-1.76,-1.72
-2.170e-05,-1.72,-1.72
-2.166e-05,-1.72,-1.7
-2.163e-05,-1.72,-1.7
-2.160e-05,-1.72,-1.7
-2.157e-05,-1.72,-1.7
-2.154e-05,-1.68,-1.7
-2.150e-05,-1.68,-1.68
-2.147e-05,-1.68,-1.68
-2.144e-05,-1.72,-1.68
-2.141e-05,-1.68,-1.68
-2.138e-05,-1.68,-1.66
-2.134e-05,-1.68,-1.66
-2.131e-05,-1.68,-1.66
-2.128e-05,-1.68,-1.66
-2.125e-05,-1.64,-1.66
-2.122e-05,-1.68,-1.66
-2.118e-05,-1.64,-1.64
-2.115e-05,-1.68,-1.64
-2.112e-05,-1.64,-1.64
-2.109e-05,-1.64,-1.64
-2.106e-05,-1.64,-1.64
-2.102e-05,-1.6,-1.64
-2.099e-05,-1.6,-1.62
-2.096e-05,-1.64,-1.62
-2.093e-05,-1.6,-1.62
-2.090e-05,-1.64,-1.62
-2.086e-05,-1.6,-1.62
-2.083e-05,-1.6,-1.6
-2.080e-05,-1.64,-1.6
-2.077e-05,-1.64,-1.6
-2.074e-05,-1.6,-1.6
-2.070e-05,-1.6,-1.58
-2.067e-05,-1.6,-1.58
-2.064e-05,-1.6,-1.58
-2.061e-05,-1.56,-1.56
-2.058e-05,-1.56,-1.56
-2.054e-05,-1.56,-1.56
-2.051e-05,-1.56,-1.56
-2.048e-05,-1.56,-1.56
-2.045e-05,-1.6,-1.56
-2.042e-05,-1.52,-1.56
-2.038e-05,-1.56,-1.54
-2.035e-05,-1.56,-1.56
-2.032e-05,-1.52,-1.54
-2.029e-05,-1.52,-1.52
-2.026e-05,-1.52,-1.52
-2.022e-05,-1.52,-1.52
-2.019e-05,-1.52,-1.52
-2.016e-05,-1.52,-1.5
-2.013e-05,-1.48,-1.5
-2.010e-05,-1.48,-1.5
-2.006e-05,-1.52,-1.52
-2.003e-05,-1.48,-1.48
-2.000e-05,-1.48,-1.48
-1.997e-05,-1.48,-1.48
-1.994e-05,-1.48,-1.48
-1.990e-05,-1.48,-1.48
-1.987e-05,-1.52,-1.46
-1.984e-05,-1.48,-1.48
-1.981e-05,-1.48,-1.46
-1.978e-05,-1.44,-1.46
-1.974e-05,-1.44,-1.44
-1.971e-05,-1.48,-1.44
-1.968e-05,-1.48,-1.44
-1.965e-05,-1.44,-1.44
-1.962e-05,-1.44,-1.42
-1.958e-05,-1.44,-1.42
-1.955e-05,-1.44,-1.42
-1.952e-05,-1.4,-1.42
-1.949e-05,-1.4,-1.42
-1.946e-05,-1.4,-1.4
-1.942e-05,-1.4,-1.4
-1.939e-05,-1.4,-1.42
-1.936e-05,-1.4,-1.4
-1.933e-05,-1.4,-1.38
-1.930e-05,-1.4,-1.38
-1.926e-05,-1.4,-1.38
-1.923e-05,-1.4,-1.38
-1.920e-05,-1.36,-1.38
-1.917e-05,-1.36,-1.36
-1.914e-05,-1.36,-1.36
-1.910e-05,-1.36,-1.36
-1.907e-05,-1.4,-1.34
-1.904e-05,-1.36,-1.34
-1.901e-05,-1.32,-1.34
-1.898e-05,-1.32,-1.34
-1.894e-05,-1.32,-1.32
-1.891e-05,-1.32,-1.32
-1.888e-05,-1.32,-1.32
-1.885e-05,-1.32,-1.32
-1.882e-05,-1.32,-1.3
-1.878e-05,-1.28,-1.3
-1.875e-05,-1.28,-1.32
-1.872e-05,-1.28,-1.3
-1.869e-05,-1.28,-1.28
-1.866e-05,-1.32,-1.28
-1.862e-05,-1.24,-1.26
-1.859e-05,-1.28,-1.26
-1.856e-05,-1.24,-1.26
-1.853e-05,-1.28,-1.26
-1.850e-05,-1.28,-1.26
-1.846e-05,-1.24,-1.24
-1.843e-05,-1.24,-1.24
-1.840e-05,-1.24,-1.24
-1.837e-05,-1.24,-1.24
-1.834e-05,-1.24,-1.22
-1.830e-05,-1.2,-1.22
-1.827e-05,-1.2,-1.22
-1.824e-05,-1.2,-1.2
-1.821e-05,-1.2,-1.2
-1.818e-05,-1.2,-1.2
-1.814e-05,-1.2,-1.2
-1.811e-05,-1.2,-1.2
-1.808e-05,-1.2,-1.2
-1.805e-05,-1.16,-1.18
-1.802e-05,-1.16,-1.16
-1.798e-05,-1.16,-1.16
-1.795e-05,-1.16,-1.18
-1.792e-05,-1.16,-1.16
-1.789e-05,-1.16,-1.14
-1.786e-05,-1.12,-1.14
-1.782e-05,-1.12,-1.14
-1.779e-05,-1.12,-1.12
-1.776e-05,-1.12,-1.12
-1.773e-05,-1.12,-1.12
-1.770e-05,-1.12,-1.12
-1.766e-05,-1.16,-1.12
-1.763e-05,-1.08,-1.1
-1.760e-05,-1.08,-1.1
-1.757e-05,-1.12,-1.1
-1.754e-05,-1.08,-1.1
-1.750e-05,-1.08,-1.08
-1.747e-05,-1.08,-1.1
-1.744e-05,-1.08,-1.08
-1.741e-05,-1.08,-1.08
-1.738e-05,-1.04,-1.08
-1.734e-05,-1.08,-1.06
-1.731e-05,-1.04,-1.04
-1.728e-05,-1.04,-1.04
-1.725e-05,-1.04,-1.06
-1.722e-05,-1.04,-1.04
-1.718e-05,-1,-1.02
-1.715e-05,-1,-1.04
-1.712e-05,-1,-1.02
-1.709e-05,-1,-1.02
-1.706e-05,-1.04,-1
-1.702e-05,-1,-1
-1.699e-05,-1,-1
-1.696e-05,-0.96,-0.98
-1.693e-05,-0.96,-0.98
-1.690e-05,-1,-1
-1.686e-05,-0.96,-0.98
-1.683e-05,-0.96,-0.96
-1.680e-05,-0.96,-0.96
-1.677e-05,-0.96,-0.96
-1.674e-05,-0.96,-0.94
-1.670e-05,-0.96,-0.94
-1.667e-05,-0.92,-0.94
-1.664e-05,-0.96,-0.94
-1.661e-05,-0.92,-0.92
-1.658e-05,-0.92,-0.92
-1.654e-05,-0.92,-0.92
-1.651e-05,-0.96,-0.9
-1.648e-05,-0.88,-0.9
-1.645e-05,-0.92,-0.9
-1.642e-05,-0.88,-0.9
-1.638e-05,-0.88,-0.88
-1.635e-05,-0.88,-0.88
-1.632e-05,-0.88,-0.86
-1.629e-05,-0.88,-0.86
-1.626e-05,-0.88,-0.86
-1.622e-05,-0.84,-0.84
-1.619e-05,-0.84,-0.86
-1.616e-05,-0.84,-0.84
-1.613e-05,-0.84,-0.84
-1.610e-05,-0.84,-0.82
-1.606e-05,-0.84,-0.82
-1.603e-05,-0.84,-0.82
-1.600e-05,-0.84,-0.82
-1.597e-05,-0.84,-0.8
-1.594e-05,-0.8,-0.8
-1.590e-05,-0.8,-0.8
-1.587e-05,-0.84,-0.78
-1.584e-05,-0.8,-0.78
-1.581e-05,-0.8,-0.78
-1.578e-05,-0.76,-0.76
-1.574e-05,-0.76,-0.76
-1.571e-05,-0.8,-0.78
-1.568e-05,-0.76,-0.78
-1.565e-05,-0.76,-0.74
-1.562e-05,-0.76,-0.74
-1.558e-05,-0.72,-0.74
-1.555e-05,-0.72,-0.72
-1.552e-05,-0.72,-0.72
-1.549e-05,-0.72,-0.72
-1.546e-05,-0.72,-0.7
-1.542e-05,-0.72,-0.7
-1.539e-05,-0.72,-0.7
-1.536e-05,-0.72,-0.68
-1.533e-05,-0.72,-0.68
-1.530e-05,-0.68,-0.68
-1.526e-05,-0.68,-0.68
-1.523e-05,-0.72,-0.66
-1.520e-05,-0.68,-0.66
-1.517e-05,-0.68,-0.66
-1.514e-05,-0.68,-0.66
-1.510e-05,-0.64,-0.64
-1.507e-05,-0.64,-0.64
-1.504e-05,-0.64,-0.62
-1.501e-05,-0.64,-0.62
-1.498e-05,-0.64,-0.62
-1.494e-05,-0.6,-0.6
-1.491e-05,-0.6,-0.6
-1.488e-05,-0.6,-0.6
-1.485e-05,-0.6,-0.6
-1.482e-05,-0.6,-0.58
-1.478e-05,-0.6,-0.6
-1.475e-05,-0.6,-0.58
-1.472e-05,-0.56,-0.56
-1.469e-05,-0.6,-0.56
-1.466e-05,-0.56,-0.56
-1.462e-05,-0.56,-0.56
-1.459e-05,-0.56,-0.56
-1.456e-05,-0.56,-0.54
-1.453e-05,-0.56,-0.54
-1.450e-05,-0.52,-0.52
-1.446e-05,-0.52,-0.54
-1.443e-05,-0.52,-0.52
-1.440e-05,-0.52,-0.5
-1.437e-05,-0.52,-0.5
-1.434e-05,-0.52,-0.48
-1.430e-05,-0.52,-0.5
-1.427e-05,-0.48,-0.48
-1.424e-05,-0.48,-0.48
-1.421e-05,-0.48,-0.46
-1.418e-05,-0.48,-0.46
-1.414e-05,-0.48,-0.46
-1.411e-05,-0.48,-0.44
-1.408e-05,-0.44,-0.46
-1.405e-05,-0.44,-0.44
-1.402e-05,-0.44,-0.42
-1.398e-05,-0.44,-0.42
-1.395e-05,-0.44,-0.42
-1.392e-05,-0.44,-0.4
-1.389e-05,-0.4,-0.4
-1.386e-05,-0.4,-0.4
-1.382e-05,-0.4,-0.38
-1.379e-05,-0.4,-0.38
-1.376e-05,-0.4,-0.38
-1.373e-05,-0.4,-0.38
-1.370e-05,-0.4,-0.36
-1.366e-05,-0.36,-0.36
-1.363e-05,-0.36,-0.36
-1.360e-05,-0.4,-0.36
-1.357e-05,-0.36,-0.34
-1.354e-05,-0.36,-0.36
-1.350e-05,-0.32,-0.34
-1.347e-05,-0.32,-0.32
-1.344e-05,-0.32,-0.32
-1.341e-05,-0.32,-0.32
-1.338e-05,-0.32,-0.3
-1.334e-05,-0.32,-0.3
-1.331e-05,-0.32,-0.32
-1.328e-05,-0.28,-0.28
-1.325e-05,-0.28,-0.28
-1.322e-05,-0.28,-0.28
-1.318e-05,-0.28,-0.26
-1.315e-05,-0.28,-0.26
-1.312e-05,-0.28,-0.26
-1.309e-05,-0.28,-0.24
-1.306e-05,-0.24,-0.24
-1.302e-05,-0.24,-0.22
-1.299e-05,-0.24,-0.24
-1.296e-05,-0.24,-0.22
-1.293e-05,-0.24,-0.22
-1.290e-05,-0.2,-0.2
-1.286e-05,-0.2,-0.22
-1.283e-05,-0.2,-0.2
-1.280e-05,-0.2,-0.2
-1.277e-05,-0.24,-0.18
-1.274e-05,-0.2,-0.18
-1.270e-05,-0.16,-0.18
-1.267e-05,-0.2,-0.18
-1.264e-05,-0.16,-0.16
-1.261e-05,-0.16,-0.16
-1.258e-05,-0.16,-0.16
-1.254e-05,-0.16,-0.14
-1.251e-05,-0.12,-0.14
-1.248e-05,-0.12,-0.14
-1.245e-05,-0.12,-0.12
-1.242e-05,-0.12,-0.12
-1.238e-05,-0.12,-0.1
-1.235e-05,-0.12,-0.1
-1.232e-05,-0.12,-0.1
-1.229e-05,-0.08,-0.08
-1.226e-05,-0.08,-0.08
-1.222e-05,-0.12,-0.08
-1.219e-05,-0.12,-0.08
-1.216e-05,-0.08,-0.08
-1.213e-05,-0.04,-0.06
-1.210e-05,-0.08,-0.06
-1.206e-05,-0.04,-0.04
-1.203e-05,-0.04,-0.04
-1.200e-05,-0.04,-0.04
-1.197e-05,-0.08,-0.02
-1.194e-05,-0.04,-0.02
-1.190e-05,0,0
-1.187e-05,0,0
-1.184e-05,-0.04,0
-1.181e-05,0,0
-1.178e-05,0,0
-1.174e-05,0,0.02
-1.171e-05,0,0.02
-1.168e-05,0,0.02
-1.165e-05,0.04,0.04
-1.162e-05,0,0.06
-1.158e-05,0.04,0.06
-1.155e-05,0.04,0.04
-1.152e-05,0.04,0.08
-1.149e-05,0.04,0.06
-1.146e-05,0.04,0.06
-1.142e-05,0.08,0.08
-1.139e-05,0.08,0.08
-1.136e-05,0.08,0.1
-1.133e-05,0.08,0.1
-1.130e-05,0.12,0.12
-1.126e-05,0.08,0.12
-1.123e-05,0.08,0.14
-1.120e-05,0.12,0.12
-1.117e-05,0.12,0.12
-1.114e-05,0.12,0.14
-1.110e-05,0.12,0.14
-1.107e-05,0.16,0.16
-1.104e-05,0.16,0.16
-1.101e-05,0.16,0.16
-1.098e-05,0.16,0.16
-1.094e-05,0.16,0.18
-1.091e-05,0.16,0.18
-1.088e-05,0.16,0.18
-1.085e-05,0.16,0.2
-1.082e-05,0.2,0.22
-1.078e-05,0.2,0.2
-1.075e-05,0.2,0.22
-1.072e-05,0.2,0.22
-1.069e-05,0.24,0.22
-1.066e-05,0.2,0.22
-1.062e-05,0.24,0.26
-1.059e-05,0.2,0.26
-1.056e-05,0.24,0.26
-1.053e-05,0.24,0.26
-1.050e-05,0.24,0.26
-1.046e-05,0.24,0.28
-1.043e-05,0.28,0.28
-1.040e-05,0.28,0.28
-1.037e-05,0.32,0.28
-1.034e-05,0.28,0.3
-1.030e-05,0.28,0.3
-1.027e-05,0.32,0.32
-1.024e-05,0.28,0.32
-1.021e-05,0.28,0.32
-1.018e-05,0.28,0.34
-1.014e-05,0.36,0.34
-1.011e-05,0.36,0.36
-1.008e-05,0.32,0.36
-1.005e-05,0.36,0.36
-1.002e-05,0.36,0.36
-9.984e-06,0.36,0.36
-9.952e-06,0.36,0.38
-9.920e-06,0.36,0.4
-9.888e-06,0.4,0.38
-9.856e-06,0.36,0.4
-9.824e-06,0.4,0.4
-9.792e-06,0.4,0.42
-9.760e-06,0.44,0.42
-9.728e-06,0.4,0.42
-9.696e-06,0.4,0.44
-9.664e-06,0.44,0.44
-9.632e-06,0.44,0.44
-9.600e-06,0.44,0.44
-9.568e-06,0.44,0.46
-9.536e-06,0.48,0.46
-9.504e-06,0.44,0.46
-9.472e-06,0.44,0.48
-9.440e-06,0.48,0.48
-9.408e-06,0.44,0.48
-9.376e-06,0.48,0.48
-9.344e-06,0.48,0.5
-9.312e-06,0.48,0.5
-9.280e-06,0.48,0.5
-9.248e-06,0.48,0.52
-9.216e-06,0.48,0.52
-9.184e-06,0.48,0.52
-9.152e-06,0.52,0.54
-9.120e-06,0.52,0.54
-9.088e-06,0.56,0.54
-9.056e-06,0.52,0.56
-9.024e-06,0.52,0.56
-8.992e-06,0.56,0.56
-8.960e-06,0.56,0.58
-8.928e-06,0.56,0.58
-8.896e-06,0.56,0.58
-8.864e-06,0.6,0.58
-8.832e-06,0.56,0.6
-8.800e-06,0.6,0.6
-8.768e-06,0.6,0.62
-8.736e-06,0.6,0.62
-8.704e-06,0.6,0.64
-8.672e-06,0.6,0.62
-8.640e-06,0.6,0.64
-8.608e-06,0.64,0.64
-8.576e-06,0.64,0.66
-8.544e-06,0.64,0.66
-8.512e-06,0.64,0.66
-8.480e-06,0.64,0.66
-8.448e-06,0.64,0.66
-8.416e-06,0.64,0.68
-8.384e-06,0.68,0.7
-8.352e-06,0.68,0.68
-8.320e-06,0.68,0.7
-8.288e-06,0.72,0.7
-8.256e-06,0.68,0.7
-8.224e-06,0.68,0.7
-8.192e-06,0.72,0.72
-8.160e-06,0.72,0.74
-8.128e-06,0.72,0.74
-8.096e-06,0.72,0.74
-8.064e-06,0.72,0.76
-8.032e-06,0.76,0.76
-8.000e-06,0.76,0.74
-7.968e-06,0.72,0.76
-7.936e-06,0.76,0.76
-7.904e-06,0.76,0.78
-7.872e-06,0.8,0.78
-7.840e-06,0.8,0.78
-7.808e-06,0.76,0.8
-7.776e-06,0.76,0.8
-7.744e-06,0.8,0.8
-7.712e-06,0.8,0.8
-7.680e-06,0.76,0.82
-7.648e-06,0.8,0.82
-7.616e-06,0.84,0.82
-7.584e-06,0.84,0.84
-7.552e-06,0.84,0.84
-7.520e-06,0.84,0.84
-7.488e-06,0.84,0.84
-7.456e-06,0.84,0.86
-7.424e-06,0.84,0.86
-7.392e-06,0.84,0.88
-7.360e-06,0.88,0.88
-7.328e-06,0.84,0.88
-7.296e-06,0.88,0.88
-7.264e-06,0.88,0.9
-7.232e-06,0.88,0.9
-7.200e-06,0.88,0.9
-7.168e-06,0.92,0.92
-7.136e-06,0.88,0.92
-7.104e-06,0.92,0.92
-7.072e-06,0.92,0.92
-7.040e-06,0.92,0.94
-7.008e-06,0.92,0.94
-6.976e-06,0.92,0.96
-6.944e-06,0.92,0.96
-6.912e-06,0.96,0.96
-6.880e-06,0.96,0.96
-6.848e-06,0.96,0.98
-6.816e-06,0.96,0.98
-6.784e-06,0.96,0.98
-6.752e-06,0.96,1
-6.720e-06,0.96,1
-6.688e-06,1,1
-6.656e-06,1,1.02
-6.624e-06,1,1.02
-6.592e-06,1,1.02
-6.560e-06,1,1.02
-6.528e-06,1,1.04
-6.496e-06,1,1.06
-6.464e-06,1,1.04
-6.432e-06,1.04,1.04
-6.400e-06,1.04,1.06
-6.368e-06,1.04,1.06
-6.336e-06,1.04,1.06
-6.304e-06,1.04,1.06
-6.272e-06,1.04,1.08
-6.240e-06,1.04,1.08
-6.208e-06,1.04,1.08
-6.176e-06,1.08,1.08
-6.144e-06,1.08,1.08
-6.112e-06,1.08,1.1
-6.080e-06,1.08,1.1
-6.048e-06,1.08,1.12
-6.016e-06,1.08,1.12
-5.984e-06,1.08,1.12
-5.952e-06,1.12,1.14
-5.920e-06,1.12,1.14
-5.888e-06,1.12,1.14
-5.856e-06,1.12,1.14
-5.824e-06,1.16,1.16
-5.792e-06,1.12,1.16
-5.760e-06,1.12,1.16
-5.728e-06,1.16,1.16
-5.696e-06,1.16,1.18
-5.664e-06,1.16,1.2
-5.632e-06,1.16,1.18
-5.600e-06,1.16,1.18
-5.568e-06,1.2,1.2
-5.536e-06,1.2,1.22
-5.504e-06,1.2,1.22
-5.472e-06,1.2,1.2
-5.440e-06,1.16,1.22
-5.408e-06,1.2,1.22
-5.376e-06,1.2,1.24
-5.344e-06,1.2,1.24
-5.312e-06,1.2,1.24
-5.280e-06,1.24,1.26
-5.248e-06,1.24,1.24
-5.216e-06,1.24,1.26
-5.184e-06,1.24,1.26
-5.152e-06,1.24,1.26
-5.120e-06,1.28,1.28
-5.088e-06,1.24,1.28
-5.056e-06,1.24,1.28
-5.024e-06,1.28,1.28
-4.992e-06,1.24,1.28
-4.960e-06,1.28,1.3
-4.928e-06,1.28,1.3
-4.896e-06,1.28,1.32
-4.864e-06,1.28,1.3
-4.832e-06,1.28,1.3
-4.800e-06,1.28,1.32
-4.768e-06,1.32,1.32
-4.736e-06,1.28,1.34
-4.704e-06,1.32,1.34
-4.672e-06,1.32,1.36
-4.640e-06,1.32,1.36
-4.608e-06,1.36,1.36
-4.576e-06,1.32,1.38
-4.544e-06,1.36,1.36
-4.512e-06,1.36,1.38
-4.480e-06,1.36,1.38
-4.448e-06,1.36,1.38
-4.416e-06,1.36,1.38
-4.384e-06,1.36,1.38
-4.352e-06,1.4,1.4
-4.320e-06,1.4,1.4
-4.288e-06,1.36,1.4
-4.256e-06,1.4,1.42
-4.224e-06,1.4,1.42
-4.192e-06,1.44,1.42
-4.160e-06,1.4,1.42
-4.128e-06,1.4,1.42
-4.096e-06,1.4,1.44
-4.064e-06,1.4,1.44
-4.032e-06,1.4,1.44
-4.000e-06,1.44,1.46
-3.968e-06,1.44,1.46
-3.936e-06,1.44,1.46
-3.904e-06,1.44,1.46
-3.872e-06,1.44,1.46
-3.840e-06,1.44,1.48
-3.808e-06,1.48,1.48
-3.776e-06,1.44,1.48
-3.744e-06,1.48,1.48
-3.712e-06,1.48,1.48
-3.680e-06,1.48,1.5
-3.648e-06,1.48,1.5
-3.616e-06,1.48,1.52
-3.584e-06,1.52,1.52
-3.552e-06,1.48,1.52
-3.520e-06,1.52,1.52
-3.488e-06,1.52,1.54
-3.456e-06,1.52,1.54
-3.424e-06,1.52,1.54
-3.392e-06,1.56,1.56
-3.360e-06,1.52,1.54
-3.328e-06,1.52,1.56
