lab2/exp5/data/day2/TEK00025.CSV

Model,TBS1102C
Firmware Version,v2015-08-04-prequal4ch70_v1.3

Point Format,Y,
Horizontal Units,S,
Horizontal Scale,1e-05,
Sample Interval,8e-08,
Filter Frequency,2e+08,
Record Length,2000,
Gating,0.0% to 100.0%,0.0% to 100.0%
Probe Attenuation,1,1
Vertical Units,V,V
Vertical Offset,0,0
Vertical Scale,5,1
Label,,
TIME,CH1,CH2
-8.000e-05,-9.8,-2.76
-7.992e-05,-9.8,-2.72
-7.984e-05,-10,-2.72
-7.976e-05,-10,-2.72
-7.968e-05,-9.8,-2.72
-7.960e-05,-9.8,-2.72
-7.952e-05,-10,-2.72
-7.944e-05,-10,-2.72
-7.936e-05,-9.8,-2.72
-7.928e-05,-10,-2.72
-7.920e-05,-9.8,-2.72
-7.912e-05,-9.8,-2.72
-7.904e-05,-10,-2.72
-7.896e-05,-10,-2.72
-7.888e-05,-9.8,-2.72
-7.880e-05,-9.8,-2.72
-7.872e-05,-10,-2.72
-7.864e-05,-9.8,-2.72
-7.856e-05,-10,-2.68
-7.848e-05,-9.8,-2.68
-7.840e-05,-9.8,-2.68
-7.832e-05,-9.6,-2.68
-7.824e-05,-9.8,-2.68
-7.816e-05,-9.6,-2.68
-7.808e-05,-9.8,-2.68
-7.800e-05,-9.8,-2.64
-7.792e-05,-9.6,-2.64
-7.784e-05,-9.8,-2.64
-7.776e-05,-9.6,-2.68
-7.768e-05,-9.6,-2.64
-7.760e-05,-9.6,-2.64
-7.752e-05,-9.6,-2.64
-7.744e-05,-9.6,-2.6
-7.736e-05,-9.6,-2.6
-7.728e-05,-9.6,-2.6
-7.720e-05,-9.6,-2.6
-7.712e-05,-9.6,-2.6
-7.704e-05,-9.6,-2.6
-7.696e-05,-9.4,-2.56
-7.688e-05,-9.4,-2.56
-7.680e-05,-9.4,-2.56
-7.672e-05,-9.4,-2.6
-7.664e-05,-9.4,-2.56
-7.656e-05,-9.4,-2.56
-7.648e-05,-9.2,-2.56
-7.640e-05,-9.2,-2.52
-7.632e-05,-9.4,-2.52
-7.624e-05,-9.2,-2.52
-7.616e-05,-9.2,-2.52
-7.608e-05,-9.2,-2.48
-7.600e-05,-9.2,-2.48
-7.592e-05,-9.2,-2.48
-7.584e-05,-9,-2.48
-7.576e-05,-9,-2.44
-7.568e-05,-9.2,-2.48
-7.560e-05,-9,-2.44
-7.552e-05,-9,-2.44
-7.544e-05,-9,-2.44
-7.536e-05,-9,-2.4
-7.528e-05,-8.8,-2.4
-7.520e-05,-8.8,-2.4
-7.512e-05,-8.8,-2.4
-7.504e-05,-8.8,-2.4
-7.496e-05,-8.8,-2.36
-7.488e-05,-8.6,-2.36
-7.480e-05,-8.6,-2.36
-7.472e-05,-8.6,-2.36
-7.464e-05,-8.4,-2.36
-7.456e-05,-8.6,-2.32
-7.448e-05,-8.4,-2.32
-7.440e-05,-8.6,-2.32
-7.432e-05,-8.4,-2.32
-7.424e-05,-8.4,-2.24
-7.416e-05,-8.4,-2.28
-7.408e-05,-8.2,-2.28
-7.400e-05,-8.4,-2.24
-7.392e-05,-8.2,-2.24
-7.384e-05,-8.2,-2.2
-7.376e-05,-8.2,-2.2
-7.368e-05,-8,-2.16
-7.360e-05,-8,-2.16
-7.352e-05,-8,-2.16
-7.344e-05,-8,-2.16
-7.336e-05,-8,-2.12
-7.328e-05,-7.8,-2.12
-7.320e-05,-7.8,-2.08
-7.312e-05,-7.6,-2.08
-7.304e-05,-7.8,-2.08
-7.296e-05,-7.6,-2.04
-7.288e-05,-7.6,-2.04
-7.280e-05,-7.6,-2.04
-7.272e-05,-7.4,-2.04
-7.264e-05,-7.4,-2
-7.256e-05,-7.4,-2
-7.248e-05,-7.4,-1.96
-7.240e-05,-7.4,-1.96
-7.232e-05,-7.2,-1.92
-7.224e-05,-7.2,-1.96
-7.216e-05,-7.2,-1.96
-7.208e-05,-7,-1.92
-7.200e-05,-7,-1.88
-7.192e-05,-7,-1.88
-7.184e-05,-7,-1.88
-7.176e-05,-6.8,-1.84
-7.168e-05,-7,-1.8
-7.160e-05,-6.8,-1.8
-7.152e-05,-6.8,-1.76
-7.144e-05,-6.6,-1.76
-7.136e-05,-6.6,-1.76
-7.128e-05,-6.6,-1.72
-7.120e-05,-6.4,-1.72
-7.112e-05,-6.4,-1.68
-7.104e-05,-6.4,-1.68
-7.096e-05,-6.4,-1.64
-7.088e-05,-6.2,-1.64
-7.080e-05,-6.2,-1.6
-7.072e-05,-6.2,-1.64
-7.064e-05,-6,-1.6
-7.056e-05,-6,-1.6
-7.048e-05,-6,-1.56
-7.040e-05,-5.8,-1.56
-7.032e-05,-5.8,-1.52
-7.024e-05,-5.6,-1.52
-7.016e-05,-5.6,-1.48
-7.008e-05,-5.6,-1.48
-7.000e-05,-5.6,-1.44
-6.992e-05,-5.6,-1.44
-6.984e-05,-5.4,-1.4
-6.976e-05,-5.4,-1.4
-6.968e-05,-5.2,-1.4
-6.960e-05,-5.2,-1.36
-6.952e-05,-5.2,-1.36
-6.944e-05,-5.2,-1.32
-6.936e-05,-5,-1.28
-6.928e-05,-5,-1.28
-6.920e-05,-5,-1.28
-6.912e-05,-4.8,-1.24
-6.904e-05,-4.8,-1.2
-6.896e-05,-4.6,-1.2
-6.888e-05,-4.6,-1.2
-6.880e-05,-4.6,-1.16
-6.872e-05,-4.6,-1.16
-6.864e-05,-4.4,-1.16
-6.856e-05,-4.4,-1.12
-6.848e-05,-4.4,-1.08
-6.840e-05,-4.2,-1.08
-6.832e-05,-4.2,-1.08
-6.824e-05,-4,-1.04
-6.816e-05,-4,-1
-6.808e-05,-3.8,-1
-6.800e-05,-3.8,-0.96
-6.792e-05,-3.8,-0.96
-6.784e-05,-3.8,-0.92
-6.776e-05,-3.6,-0.92
-6.768e-05,-3.6,-0.88
-6.760e-05,-3.6,-0.88
-6.752e-05,-3.4,-0.84
-6.744e-05,-3.2,-0.84
-6.736e-05,-3.2,-0.84
-6.728e-05,-3.2,-0.8
-6.720e-05,-3,-0.8
-6.712e-05,-3,-0.76
-6.704e-05,-3,-0.72
-6.696e-05,-3,-0.72
-6.688e-05,-2.8,-0.72
-6.680e-05,-2.8,-0.68
-6.672e-05,-2.6,-0.68
-6.664e-05,-2.6,-0.6
-6.656e-05,-2.6,-0.6
-6.648e-05,-2.4,-0.6
-6.640e-05,-2.4,-0.56
-6.632e-05,-2.2,-0.52
-6.624e-05,-2.2,-0.52
-6.616e-05,-2.2,-0.48
-6.608e-05,-2,-0.48
-6.600e-05,-2,-0.44
-6.592e-05,-1.8,-0.44
-6.584e-05,-1.8,-0.44
-6.576e-05,-1.8,-0.4
-6.568e-05,-1.6,-0.36
-6.560e-05,-1.6,-0.36
-6.552e-05,-1.4,-0.32
-6.544e-05,-1.4,-0.32
-6.536e-05,-1.4,-0.32
-6.528e-05,-1.2,-0.28
-6.520e-05,-1.2,-0.24
-6.512e-05,-1,-0.2
-6.504e-05,-1,-0.2
-6.496e-05,-1,-0.2
-6.488e-05,-0.8,-0.16
-6.480e-05,-0.8,-0.16
-6.472e-05,-0.8,-0.12
-6.464e-05,-0.6,-0.12
-6.456e-05,-0.6,-0.08
-6.448e-05,-0.6,-0.04
-6.440e-05,-0.4,-0.04
-6.432e-05,-0.2,-0.04
-6.424e-05,-0.2,0
-6.416e-05,-0.2,0
-6.408e-05,-0.2,0.04
-6.400e-05,0.2,0.08
-6.392e-05,0,0.08
-6.384e-05,0.2,0.12
-6.376e-05,0.2,0.12
-6.368e-05,0.2,0.16
-6.360e-05,0.4,0.16
-6.352e-05,0.4,0.2
-6.344e-05,0.4,0.24
-6.336e-05,0.6,0.24
-6.328e-05,0.6,0.24
-6.320e-05,0.8,0.28
-6.312e-05,0.8,0.28
-6.304e-05,0.8,0.32
-6.296e-05,1,0.36
-6.288e-05,1,0.36
-6.280e-05,1,0.4
-6.272e-05,1.2,0.4
-6.264e-05,1.2,0.44
-6.256e-05,1.4,0.48
-6.248e-05,1.4,0.48
-6.240e-05,1.4,0.52
-6.232e-05,1.6,0.48
-6.224e-05,1.6,0.52
-6.216e-05,2,0.56
-6.208e-05,1.8,0.56
-6.200e-05,1.8,0.6
-6.192e-05,2,0.64
-6.184e-05,2,0.64
-6.176e-05,2,0.68
-6.168e-05,2.2,0.68
-6.160e-05,2.4,0.72
-6.152e-05,2.4,0.72
-6.144e-05,2.4,0.76
-6.136e-05,2.6,0.76
-6.128e-05,2.6,0.8
-6.120e-05,2.6,0.84
-6.112e-05,2.6,0.84
-6.104e-05,2.8,0.88
-6.096e-05,2.8,0.88
-6.088e-05,3,0.88
-6.080e-05,3,0.92
-6.072e-05,3,0.92
-6.064e-05,3.4,0.96
-6.056e-05,3.2,1
-6.048e-05,3.4,1
-6.040e-05,3.6,1.04
-6.032e-05,3.4,1.04
-6.024e-05,3.6,1.04
-6.016e-05,3.6,1.12
-6.008e-05,3.6,1.12
-6.000e-05,3.8,1.16
-5.992e-05,3.8,1.16
-5.984e-05,4,1.16
-5.976e-05,4,1.2
-5.968e-05,4.2,1.24
-5.960e-05,4.2,1.24
-5.952e-05,4.2,1.24
-5.944e-05,4.4,1.28
-5.936e-05,4.4,1.32
-5.928e-05,4.4,1.32
-5.920e-05,4.4,1.32
-5.912e-05,4.6,1.36
-5.904e-05,4.6,1.36
-5.896e-05,4.6,1.36
-5.888e-05,4.8,1.4
-5.880e-05,5,1.44
-5.872e-05,5,1.44
-5.864e-05,5,1.48
-5.856e-05,5,1.48
-5.848e-05,5,1.48
-5.840e-05,5.2,1.52
-5.832e-05,5.2,1.52
-5.824e-05,5.4,1.56
-5.816e-05,5.4,1.56
-5.808e-05,5.4,1.6
-5.800e-05,5.6,1.64
-5.792e-05,5.6,1.6
-5.784e-05,5.6,1.64
-5.776e-05,5.8,1.68
-5.768e-05,5.8,1.68
-5.760e-05,6,1.72
-5.752e-05,6,1.72
-5.744e-05,6,1.72
-5.736e-05,6.2,1.72
-5.728e-05,6.2,1.76
-5.720e-05,6.2,1.76
-5.712e-05,6.4,1.8
-5.704e-05,6.2,1.8
-5.696e-05,6.4,1.8
-5.688e-05,6.6,1.84
-5.680e-05,6.6,1.88
-5.672e-05,6.8,1.88
-5.664e-05,6.6,1.92
-5.656e-05,6.8,1.92
-5.648e-05,6.8,1.92
-5.640e-05,6.8,1.96
-5.632e-05,6.8,1.96
-5.624e-05,7,1.96
-5.616e-05,7,1.96
-5.608e-05,7,2.04
-5.600e-05,7.2,2.04
-5.592e-05,7.2,2.04
-5.584e-05,7.2,2.04
-5.576e-05,7.4,2.04
-5.568e-05,7.4,2.12
-5.560e-05,7.4,2.08
-5.552e-05,7.4,2.08
-5.544e-05,7.4,2.16
-5.536e-05,7.6,2.12
-5.528e-05,7.6,2.12
-5.520e-05,7.8,2.16
-5.512e-05,7.8,2.16
-5.504e-05,7.8,2.2
-5.496e-05,7.8,2.2
-5.488e-05,7.8,2.2
-5.480e-05,8,2.24
-5.472e-05,8,2.24
-5.464e-05,8,2.24
-5.456e-05,8,2.24
-5.448e-05,8.2,2.28
-5.440e-05,8.2,2.28
-5.432e-05,8.2,2.32
-5.424e-05,8.4,2.32
-5.416e-05,8.4,2.36
-5.408e-05,8.4,2.32
-5.400e-05,8.4,2.36
-5.392e-05,8.4,2.36
-5.384e-05,8.6,2.36
-5.376e-05,8.8,2.4
-5.368e-05,8.6,2.4
-5.360e-05,8.6,2.4
-5.352e-05,8.6,2.44
-5.344e-05,8.8,2.44
-5.336e-05,8.8,2.44
-5.328e-05,8.8,2.44
-5.320e-05,8.8,2.48
-5.312e-05,9,2.48
-5.304e-05,8.8,2.48
-5.296e-05,9,2.48
-5.288e-05,9,2.48
-5.280e-05,9,2.52
-5.272e-05,9.2,2.52
-5.264e-05,9.2,2.52
-5.256e-05,9.2,2.52
-5.248e-05,9.2,2.52
-5.240e-05,9.2,2.56
-5.232e-05,9.2,2.56
-5.224e-05,9.2,2.56
-5.216e-05,9.2,2.6
-5.208e-05,9.2,2.6
-5.200e-05,9.4,2.6
-5.192e-05,9.4,2.6
-5.184e-05,9.4,2.64
-5.176e-05,9.4,2.64
-5.168e-05,9.4,2.64
-5.160e-05,9.4,2.6
-5.152e-05,9.6,2.64
-5.144e-05,9.6,2.64
-5.136e-05,9.6,2.64
-5.128e-05,9.6,2.68
-5.120e-05,9.8,2.64
-5.112e-05,9.8,2.68
-5.104e-05,9.6,2.64
-5.096e-05,9.6,2.68
-5.088e-05,9.6,2.68
-5.080e-05,9.8,2.68
-5.072e-05,9.8,2.68
-5.064e-05,9.8,2.72
-5.056e-05,10,2.72
-5.048e-05,9.8,2.68
-5.040e-05,9.8,2.72
-5.032e-05,9.8,2.72
-5.024e-05,10,2.72
-5.016e-05,9.8,2.76
-5.008e-05,10,2.72
-5.000e-05,9.8,2.76
-4.992e-05,10,2.72
-4.984e-05,10,2.76
-4.976e-05,10.2,2.72
-4.968e-05,10,2.76
-4.960e-05,10,2.76
-4.952e-05,10,2.76
-4.944e-05,10,2.76
-4.936e-05,10,2.76
-4.928e-05,10,2.76
-4.920e-05,10,2.76
-4.912e-05,10,2.76
-4.904e-05,10,2.76
-4.896e-05,10.2,2.8
-4.888e-05,10.2,2.8
-4.880e-05,10.2,2.76
-4.872e-05,10,2.8
-4.864e-05,10,2.76
-4.856e-05,10.2,2.76
-4.848e-05,10,2.76
-4.840e-05,10.2,2.76
-4.832e-05,10.2,2.8
-4.824e-05,10.2,2.76
-4.816e-05,10.2,2.8
-4.808e-05,10.2,2.8
-4.800e-05,10.2,2.8
-4.792e-05,10.2,2.76
-4.784e-05,10.2,2.76
-4.776e-05,10.2,2.8
-4.768e-05,10.2,2.76
-4.760e-05,10.2,2.8
-4.752e-05,10,2.76
-4.744e-05,10.2,2.8
-4.736e-05,10.2,2.76
-4.728e-05,10.2,2.8
-4.720e-05,10,2.76
-4.712e-05,10.2,2.8
-4.704e-05,10.2,2.8
-4.696e-05,10.2,2.76
-4.688e-05,10,2.76
-4.680e-05,10,2.76
-4.672e-05,10,2.76
-4.664e-05,10,2.76
-4.656e-05,10,2.76
-4.648e-05,10,2.76
-4.640e-05,10,2.72
-4.632e-05,10,2.72
-4.624e-05,10,2.72
-4.616e-05,10,2.72
-4.608e-05,10,2.72
-4.600e-05,10,2.72
-4.592e-05,10,2.72
-4.584e-05,10,2.72
-4.576e-05,9.8,2.68
-4.568e-05,10,2.68
-4.560e-05,9.8,2.72
-4.552e-05,9.8,2.68
-4.544e-05,9.8,2.72
-4.536e-05,9.8,2.68
-4.528e-05,9.8,2.64
-4.520e-05,9.8,2.68
-4.512e-05,9.8,2.64
-4.504e-05,9.8,2.64
-4.496e-05,9.8,2.64
-4.488e-05,9.6,2.64
-4.480e-05,9.6,2.64
-4.472e-05,9.8,2.6
-4.464e-05,9.6,2.6
-4.456e-05,9.6,2.6
-4.448e-05,9.6,2.6
-4.440e-05,9.4,2.56
-4.432e-05,9.4,2.56
-4.424e-05,9.4,2.56
-4.416e-05,9.4,2.56
-4.408e-05,9.4,2.56
-4.400e-05,9.4,2.56
-4.392e-05,9.4,2.52
-4.384e-05,9.2,2.52
-4.376e-05,9.2,2.52
-4.368e-05,9.2,2.52
-4.360e-05,9.2,2.52
-4.352e-05,9.2,2.48
-4.344e-05,9.2,2.48
-4.336e-05,9,2.48
-4.328e-05,9,2.44
-4.320e-05,9.2,2.44
-4.312e-05,9,2.44
-4.304e-05,9,2.44
-4.296e-05,9,2.44
-4.288e-05,9,2.4
-4.280e-05,8.8,2.4
-4.272e-05,8.8,2.36
-4.264e-05,8.8,2.36
-4.256e-05,8.8,2.4
-4.248e-05,8.8,2.36
-4.240e-05,8.6,2.36
-4.232e-05,8.6,2.32
-4.224e-05,8.6,2.32
-4.216e-05,8.6,2.28
-4.208e-05,8.6,2.28
-4.200e-05,8.4,2.28
-4.192e-05,8.4,2.24
-4.184e-05,8.4,2.28
-4.176e-05,8.4,2.24
-4.168e-05,8.2,2.24
-4.160e-05,8.2,2.2
-4.152e-05,8.2,2.2
-4.144e-05,8,2.16
-4.136e-05,8.2,2.16
-4.128e-05,8,2.16
-4.120e-05,8.2,2.16
-4.112e-05,8,2.12
-4.104e-05,8,2.12
-4.096e-05,7.8,2.08
-4.088e-05,7.8,2.08
-4.080e-05,7.8,2.08
-4.072e-05,7.6,2.04
-4.064e-05,7.6,2.04
-4.056e-05,7.6,2
-4.048e-05,7.6,2
-4.040e-05,7.6,2
-4.032e-05,7.4,1.96
-4.024e-05,7.4,1.96
-4.016e-05,7.4,1.96
-4.008e-05,7.2,1.92
-4.000e-05,7.2,1.96
-3.992e-05,7.2,1.92
-3.984e-05,7,1.88
-3.976e-05,7,1.88
-3.968e-05,7,1.84
-3.960e-05,7,1.84
-3.952e-05,6.8,1.8
-3.944e-05,6.8,1.8
-3.936e-05,6.8,1.8
-3.928e-05,6.8,1.8
-3.920e-05,6.6,1.76
-3.912e-05,6.6,1.72
-3.904e-05,6.4,1.72
-3.896e-05,6.6,1.72
-3.888e-05,6.4,1.72
-3.880e-05,6.2,1.68
-3.872e-05,6.2,1.68
-3.864e-05,6.2,1.64
-3.856e-05,6.2,1.64
-3.848e-05,6,1.6
-3.840e-05,6,1.6
-3.832e-05,6,1.56
-3.824e-05,5.8,1.52
-3.816e-05,5.8,1.52
-3.808e-05,5.6,1.52
-3.800e-05,5.6,1.48
-3.792e-05,5.6,1.48
-3.784e-05,5.4,1.48
-3.776e-05,5.4,1.44
-3.768e-05,5.4,1.4
-3.760e-05,5.4,1.4
-3.752e-05,5.2,1.36
-3.744e-05,5.2,1.36
-3.736e-05,5,1.32
-3.728e-05,5,1.36
-3.720e-05,5,1.32
-3.712e-05,4.8,1.28
-3.704e-05,4.8,1.28
-3.696e-05,4.6,1.24
-3.688e-05,4.8,1.24
-3.680e-05,4.6,1.2
-3.672e-05,4.4,1.2
-3.664e-05,4.4,1.16
-3.656e-05,4.4,1.16
-3.648e-05,4.4,1.12
-3.640e-05,4.2,1.12
-3.632e-05,4.2,1.08
-3.624e-05,4,1.08
-3.616e-05,4,1.08
-3.608e-05,4,1
-3.600e-05,4,1
-3.592e-05,3.8,1
-3.584e-05,3.8,0.96
-3.576e-05,3.6,0.92
-3.568e-05,3.6,0.92
-3.560e-05,3.4,0.88
-3.552e-05,3.6,0.88
-3.544e-05,3.4,0.88
-3.536e-05,3.2,0.84
-3.528e-05,3.2,0.84
-3.520e-05,3.2,0.8
-3.512e-05,3,0.8
-3.504e-05,3,0.76
-3.496e-05,3,0.76
-3.488e-05,2.8,0.72
-3.480e-05,2.8,0.68
-3.472e-05,2.8,0.68
-3.464e-05,2.6,0.64
-3.456e-05,2.6,0.64
-3.448e-05,2.4,0.6
-3.440e-05,2.4,0.6
-3.432e-05,2.2,0.6
-3.424e-05,2.4,0.52
-3.416e-05,2.2,0.52
-3.408e-05,2,0.52
-3.400e-05,2,0.48
-3.392e-05,2,0.48
-3.384e-05,1.8,0.44
-3.376e-05,1.8,0.44
-3.368e-05,1.6,0.4
-3.360e-05,1.6,0.36
-3.352e-05,1.4,0.32
-3.344e-05,1.4,0.36
-3.336e-05,1.4,0.32
-3.328e-05,1.2,0.28
-3.320e-05,1.2,0.24
-3.312e-05,1.2,0.24
-3.304e-05,1,0.2
-3.296e-05,1,0.2
-3.288e-05,0.8,0.16
-3.280e-05,0.8,0.16
-3.272e-05,0.8,0.12
-3.264e-05,0.6,0.12
-3.256e-05,0.6,0.08
-3.248e-05,0.4,0.08
-3.240e-05,0.4,0.04
-3.232e-05,0.4,0.04
-3.224e-05,0.2,0.04
-3.216e-05,0.2,-0.04
-3.208e-05,0.2,0
-3.200e-05,0,-0.04
-3.192e-05,0,-0.08
-3.184e-05,0,-0.08
-3.176e-05,-0.2,-0.12
-3.168e-05,-0.2,-0.12
-3.160e-05,-0.2,-0.16
-3.152e-05,-0.4,-0.16
-3.144e-05,-0.4,-0.2
-3.136e-05,-0.4,-0.24
-3.128e-05,-0.8,-0.28
-3.120e-05,-0.6,-0.28
-3.112e-05,-0.8,-0.32
-3.104e-05,-0.8,-0.28
-3.096e-05,-0.8,-0.32
-3.088e-05,-1,-0.36
-3.080e-05,-1.2,-0.36
-3.072e-05,-1.2,-0.4
-3.064e-05,-1.2,-0.44
-3.056e-05,-1.4,-0.44
-3.048e-05,-1.4,-0.44
-3.040e-05,-1.4,-0.48
-3.032e-05,-1.6,-0.48
-3.024e-05,-1.6,-0.52
-3.016e-05,-1.8,-0.56
-3.008e-05,-1.8,-0.56
-3.000e-05,-2,-0.6
-2.992e-05,-2,-0.64
-2.984e-05,-2,-0.64
-2.976e-05,-2.2,-0.64
-2.968e-05,-2.2,-0.68
-2.960e-05,-2.2,-0.72
-2.952e-05,-2.4,-0.72
-2.944e-05,-2.4,-0.72
-2.936e-05,-2.4,-0.76
-2.928e-05,-2.6,-0.76
-2.920e-05,-2.6,-0.8
-2.912e-05,-2.8,-0.8
-2.904e-05,-2.8,-0.84
-2.896e-05,-2.8,-0.84
-2.888e-05,-3,-0.88
-2.880e-05,-3,-0.88
-2.872e-05,-3.2,-0.92
-2.864e-05,-3.2,-0.92
-2.856e-05,-3.4,-0.96
-2.848e-05,-3.4,-0.96
-2.840e-05,-3.4,-1
-2.832e-05,-3.4,-1
-2.824e-05,-3.6,-1.04
-2.816e-05,-3.6,-1.04
-2.808e-05,-3.6,-1.08
-2.800e-05,-3.8,-1.12
-2.792e-05,-3.8,-1.12
-2.784e-05,-3.8,-1.12
-2.776e-05,-4,-1.16
-2.768e-05,-4,-1.16
-2.760e-05,-4.2,-1.2
-2.752e-05,-4.2,-1.2
-2.744e-05,-4.2,-1.24
-2.736e-05,-4.4,-1.24
-2.728e-05,-4.4,-1.32
-2.720e-05,-4.4,-1.28
-2.712e-05,-4.6,-1.28
-2.704e-05,-4.6,-1.36
-2.696e-05,-4.6,-1.36
-2.688e-05,-4.8,-1.4
-2.680e-05,-4.8,-1.4
-2.672e-05,-4.8,-1.4
-2.664e-05,-5,-1.44
-2.656e-05,-5,-1.44
-2.648e-05,-5,-1.48
-2.640e-05,-5.2,-1.48
-2.632e-05,-5.2,-1.48
-2.624e-05,-5.4,-1.52
-2.616e-05,-5.4,-1.52
-2.608e-05,-5.4,-1.56
-2.600e-05,-5.4,-1.56
-2.592e-05,-5.6,-1.56
-2.584e-05,-5.6,-1.56
-2.576e-05,-5.6,-1.6
-2.568e-05,-5.8,-1.64
-2.560e-05,-5.8,-1.64
-2.552e-05,-5.8,-1.68
-2.544e-05,-6,-1.68
-2.536e-05,-6,-1.72
-2.528e-05,-6.2,-1.72
-2.520e-05,-6,-1.72
-2.512e-05,-6.2,-1.76
-2.504e-05,-6.2,-1.76
-2.496e-05,-6.2,-1.8
-2.488e-05,-6.4,-1.8
-2.480e-05,-6.4,-1.84
-2.472e-05,-6.4,-1.84
-2.464e-05,-6.6,-1.84
-2.456e-05,-6.6,-1.88
-2.448e-05,-6.6,-1.88
-2.440e-05,-6.6,-1.88
-2.432e-05,-6.8,-1.92
-2.424e-05,-6.8,-1.92
-2.416e-05,-7,-1.96
-2.408e-05,-6.8,-1.96
-2.400e-05,-7,-2
-2.392e-05,-7,-1.96
-2.384e-05,-7.2,-2
-2.376e-05,-7.2,-2
-2.368e-05,-7.2,-2.04
-2.360e-05,-7.2,-2.04
-2.352e-05,-7.4,-2.04
-2.344e-05,-7.4,-2.08
-2.336e-05,-7.4,-2.08
-2.328e-05,-7.4,-2.12
-2.320e-05,-7.6,-2.12
-2.312e-05,-7.6,-2.12
-2.304e-05,-7.6,-2.16
-2.296e-05,-7.8,-2.16
-2.288e-05,-7.8,-2.16
-2.280e-05,-7.8,-2.16
-2.272e-05,-7.8,-2.2
-2.264e-05,-7.8,-2.2
-2.256e-05,-7.8,-2.24
-2.248e-05,-8,-2.24
-2.240e-05,-8,-2.24
-2.232e-05,-8,-2.28
-2.224e-05,-8,-2.24
-2.216e-05,-8,-2.32
-2.208e-05,-8.2,-2.28
-2.200e-05,-8.2,-2.32
-2.192e-05,-8.2,-2.32
-2.184e-05,-8.2,-2.36
-2.176e-05,-8.4,-2.32
-2.168e-05,-8.4,-2.36
-2.160e-05,-8.4,-2.36
-2.152e-05,-8.4,-2.36
-2.144e-05,-8.4,-2.36
-2.136e-05,-8.6,-2.4
-2.128e-05,-8.6,-2.4
-2.120e-05,-8.6,-2.4
-2.112e-05,-8.6,-2.44
-2.104e-05,-8.8,-2.44
-2.096e-05,-8.8,-2.48
-2.088e-05,-8.8,-2.44
-2.080e-05,-8.8,-2.48
-2.072e-05,-8.8,-2.48
-2.064e-05,-8.8,-2.48
-2.056e-05,-9,-2.48
-2.048e-05,-9,-2.48
-2.040e-05,-9,-2.52
-2.032e-05,-9,-2.52
-2.024e-05,-9,-2.52
-2.016e-05,-9,-2.56
-2.008e-05,-9,-2.56
-2.000e-05,-9.2,-2.56
-1.992e-05,-9.2,-2.56
-1.984e-05,-9.2,-2.56
-1.976e-05,-9.2,-2.56
-1.968e-05,-9.4,-2.56
-1.960e-05,-9.2,-2.6
-1.952e-05,-9.4,-2.6
-1.944e-05,-9.4,-2.6
-1.936e-05,-9.4,-2.6
-1.928e-05,-9.4,-2.6
-1.920e-05,-9.4,-2.6
-1.912e-05,-9.4,-2.6
-1.904e-05,-9.4,-2.64
-1.896e-05,-9.4,-2.64
-1.888e-05,-9.4,-2.68
-1.880e-05,-9.6,-2.64
-1.872e-05,-9.6,-2.68
-1.864e-05,-9.6,-2.64
-1.856e-05,-9.6,-2.68
-1.848e-05,-9.6,-2.68
-1.840e-05,-9.6,-2.68
-1.832e-05,-9.8,-2.68
-1.824e-05,-9.8,-2.68
-1.816e-05,-9.6,-2.68
-1.808e-05,-9.6,-2.68
-1.800e-05,-9.8,-2.68
-1.792e-05,-9.8,-2.72
-1.784e-05,-9.8,-2.68
-1.776e-05,-9.8,-2.72
-1.768e-05,-9.8,-2.68
-1.760e-05,-9.8,-2.68
-1.752e-05,-9.8,-2.72
-1.744e-05,-9.8,-2.72
-1.736e-05,-9.8,-2.72
-1.728e-05,-9.8,-2.76
-1.720e-05,-9.8,-2.72
-1.712e-05,-10,-2.72
-1.704e-05,-9.8,-2.72
-1.696e-05,-10,-2.76
-1.688e-05,-9.8,-2.72
-1.680e-05,-9.8,-2.72
-1.672e-05,-9.8,-2.72
-1.664e-05,-9.8,-2.72
-1.656e-05,-9.8,-2.72
-1.648e-05,-10,-2.72
-1.640e-05,-9.8,-2.72
-1.632e-05,-9.8,-2.76
-1.624e-05,-10,-2.72
-1.616e-05,-9.8,-2.76
-1.608e-05,-10,-2.76
-1.600e-05,-9.8,-2.72
-1.592e-05,-9.8,-2.76
-1.584e-05,-9.8,-2.72
-1.576e-05,-9.8,-2.72
-1.568e-05,-10,-2.72
-1.560e-05,-9.8,-2.72
-1.552e-05,-10,-2.72
-1.544e-05,-9.8,-2.72
-1.536e-05,-9.8,-2.72
-1.528e-05,-9.8,-2.72
-1.520e-05,-10,-2.72
-1.512e-05,-10,-2.68
-1.504e-05,-9.8,-2.68
-1.496e-05,-9.8,-2.68
-1.488e-05,-9.8,-2.68
-1.480e-05,-10,-2.72
-1.472e-05,-9.8,-2.68
-1.464e-05,-9.8,-2.68
-1.456e-05,-9.8,-2.68
-1.448e-05,-9.8,-2.68
-1.440e-05,-9.8,-2.68
-1.432e-05,-9.8,-2.64
-1.424e-05,-9.6,-2.64
-1.416e-05,-9.8,-2.68
-1.408e-05,-9.6,-2.64
-1.400e-05,-9.6,-2.64
-1.392e-05,-9.6,-2.64
-1.384e-05,-9.6,-2.64
-1.376e-05,-9.6,-2.64
-1.368e-05,-9.6,-2.64
-1.360e-05,-9.6,-2.6
-1.352e-05,-9.6,-2.6
-1.344e-05,-9.6,-2.6
-1.336e-05,-9.6,-2.6
-1.328e-05,-9.6,-2.6
-1.320e-05,-9.6,-2.56
-1.312e-05,-9.4,-2.56
-1.304e-05,-9.4,-2.56
-1.296e-05,-9.4,-2.56
-1.288e-05,-9.4,-2.56
-1.280e-05,-9.4,-2.56
-1.272e-05,-9.2,-2.56
-1.264e-05,-9.2,-2.56
-1.256e-05,-9.2,-2.52
-1.248e-05,-9.2,-2.52
-1.240e-05,-9.4,-2.48
-1.232e-05,-9.2,-2.52
-1.224e-05,-9.2,-2.52
-1.216e-05,-9,-2.48
-1.208e-05,-9.2,-2.48
-1.200e-05,-9.2,-2.48
-1.192e-05,-9,-2.44
-1.184e-05,-9.2,-2.44
-1.176e-05,-9,-2.44
-1.168e-05,-9,-2.44
-1.160e-05,-8.8,-2.4
-1.152e-05,-8.8,-2.4
-1.144e-05,-8.8,-2.4
-1.136e-05,-8.8,-2.36
-1.128e-05,-8.8,-2.36
-1.120e-05,-8.6,-2.36
-1.112e-05,-8.6,-2.36
-1.104e-05,-8.6,-2.36
-1.096e-05,-8.6,-2.32
-1.088e-05,-8.6,-2.32
-1.080e-05,-8.6,-2.32
-1.072e-05,-8.6,-2.28
-1.064e-05,-8.4,-2.28
-1.056e-05,-8.4,-2.28
-1.048e-05,-8.4,-2.28
-1.040e-05,-8.2,-2.24
-1.032e-05,-8.4,-2.24
-1.024e-05,-8.2,-2.24
-1.016e-05,-8.2,-2.2
-1.008e-05,-8,-2.2
-1.000e-05,-8,-2.16
-9.920e-06,-8.2,-2.2
-9.840e-06,-8,-2.2
-9.760e-06,-7.8,-2.16
-9.680e-06,-7.8,-2.12
-9.600e-06,-8,-2.12
-9.520e-06,-7.8,-2.08
-9.440e-06,-7.8,-2.08
-9.360e-06,-7.6,-2.08
-9.280e-06,-7.8,-2.04
-9.200e-06,-7.8,-2.04
-9.120e-06,-7.6,-2.04
-9.040e-06,-7.4,-2.04
-8.960e-06,-7.6,-2
-8.880e-06,-7.4,-2
-8.800e-06,-7.4,-1.96
-8.720e-06,-7.4,-1.96
-8.640e-06,-7.2,-1.96
-8.560e-06,-7.2,-1.92
-8.480e-06,-7.2,-1.92
-8.400e-06,-7,-1.88
-8.320e-06,-7.2,-1.88
-8.240e-06,-7,-1.88
-8.160e-06,-6.8,-1.88
-8.080e-06,-6.8,-1.84
-8.000e-06,-6.8,-1.8
-7.920e-06,-6.8,-1.8
-7.840e-06,-6.6,-1.84
-7.760e-06,-6.6,-1.76
-7.680e-06,-6.6,-1.76
-7.600e-06,-6.6,-1.76
-7.520e-06,-6.4,-1.76
-7.440e-06,-6.4,-1.72
-7.360e-06,-6.2,-1.68
-7.280e-06,-6.2,-1.64
-7.200e-06,-6.2,-1.64
-7.120e-06,-6,-1.64
-7.040e-06,-6.2,-1.64
-6.960e-06,-6.2,-1.64
-6.880e-06,-6,-1.6
-6.800e-06,-5.8,-1.6
-6.720e-06,-5.8,-1.56
-6.640e-06,-5.8,-1.52
-6.560e-06,-5.6,-1.52
-6.480e-06,-5.6,-1.48
-6.400e-06,-5.6,-1.52
-6.320e-06,-5.6,-1.48
-6.240e-06,-5.4,-1.44
-6.160e-06,-5.4,-1.44
-6.080e-06,-5.4,-1.4
-6.000e-06,-5.4,-1.4
-5.920e-06,-5.2,-1.36
-5.840e-06,-5.2,-1.36
-5.760e-06,-5.2,-1.36
-5.680e-06,-5,-1.32
-5.600e-06,-5,-1.32
-5.520e-06,-5,-1.28
-5.440e-06,-4.8,-1.24
-5.360e-06,-4.8,-1.24
-5.280e-06,-4.8,-1.2
-5.200e-06,-4.6,-1.2
-5.120e-06,-4.6,-1.2
-5.040e-06,-4.6,-1.16
-4.960e-06,-4.4,-1.16
-4.880e-06,-4.4,-1.12
-4.800e-06,-4.4,-1.08
-4.720e-06,-4.2,-1.12
-4.640e-06,-4.2,-1.08
-4.560e-06,-4,-1.04
-4.480e-06,-4,-1
-4.400e-06,-4,-1
-4.320e-06,-3.8,-0.96
-4.240e-06,-3.8,-0.96
-4.160e-06,-3.6,-0.92
-4.080e-06,-3.6,-0.92
-4.000e-06,-3.6,-0.88
-3.920e-06,-3.4,-0.88
-3.840e-06,-3.4,-0.88
-3.760e-06,-3.2,-0.84
-3.680e-06,-3.2,-0.8
