lab2/exp5/data/day2/TEK00018.CSV

Model,TBS1102C
Firmware Version,v2015-08-04-prequal4ch70_v1.3

Point Format,Y,
Horizontal Units,S,
Horizontal Scale,4e-07,
Sample Interval,4e-09,
Filter Frequency,2e+08,
Record Length,2000,
Gating,0.0% to 100.0%,0.0% to 100.0%
Probe Attenuation,1,1
Vertical Units,V,V
Vertical Offset,0,0
Vertical Scale,0.5,0.5
Label,,
TIME,CH1,CH2
2.19344e-04,-1.6,-1.4
2.19348e-04,-1.6,-1.4
2.19352e-04,-1.58,-1.4
2.19356e-04,-1.58,-1.4
2.19360e-04,-1.56,-1.4
2.19364e-04,-1.56,-1.4
2.19368e-04,-1.56,-1.42
2.19372e-04,-1.54,-1.4
2.19376e-04,-1.54,-1.42
2.19380e-04,-1.52,-1.42
2.19384e-04,-1.52,-1.42
2.19388e-04,-1.52,-1.4
2.19392e-04,-1.5,-1.42
2.19396e-04,-1.5,-1.42
2.19400e-04,-1.5,-1.42
2.19404e-04,-1.48,-1.42
2.19408e-04,-1.48,-1.42
2.19412e-04,-1.48,-1.42
2.19416e-04,-1.46,-1.44
2.19420e-04,-1.44,-1.42
2.19424e-04,-1.44,-1.42
2.19428e-04,-1.42,-1.42
2.19432e-04,-1.42,-1.42
2.19436e-04,-1.4,-1.42
2.19440e-04,-1.42,-1.42
2.19444e-04,-1.4,-1.44
2.19448e-04,-1.38,-1.42
2.19452e-04,-1.38,-1.42
2.19456e-04,-1.38,-1.44
2.19460e-04,-1.36,-1.44
2.19464e-04,-1.34,-1.44
2.19468e-04,-1.34,-1.42
2.19472e-04,-1.32,-1.42
2.19476e-04,-1.32,-1.42
2.19480e-04,-1.32,-1.42
2.19484e-04,-1.3,-1.42
2.19488e-04,-1.3,-1.42
2.19492e-04,-1.28,-1.42
2.19496e-04,-1.28,-1.42
2.19500e-04,-1.26,-1.42
2.19504e-04,-1.26,-1.42
2.19508e-04,-1.24,-1.44
2.19512e-04,-1.22,-1.44
2.19516e-04,-1.22,-1.42
2.19520e-04,-1.2,-1.42
2.19524e-04,-1.2,-1.42
2.19528e-04,-1.18,-1.42
2.19532e-04,-1.18,-1.42
2.19536e-04,-1.16,-1.42
2.19540e-04,-1.16,-1.44
2.19544e-04,-1.14,-1.44
2.19548e-04,-1.14,-1.44
2.19552e-04,-1.14,-1.44
2.19556e-04,-1.12,-1.42
2.19560e-04,-1.12,-1.42
2.19564e-04,-1.1,-1.42
2.19568e-04,-1.1,-1.44
2.19572e-04,-1.08,-1.44
2.19576e-04,-1.08,-1.44
2.19580e-04,-1.06,-1.42
2.19584e-04,-1.06,-1.42
2.19588e-04,-1.04,-1.44
2.19592e-04,-1.04,-1.42
2.19596e-04,-1.02,-1.42
2.19600e-04,-1.02,-1.42
2.19604e-04,-1.02,-1.4
2.19608e-04,-1,-1.4
2.19612e-04,-1,-1.4
2.19616e-04,-0.98,-1.42
2.19620e-04,-0.96,-1.42
2.19624e-04,-0.96,-1.42
2.19628e-04,-0.96,-1.42
2.19632e-04,-0.94,-1.42
2.19636e-04,-0.94,-1.42
2.19640e-04,-0.92,-1.4
2.19644e-04,-0.9,-1.4
2.19648e-04,-0.88,-1.4
2.19652e-04,-0.88,-1.4
2.19656e-04,-0.88,-1.4
2.19660e-04,-0.86,-1.4
2.19664e-04,-0.84,-1.4
2.19668e-04,-0.84,-1.42
2.19672e-04,-0.82,-1.4
2.19676e-04,-0.82,-1.42
2.19680e-04,-0.8,-1.4
2.19684e-04,-0.8,-1.4
2.19688e-04,-0.8,-1.4
2.19692e-04,-0.78,-1.38
2.19696e-04,-0.78,-1.38
2.19700e-04,-0.76,-1.38
2.19704e-04,-0.76,-1.38
2.19708e-04,-0.74,-1.38
2.19712e-04,-0.72,-1.4
2.19716e-04,-0.7,-1.38
2.19720e-04,-0.7,-1.38
2.19724e-04,-0.7,-1.38
2.19728e-04,-0.68,-1.38
2.19732e-04,-0.68,-1.38
2.19736e-04,-0.66,-1.38
2.19740e-04,-0.66,-1.38
2.19744e-04,-0.64,-1.36
2.19748e-04,-0.62,-1.36
2.19752e-04,-0.62,-1.38
2.19756e-04,-0.62,-1.36
2.19760e-04,-0.6,-1.36
2.19764e-04,-0.58,-1.36
2.19768e-04,-0.58,-1.36
2.19772e-04,-0.56,-1.34
2.19776e-04,-0.56,-1.36
2.19780e-04,-0.54,-1.36
2.19784e-04,-0.54,-1.34
2.19788e-04,-0.52,-1.34
2.19792e-04,-0.52,-1.34
2.19796e-04,-0.5,-1.34
2.19800e-04,-0.5,-1.34
2.19804e-04,-0.48,-1.34
2.19808e-04,-0.48,-1.32
2.19812e-04,-0.46,-1.32
2.19816e-04,-0.46,-1.34
2.19820e-04,-0.44,-1.32
2.19824e-04,-0.44,-1.32
2.19828e-04,-0.42,-1.32
2.19832e-04,-0.4,-1.32
2.19836e-04,-0.4,-1.3
2.19840e-04,-0.38,-1.3
2.19844e-04,-0.36,-1.3
2.19848e-04,-0.36,-1.3
2.19852e-04,-0.34,-1.3
2.19856e-04,-0.32,-1.3
2.19860e-04,-0.34,-1.28
2.19864e-04,-0.32,-1.3
2.19868e-04,-0.3,-1.28
2.19872e-04,-0.3,-1.3
2.19876e-04,-0.28,-1.28
2.19880e-04,-0.28,-1.28
2.19884e-04,-0.28,-1.28
2.19888e-04,-0.24,-1.28
2.19892e-04,-0.24,-1.26
2.19896e-04,-0.22,-1.26
2.19900e-04,-0.22,-1.28
2.19904e-04,-0.22,-1.26
2.19908e-04,-0.2,-1.26
2.19912e-04,-0.18,-1.26
2.19916e-04,-0.18,-1.24
2.19920e-04,-0.16,-1.24
2.19924e-04,-0.16,-1.26
2.19928e-04,-0.14,-1.24
2.19932e-04,-0.14,-1.22
2.19936e-04,-0.12,-1.22
2.19940e-04,-0.1,-1.22
2.19944e-04,-0.1,-1.22
2.19948e-04,-0.1,-1.22
2.19952e-04,-0.08,-1.22
2.19956e-04,-0.06,-1.2
2.19960e-04,-0.06,-1.22
2.19964e-04,-0.06,-1.2
2.19968e-04,-0.04,-1.2
2.19972e-04,-0.02,-1.2
2.19976e-04,0,-1.18
2.19980e-04,0.02,-1.18
2.19984e-04,0,-1.18
2.19988e-04,0.02,-1.16
2.19992e-04,0.04,-1.18
2.19996e-04,0.04,-1.18
2.20000e-04,0.06,-1.18
2.20004e-04,0.08,-1.16
2.20008e-04,0.08,-1.16
2.20012e-04,0.1,-1.16
2.20016e-04,0.1,-1.16
2.20020e-04,0.1,-1.14
2.20024e-04,0.12,-1.14
2.20028e-04,0.12,-1.12
2.20032e-04,0.14,-1.12
2.20036e-04,0.16,-1.12
2.20040e-04,0.18,-1.12
2.20044e-04,0.2,-1.12
2.20048e-04,0.2,-1.12
2.20052e-04,0.22,-1.1
2.20056e-04,0.22,-1.1
2.20060e-04,0.22,-1.1
2.20064e-04,0.24,-1.1
2.20068e-04,0.24,-1.08
2.20072e-04,0.26,-1.08
2.20076e-04,0.28,-1.08
2.20080e-04,0.28,-1.06
2.20084e-04,0.3,-1.06
2.20088e-04,0.3,-1.06
2.20092e-04,0.3,-1.06
2.20096e-04,0.32,-1.04
2.20100e-04,0.34,-1.04
2.20104e-04,0.36,-1.06
2.20108e-04,0.36,-1.04
2.20112e-04,0.36,-1.04
2.20116e-04,0.38,-1.02
2.20120e-04,0.4,-1.02
2.20124e-04,0.4,-1.04
2.20128e-04,0.42,-1.02
2.20132e-04,0.42,-1
2.20136e-04,0.44,-1
2.20140e-04,0.44,-1
2.20144e-04,0.46,-1
2.20148e-04,0.46,-1
2.20152e-04,0.48,-0.98
2.20156e-04,0.5,-1
2.20160e-04,0.5,-0.98
2.20164e-04,0.52,-0.96
2.20168e-04,0.52,-0.96
2.20172e-04,0.54,-0.96
2.20176e-04,0.56,-0.94
2.20180e-04,0.56,-0.94
2.20184e-04,0.56,-0.94
2.20188e-04,0.58,-0.94
2.20192e-04,0.58,-0.92
2.20196e-04,0.6,-0.92
2.20200e-04,0.6,-0.92
2.20204e-04,0.62,-0.9
2.20208e-04,0.64,-0.9
2.20212e-04,0.64,-0.9
2.20216e-04,0.66,-0.88
2.20220e-04,0.66,-0.9
2.20224e-04,0.68,-0.88
2.20228e-04,0.7,-0.88
2.20232e-04,0.7,-0.86
2.20236e-04,0.72,-0.86
2.20240e-04,0.72,-0.86
2.20244e-04,0.74,-0.86
2.20248e-04,0.74,-0.84
2.20252e-04,0.74,-0.84
2.20256e-04,0.76,-0.84
2.20260e-04,0.78,-0.84
2.20264e-04,0.78,-0.82
2.20268e-04,0.8,-0.82
2.20272e-04,0.8,-0.82
2.20276e-04,0.82,-0.8
2.20280e-04,0.84,-0.82
2.20284e-04,0.84,-0.8
2.20288e-04,0.84,-0.78
2.20292e-04,0.86,-0.78
2.20296e-04,0.88,-0.78
2.20300e-04,0.88,-0.76
2.20304e-04,0.88,-0.76
2.20308e-04,0.9,-0.76
2.20312e-04,0.92,-0.76
2.20316e-04,0.94,-0.74
2.20320e-04,0.94,-0.76
2.20324e-04,0.94,-0.74
2.20328e-04,0.96,-0.74
2.20332e-04,0.96,-0.72
2.20336e-04,0.98,-0.72
2.20340e-04,1,-0.72
2.20344e-04,1,-0.72
2.20348e-04,1,-0.7
2.20352e-04,1.02,-0.68
2.20356e-04,1.02,-0.7
2.20360e-04,1.04,-0.68
2.20364e-04,1.04,-0.68
2.20368e-04,1.06,-0.66
2.20372e-04,1.06,-0.66
2.20376e-04,1.08,-0.66
2.20380e-04,1.1,-0.66
2.20384e-04,1.1,-0.64
2.20388e-04,1.1,-0.64
2.20392e-04,1.12,-0.64
2.20396e-04,1.14,-0.62
2.20400e-04,1.14,-0.62
2.20404e-04,1.16,-0.62
2.20408e-04,1.16,-0.6
2.20412e-04,1.16,-0.6
2.20416e-04,1.18,-0.6
2.20420e-04,1.18,-0.58
2.20424e-04,1.2,-0.58
2.20428e-04,1.22,-0.56
2.20432e-04,1.22,-0.56
2.20436e-04,1.22,-0.56
2.20440e-04,1.24,-0.54
2.20444e-04,1.24,-0.56
2.20448e-04,1.26,-0.54
2.20452e-04,1.28,-0.54
2.20456e-04,1.28,-0.52
2.20460e-04,1.28,-0.52
2.20464e-04,1.3,-0.5
2.20468e-04,1.3,-0.5
2.20472e-04,1.32,-0.5
2.20476e-04,1.32,-0.48
2.20480e-04,1.34,-0.48
2.20484e-04,1.34,-0.48
2.20488e-04,1.36,-0.46
2.20492e-04,1.36,-0.48
2.20496e-04,1.38,-0.46
2.20500e-04,1.38,-0.44
2.20504e-04,1.38,-0.44
2.20508e-04,1.4,-0.44
2.20512e-04,1.4,-0.42
2.20516e-04,1.42,-0.42
2.20520e-04,1.42,-0.42
2.20524e-04,1.44,-0.4
2.20528e-04,1.46,-0.4
2.20532e-04,1.46,-0.4
2.20536e-04,1.46,-0.38
2.20540e-04,1.46,-0.38
2.20544e-04,1.48,-0.38
2.20548e-04,1.5,-0.38
2.20552e-04,1.5,-0.36
2.20556e-04,1.5,-0.34
2.20560e-04,1.52,-0.36
2.20564e-04,1.52,-0.34
2.20568e-04,1.52,-0.34
2.20572e-04,1.54,-0.34
2.20576e-04,1.54,-0.32
2.20580e-04,1.56,-0.3
2.20584e-04,1.58,-0.3
2.20588e-04,1.58,-0.3
2.20592e-04,1.58,-0.3
2.20596e-04,1.6,-0.28
2.20600e-04,1.6,-0.28
2.20604e-04,1.62,-0.28
2.20608e-04,1.62,-0.26
2.20612e-04,1.62,-0.26
2.20616e-04,1.62,-0.24
2.20620e-04,1.64,-0.24
2.20624e-04,1.64,-0.24
2.20628e-04,1.66,-0.22
2.20632e-04,1.66,-0.22
2.20636e-04,1.66,-0.2
2.20640e-04,1.68,-0.2
2.20644e-04,1.68,-0.2
2.20648e-04,1.7,-0.18
2.20652e-04,1.7,-0.2
2.20656e-04,1.7,-0.18
2.20660e-04,1.72,-0.18
2.20664e-04,1.72,-0.16
2.20668e-04,1.72,-0.16
2.20672e-04,1.74,-0.16
2.20676e-04,1.74,-0.14
2.20680e-04,1.74,-0.14
2.20684e-04,1.76,-0.12
2.20688e-04,1.76,-0.12
2.20692e-04,1.78,-0.12
2.20696e-04,1.78,-0.12
2.20700e-04,1.78,-0.1
2.20704e-04,1.78,-0.1
2.20708e-04,1.8,-0.08
2.20712e-04,1.82,-0.08
2.20716e-04,1.82,-0.08
2.20720e-04,1.82,-0.06
2.20724e-04,1.82,-0.06
2.20728e-04,1.84,-0.06
2.20732e-04,1.84,-0.04
2.20736e-04,1.84,-0.04
2.20740e-04,1.86,-0.04
2.20744e-04,1.88,-0.02
2.20748e-04,1.88,-0.02
2.20752e-04,1.88,0
2.20756e-04,1.88,0
2.20760e-04,1.9,0
2.20764e-04,1.9,0.02
2.20768e-04,1.9,0.02
2.20772e-04,1.9,0.02
2.20776e-04,1.92,0.04
2.20780e-04,1.92,0.04
2.20784e-04,1.92,0.06
2.20788e-04,1.94,0.04
2.20792e-04,1.94,0.06
2.20796e-04,1.94,0.08
2.20800e-04,1.94,0.08
2.20804e-04,1.94,0.08
2.20808e-04,1.96,0.1
2.20812e-04,1.96,0.1
2.20816e-04,1.98,0.12
2.20820e-04,1.98,0.12
2.20824e-04,1.98,0.12
2.20828e-04,1.98,0.14
2.20832e-04,2,0.14
2.20836e-04,2,0.16
2.20840e-04,2,0.14
2.20844e-04,2.02,0.16
2.20848e-04,2.02,0.16
2.20852e-04,2.02,0.18
2.20856e-04,2.02,0.2
2.20860e-04,2.04,0.18
2.20864e-04,2.04,0.2
2.20868e-04,2.04,0.2
2.20872e-04,2.06,0.22
2.20876e-04,2.06,0.22
2.20880e-04,2.06,0.22
2.20884e-04,2.08,0.24
2.20888e-04,2.08,0.24
2.20892e-04,2.08,0.26
2.20896e-04,2.08,0.24
2.20900e-04,2.1,0.24
2.20904e-04,2.08,0.26
2.20908e-04,2.08,0.26
2.20912e-04,2.08,0.28
2.20916e-04,2.1,0.3
2.20920e-04,2.1,0.3
2.20924e-04,2.1,0.32
2.20928e-04,2.12,0.3
2.20932e-04,2.14,0.32
2.20936e-04,2.12,0.32
2.20940e-04,2.12,0.32
2.20944e-04,2.12,0.34
2.20948e-04,2.12,0.34
2.20952e-04,2.14,0.34
2.20956e-04,2.14,0.36
2.20960e-04,2.14,0.36
2.20964e-04,2.14,0.38
2.20968e-04,2.16,0.38
2.20972e-04,2.16,0.4
2.20976e-04,2.16,0.4
2.20980e-04,2.16,0.4
2.20984e-04,2.18,0.4
2.20988e-04,2.2,0.42
2.20992e-04,2.18,0.42
2.20996e-04,2.18,0.44
2.21000e-04,2.18,0.44
2.21004e-04,2.2,0.44
2.21008e-04,2.2,0.46
2.21012e-04,2.2,0.44
2.21016e-04,2.2,0.46
2.21020e-04,2.2,0.48
2.21024e-04,2.2,0.46
2.21028e-04,2.22,0.48
2.21032e-04,2.22,0.48
2.21036e-04,2.22,0.48
2.21040e-04,2.22,0.5
2.21044e-04,2.22,0.52
2.21048e-04,2.22,0.5
2.21052e-04,2.24,0.52
2.21056e-04,2.22,0.54
2.21060e-04,2.24,0.54
2.21064e-04,2.24,0.54
2.21068e-04,2.24,0.56
2.21072e-04,2.26,0.56
2.21076e-04,2.24,0.56
2.21080e-04,2.24,0.56
2.21084e-04,2.24,0.58
2.21088e-04,2.24,0.6
2.21092e-04,2.26,0.58
2.21096e-04,2.26,0.6
2.21100e-04,2.26,0.6
2.21104e-04,2.26,0.6
2.21108e-04,2.26,0.62
2.21112e-04,2.26,0.62
2.21116e-04,2.26,0.62
2.21120e-04,2.26,0.64
2.21124e-04,2.26,0.66
2.21128e-04,2.28,0.64
2.21132e-04,2.26,0.66
2.21136e-04,2.28,0.66
2.21140e-04,2.28,0.68
2.21144e-04,2.28,0.66
2.21148e-04,2.28,0.68
2.21152e-04,2.3,0.7
2.21156e-04,2.28,0.7
2.21160e-04,2.28,0.7
2.21164e-04,2.28,0.7
2.21168e-04,2.28,0.7
2.21172e-04,2.3,0.72
2.21176e-04,2.3,0.72
2.21180e-04,2.28,0.74
2.21184e-04,2.28,0.74
2.21188e-04,2.28,0.74
2.21192e-04,2.3,0.74
2.21196e-04,2.3,0.76
2.21200e-04,2.3,0.78
2.21204e-04,2.3,0.78
2.21208e-04,2.3,0.78
2.21212e-04,2.3,0.78
2.21216e-04,2.3,0.78
2.21220e-04,2.3,0.8
2.21224e-04,2.3,0.8
2.21228e-04,2.3,0.8
2.21232e-04,2.3,0.82
2.21236e-04,2.32,0.84
2.21240e-04,2.3,0.82
2.21244e-04,2.3,0.82
2.21248e-04,2.3,0.84
2.21252e-04,2.3,0.86
2.21256e-04,2.3,0.86
2.21260e-04,2.3,0.88
2.21264e-04,2.3,0.86
2.21268e-04,2.3,0.88
2.21272e-04,2.3,0.88
2.21276e-04,2.3,0.88
2.21280e-04,2.3,0.88
2.21284e-04,2.3,0.9
2.21288e-04,2.3,0.9
2.21292e-04,2.3,0.9
2.21296e-04,2.3,0.92
2.21300e-04,2.3,0.9
2.21304e-04,2.28,0.92
2.21308e-04,2.3,0.92
2.21312e-04,2.3,0.94
2.21316e-04,2.3,0.94
2.21320e-04,2.28,0.94
2.21324e-04,2.28,0.94
2.21328e-04,2.28,0.96
2.21332e-04,2.28,0.94
2.21336e-04,2.28,0.96
2.21340e-04,2.28,0.96
2.21344e-04,2.26,0.98
2.21348e-04,2.26,0.98
2.21352e-04,2.28,0.98
2.21356e-04,2.26,0.98
2.21360e-04,2.26,0.98
2.21364e-04,2.26,1
2.21368e-04,2.26,1
2.21372e-04,2.26,1.02
2.21376e-04,2.26,1.02
2.21380e-04,2.26,1.02
2.21384e-04,2.26,1.02
2.21388e-04,2.26,1.02
2.21392e-04,2.24,1.04
2.21396e-04,2.24,1.04
2.21400e-04,2.24,1.04
2.21404e-04,2.24,1.06
2.21408e-04,2.24,1.06
2.21412e-04,2.26,1.06
2.21416e-04,2.24,1.06
2.21420e-04,2.24,1.08
2.21424e-04,2.24,1.08
2.21428e-04,2.22,1.1
2.21432e-04,2.22,1.08
2.21436e-04,2.24,1.1
2.21440e-04,2.22,1.08
2.21444e-04,2.22,1.1
2.21448e-04,2.22,1.1
2.21452e-04,2.22,1.12
2.21456e-04,2.2,1.1
2.21460e-04,2.2,1.1
2.21464e-04,2.22,1.12
2.21468e-04,2.2,1.14
2.21472e-04,2.2,1.12
2.21476e-04,2.2,1.14
2.21480e-04,2.2,1.14
2.21484e-04,2.18,1.16
2.21488e-04,2.18,1.14
2.21492e-04,2.18,1.16
2.21496e-04,2.18,1.16
2.21500e-04,2.18,1.18
2.21504e-04,2.18,1.16
2.21508e-04,2.18,1.16
2.21512e-04,2.16,1.18
2.21516e-04,2.16,1.18
2.21520e-04,2.18,1.18
2.21524e-04,2.16,1.18
2.21528e-04,2.16,1.18
2.21532e-04,2.16,1.2
2.21536e-04,2.16,1.2
2.21540e-04,2.14,1.2
2.21544e-04,2.16,1.22
2.21548e-04,2.14,1.22
2.21552e-04,2.12,1.22
2.21556e-04,2.12,1.22
2.21560e-04,2.14,1.24
2.21564e-04,2.12,1.22
2.21568e-04,2.12,1.24
2.21572e-04,2.12,1.24
2.21576e-04,2.1,1.24
2.21580e-04,2.1,1.26
2.21584e-04,2.1,1.24
2.21588e-04,2.1,1.26
2.21592e-04,2.08,1.26
2.21596e-04,2.08,1.26
2.21600e-04,2.08,1.26
2.21604e-04,2.08,1.26
2.21608e-04,2.08,1.26
2.21612e-04,2.08,1.28
2.21616e-04,2.06,1.28
2.21620e-04,2.06,1.28
2.21624e-04,2.06,1.28
2.21628e-04,2.04,1.3
2.21632e-04,2.04,1.28
2.21636e-04,2.04,1.3
2.21640e-04,2.02,1.3
2.21644e-04,2.02,1.3
2.21648e-04,2,1.3
2.21652e-04,2,1.32
2.21656e-04,2,1.3
2.21660e-04,2,1.3
2.21664e-04,2,1.32
2.21668e-04,1.98,1.3
2.21672e-04,1.98,1.32
2.21676e-04,1.98,1.34
2.21680e-04,1.96,1.32
2.21684e-04,1.98,1.34
2.21688e-04,1.96,1.34
2.21692e-04,1.96,1.34
2.21696e-04,1.94,1.36
2.21700e-04,1.94,1.34
2.21704e-04,1.94,1.34
2.21708e-04,1.92,1.34
2.21712e-04,1.92,1.34
2.21716e-04,1.9,1.34
2.21720e-04,1.92,1.36
2.21724e-04,1.9,1.36
2.21728e-04,1.9,1.36
2.21732e-04,1.88,1.38
2.21736e-04,1.88,1.38
2.21740e-04,1.88,1.36
2.21744e-04,1.86,1.38
2.21748e-04,1.86,1.38
2.21752e-04,1.86,1.38
2.21756e-04,1.84,1.38
2.21760e-04,1.86,1.38
2.21764e-04,1.84,1.38
2.21768e-04,1.82,1.4
2.21772e-04,1.82,1.38
2.21776e-04,1.8,1.38
2.21780e-04,1.82,1.4
2.21784e-04,1.8,1.38
2.21788e-04,1.78,1.4
2.21792e-04,1.78,1.4
2.21796e-04,1.78,1.4
2.21800e-04,1.78,1.4
2.21804e-04,1.76,1.42
2.21808e-04,1.76,1.4
2.21812e-04,1.74,1.4
2.21816e-04,1.74,1.42
2.21820e-04,1.74,1.42
2.21824e-04,1.72,1.42
2.21828e-04,1.72,1.42
2.21832e-04,1.72,1.42
2.21836e-04,1.7,1.42
2.21840e-04,1.7,1.42
2.21844e-04,1.68,1.44
2.21848e-04,1.68,1.42
2.21852e-04,1.68,1.42
2.21856e-04,1.66,1.42
2.21860e-04,1.66,1.42
2.21864e-04,1.64,1.42
2.21868e-04,1.64,1.42
2.21872e-04,1.64,1.44
2.21876e-04,1.64,1.44
2.21880e-04,1.62,1.44
2.21884e-04,1.62,1.44
2.21888e-04,1.6,1.44
2.21892e-04,1.6,1.44
2.21896e-04,1.58,1.44
2.21900e-04,1.58,1.44
2.21904e-04,1.58,1.44
2.21908e-04,1.56,1.44
2.21912e-04,1.56,1.44
2.21916e-04,1.56,1.44
2.21920e-04,1.54,1.46
2.21924e-04,1.52,1.44
2.21928e-04,1.52,1.44
2.21932e-04,1.5,1.44
2.21936e-04,1.5,1.44
2.21940e-04,1.5,1.44
2.21944e-04,1.48,1.44
2.21948e-04,1.48,1.46
2.21952e-04,1.46,1.46
2.21956e-04,1.46,1.44
2.21960e-04,1.44,1.44
2.21964e-04,1.44,1.44
2.21968e-04,1.44,1.44
2.21972e-04,1.42,1.46
2.21976e-04,1.42,1.46
2.21980e-04,1.4,1.44
2.21984e-04,1.4,1.46
2.21988e-04,1.38,1.46
2.21992e-04,1.38,1.46
2.21996e-04,1.36,1.46
2.22000e-04,1.36,1.46
2.22004e-04,1.34,1.44
2.22008e-04,1.34,1.46
2.22012e-04,1.32,1.46
2.22016e-04,1.32,1.46
2.22020e-04,1.3,1.46
2.22024e-04,1.3,1.46
2.22028e-04,1.28,1.46
2.22032e-04,1.28,1.46
2.22036e-04,1.28,1.46
2.22040e-04,1.26,1.46
2.22044e-04,1.26,1.46
2.22048e-04,1.24,1.46
2.22052e-04,1.24,1.44
2.22056e-04,1.24,1.46
2.22060e-04,1.22,1.46
2.22064e-04,1.2,1.44
2.22068e-04,1.18,1.44
2.22072e-04,1.18,1.44
2.22076e-04,1.18,1.46
2.22080e-04,1.16,1.44
2.22084e-04,1.14,1.46
2.22088e-04,1.14,1.46
2.22092e-04,1.14,1.46
2.22096e-04,1.12,1.46
2.22100e-04,1.12,1.44
2.22104e-04,1.1,1.46
2.22108e-04,1.08,1.44
2.22112e-04,1.08,1.44
2.22116e-04,1.06,1.46
2.22120e-04,1.06,1.44
2.22124e-04,1.04,1.44
2.22128e-04,1.04,1.44
2.22132e-04,1.02,1.44
2.22136e-04,1.02,1.44
2.22140e-04,1,1.44
2.22144e-04,1,1.44
2.22148e-04,1,1.44
2.22152e-04,0.98,1.44
2.22156e-04,0.98,1.42
2.22160e-04,0.96,1.42
2.22164e-04,0.94,1.42
2.22168e-04,0.94,1.42
2.22172e-04,0.92,1.44
2.22176e-04,0.92,1.42
2.22180e-04,0.9,1.42
2.22184e-04,0.88,1.42
2.22188e-04,0.88,1.42
2.22192e-04,0.88,1.42
2.22196e-04,0.88,1.42
2.22200e-04,0.86,1.42
2.22204e-04,0.84,1.4
2.22208e-04,0.82,1.42
2.22212e-04,0.82,1.42
2.22216e-04,0.82,1.42
2.22220e-04,0.8,1.4
2.22224e-04,0.8,1.4
2.22228e-04,0.78,1.4
2.22232e-04,0.78,1.42
2.22236e-04,0.76,1.4
2.22240e-04,0.74,1.4
2.22244e-04,0.74,1.38
2.22248e-04,0.72,1.38
2.22252e-04,0.72,1.4
2.22256e-04,0.7,1.38
2.22260e-04,0.7,1.38
2.22264e-04,0.68,1.38
2.22268e-04,0.66,1.4
2.22272e-04,0.64,1.38
2.22276e-04,0.64,1.38
2.22280e-04,0.64,1.36
2.22284e-04,0.62,1.36
2.22288e-04,0.62,1.38
2.22292e-04,0.6,1.36
2.22296e-04,0.58,1.36
2.22300e-04,0.58,1.36
2.22304e-04,0.58,1.36
2.22308e-04,0.56,1.34
2.22312e-04,0.54,1.36
2.22316e-04,0.54,1.34
2.22320e-04,0.52,1.34
2.22324e-04,0.52,1.34
2.22328e-04,0.5,1.36
2.22332e-04,0.48,1.34
2.22336e-04,0.48,1.34
2.22340e-04,0.46,1.34
2.22344e-04,0.46,1.32
2.22348e-04,0.44,1.32
2.22352e-04,0.42,1.32
2.22356e-04,0.42,1.32
2.22360e-04,0.42,1.32
2.22364e-04,0.4,1.32
2.22368e-04,0.4,1.32
2.22372e-04,0.38,1.3
2.22376e-04,0.36,1.3
2.22380e-04,0.36,1.32
2.22384e-04,0.34,1.3
2.22388e-04,0.34,1.3
2.22392e-04,0.32,1.28
2.22396e-04,0.32,1.28
2.22400e-04,0.32,1.3
2.22404e-04,0.28,1.28
2.22408e-04,0.26,1.28
2.22412e-04,0.26,1.28
2.22416e-04,0.26,1.26
2.22420e-04,0.24,1.26
2.22424e-04,0.22,1.26
2.22428e-04,0.22,1.26
2.22432e-04,0.2,1.26
2.22436e-04,0.2,1.24
2.22440e-04,0.18,1.26
2.22444e-04,0.18,1.24
2.22448e-04,0.16,1.24
2.22452e-04,0.16,1.24
2.22456e-04,0.14,1.24
2.22460e-04,0.12,1.22
2.22464e-04,0.12,1.24
2.22468e-04,0.12,1.22
2.22472e-04,0.1,1.22
2.22476e-04,0.08,1.2
2.22480e-04,0.08,1.2
2.22484e-04,0.08,1.2
2.22488e-04,0.06,1.22
2.22492e-04,0.04,1.2
2.22496e-04,0.02,1.2
2.22500e-04,0.02,1.18
2.22504e-04,0,1.18
2.22508e-04,0,1.2
2.22512e-04,-0.02,1.18
2.22516e-04,-0.02,1.18
2.22520e-04,-0.04,1.18
2.22524e-04,-0.04,1.16
2.22528e-04,-0.06,1.16
2.22532e-04,-0.06,1.16
2.22536e-04,-0.08,1.14
2.22540e-04,-0.1,1.14
2.22544e-04,-0.1,1.16
2.22548e-04,-0.1,1.14
2.22552e-04,-0.12,1.14
2.22556e-04,-0.14,1.12
2.22560e-04,-0.14,1.14
2.22564e-04,-0.16,1.12
2.22568e-04,-0.16,1.1
2.22572e-04,-0.18,1.1
2.22576e-04,-0.18,1.12
2.22580e-04,-0.22,1.1
2.22584e-04,-0.22,1.1
2.22588e-04,-0.22,1.08
2.22592e-04,-0.24,1.08
2.22596e-04,-0.24,1.1
2.22600e-04,-0.26,1.08
2.22604e-04,-0.28,1.06
2.22608e-04,-0.28,1.06
2.22612e-04,-0.3,1.08
2.22616e-04,-0.3,1.06
2.22620e-04,-0.32,1.04
2.22624e-04,-0.34,1.04
2.22628e-04,-0.34,1.04
2.22632e-04,-0.34,1.04
2.22636e-04,-0.36,1.04
2.22640e-04,-0.38,1.02
2.22644e-04,-0.38,1.02
2.22648e-04,-0.4,1.02
2.22652e-04,-0.4,1.02
2.22656e-04,-0.42,1
2.22660e-04,-0.42,1
2.22664e-04,-0.44,0.98
2.22668e-04,-0.46,0.98
2.22672e-04,-0.46,0.98
2.22676e-04,-0.48,0.98
2.22680e-04,-0.48,0.98
2.22684e-04,-0.5,0.98
2.22688e-04,-0.5,0.96
2.22692e-04,-0.52,0.96
2.22696e-04,-0.52,0.94
2.22700e-04,-0.54,0.94
2.22704e-04,-0.54,0.94
2.22708e-04,-0.56,0.94
2.22712e-04,-0.58,0.92
2.22716e-04,-0.58,0.92
2.22720e-04,-0.58,0.92
2.22724e-04,-0.6,0.92
2.22728e-04,-0.62,0.9
2.22732e-04,-0.62,0.9
2.22736e-04,-0.64,0.9
2.22740e-04,-0.64,0.88
2.22744e-04,-0.66,0.88
2.22748e-04,-0.66,0.88
2.22752e-04,-0.68,0.88
2.22756e-04,-0.68,0.86
2.22760e-04,-0.7,0.86
2.22764e-04,-0.7,0.86
2.22768e-04,-0.72,0.84
2.22772e-04,-0.74,0.84
2.22776e-04,-0.74,0.84
2.22780e-04,-0.76,0.82
2.22784e-04,-0.76,0.84
2.22788e-04,-0.78,0.82
2.22792e-04,-0.78,0.8
2.22796e-04,-0.8,0.8
2.22800e-04,-0.8,0.8
2.22804e-04,-0.82,0.8
2.22808e-04,-0.84,0.78
2.22812e-04,-0.84,0.78
2.22816e-04,-0.84,0.78
2.22820e-04,-0.86,0.78
2.22824e-04,-0.86,0.76
2.22828e-04,-0.88,0.74
2.22832e-04,-0.88,0.74
2.22836e-04,-0.9,0.74
2.22840e-04,-0.9,0.74
2.22844e-04,-0.92,0.74
2.22848e-04,-0.94,0.72
2.22852e-04,-0.94,0.72
2.22856e-04,-0.96,0.7
2.22860e-04,-0.96,0.7
2.22864e-04,-0.98,0.7
2.22868e-04,-0.98,0.68
2.22872e-04,-1,0.7
2.22876e-04,-1,0.68
2.22880e-04,-1.02,0.66
2.22884e-04,-1.02,0.66
