lab2/exp5/data/day2/TEK00013.CSV

Model,TBS1102C
Firmware Version,v2015-08-04-prequal4ch70_v1.3

Point Format,Y,
Horizontal Units,S,
Horizontal Scale,1e-05,
Sample Interval,8e-08,
Filter Frequency,2e+08,
Record Length,2000,
Gating,0.0% to 100.0%,0.0% to 100.0%
Probe Attenuation,1,1
Vertical Units,V,V
Vertical Offset,0,0
Vertical Scale,0.5,0.5
Label,,
TIME,CH1,CH2
1.4400e-04,0.2,0.22
1.4408e-04,0.22,0.22
1.4416e-04,0.24,0.24
1.4424e-04,0.24,0.26
1.4432e-04,0.24,0.28
1.4440e-04,0.28,0.28
1.4448e-04,0.28,0.3
1.4456e-04,0.3,0.32
1.4464e-04,0.32,0.34
1.4472e-04,0.32,0.36
1.4480e-04,0.34,0.36
1.4488e-04,0.36,0.38
1.4496e-04,0.36,0.38
1.4504e-04,0.4,0.4
1.4512e-04,0.4,0.44
1.4520e-04,0.42,0.42
1.4528e-04,0.42,0.44
1.4536e-04,0.44,0.46
1.4544e-04,0.46,0.48
1.4552e-04,0.48,0.48
1.4560e-04,0.5,0.5
1.4568e-04,0.5,0.52
1.4576e-04,0.52,0.54
1.4584e-04,0.52,0.54
1.4592e-04,0.54,0.58
1.4600e-04,0.56,0.6
1.4608e-04,0.58,0.62
1.4616e-04,0.6,0.62
1.4624e-04,0.62,0.64
1.4632e-04,0.62,0.64
1.4640e-04,0.64,0.66
1.4648e-04,0.66,0.66
1.4656e-04,0.68,0.68
1.4664e-04,0.68,0.72
1.4672e-04,0.7,0.7
1.4680e-04,0.72,0.74
1.4688e-04,0.74,0.74
1.4696e-04,0.74,0.76
1.4704e-04,0.76,0.76
1.4712e-04,0.78,0.78
1.4720e-04,0.78,0.8
1.4728e-04,0.8,0.82
1.4736e-04,0.82,0.82
1.4744e-04,0.84,0.84
1.4752e-04,0.84,0.86
1.4760e-04,0.88,0.88
1.4768e-04,0.88,0.9
1.4776e-04,0.88,0.9
1.4784e-04,0.9,0.9
1.4792e-04,0.92,0.92
1.4800e-04,0.92,0.94
1.4808e-04,0.94,0.96
1.4816e-04,0.96,0.96
1.4824e-04,0.98,0.98
1.4832e-04,0.98,1
1.4840e-04,1,1
1.4848e-04,1.02,1.02
1.4856e-04,1.04,1.06
1.4864e-04,1.04,1.04
1.4872e-04,1.06,1.06
1.4880e-04,1.06,1.06
1.4888e-04,1.08,1.08
1.4896e-04,1.1,1.1
1.4904e-04,1.1,1.1
1.4912e-04,1.12,1.14
1.4920e-04,1.14,1.14
1.4928e-04,1.14,1.16
1.4936e-04,1.16,1.16
1.4944e-04,1.18,1.18
1.4952e-04,1.18,1.2
1.4960e-04,1.2,1.22
1.4968e-04,1.22,1.22
1.4976e-04,1.24,1.22
1.4984e-04,1.26,1.24
1.4992e-04,1.26,1.24
1.5000e-04,1.28,1.26
1.5008e-04,1.28,1.28
1.5016e-04,1.28,1.28
1.5024e-04,1.3,1.32
1.5032e-04,1.32,1.32
1.5040e-04,1.32,1.32
1.5048e-04,1.34,1.36
1.5056e-04,1.36,1.34
1.5064e-04,1.36,1.36
1.5072e-04,1.38,1.38
1.5080e-04,1.4,1.4
1.5088e-04,1.4,1.4
1.5096e-04,1.42,1.42
1.5104e-04,1.44,1.42
1.5112e-04,1.46,1.44
1.5120e-04,1.44,1.44
1.5128e-04,1.46,1.46
1.5136e-04,1.46,1.48
1.5144e-04,1.48,1.48
1.5152e-04,1.5,1.5
1.5160e-04,1.5,1.5
1.5168e-04,1.52,1.52
1.5176e-04,1.52,1.52
1.5184e-04,1.54,1.54
1.5192e-04,1.56,1.56
1.5200e-04,1.56,1.56
1.5208e-04,1.58,1.56
1.5216e-04,1.58,1.58
1.5224e-04,1.6,1.58
1.5232e-04,1.6,1.6
1.5240e-04,1.62,1.62
1.5248e-04,1.62,1.62
1.5256e-04,1.64,1.62
1.5264e-04,1.64,1.64
1.5272e-04,1.66,1.64
1.5280e-04,1.66,1.66
1.5288e-04,1.68,1.66
1.5296e-04,1.68,1.7
1.5304e-04,1.7,1.7
1.5312e-04,1.72,1.7
1.5320e-04,1.72,1.7
1.5328e-04,1.74,1.72
1.5336e-04,1.74,1.72
1.5344e-04,1.76,1.74
1.5352e-04,1.76,1.74
1.5360e-04,1.78,1.76
1.5368e-04,1.78,1.76
1.5376e-04,1.8,1.78
1.5384e-04,1.8,1.78
1.5392e-04,1.8,1.8
1.5400e-04,1.82,1.8
1.5408e-04,1.82,1.8
1.5416e-04,1.82,1.82
1.5424e-04,1.84,1.82
1.5432e-04,1.84,1.82
1.5440e-04,1.86,1.84
1.5448e-04,1.86,1.84
1.5456e-04,1.88,1.86
1.5464e-04,1.88,1.86
1.5472e-04,1.88,1.86
1.5480e-04,1.88,1.88
1.5488e-04,1.9,1.9
1.5496e-04,1.92,1.9
1.5504e-04,1.92,1.9
1.5512e-04,1.92,1.9
1.5520e-04,1.94,1.92
1.5528e-04,1.94,1.92
1.5536e-04,1.96,1.94
1.5544e-04,1.96,1.94
1.5552e-04,1.96,1.94
1.5560e-04,1.98,1.96
1.5568e-04,1.96,1.96
1.5576e-04,1.98,1.96
1.5584e-04,1.98,1.98
1.5592e-04,2,1.98
1.5600e-04,2,2
1.5608e-04,2,1.98
1.5616e-04,2.02,2
1.5624e-04,2.02,2
1.5632e-04,2.02,2.02
1.5640e-04,2.04,2.02
1.5648e-04,2.04,2.02
1.5656e-04,2.06,2.02
1.5664e-04,2.06,2.02
1.5672e-04,2.06,2.04
1.5680e-04,2.06,2.04
1.5688e-04,2.06,2.04
1.5696e-04,2.08,2.06
1.5704e-04,2.08,2.06
1.5712e-04,2.08,2.06
1.5720e-04,2.1,2.08
1.5728e-04,2.1,2.08
1.5736e-04,2.1,2.08
1.5744e-04,2.1,2.08
1.5752e-04,2.12,2.08
1.5760e-04,2.12,2.1
1.5768e-04,2.12,2.1
1.5776e-04,2.12,2.1
1.5784e-04,2.12,2.1
1.5792e-04,2.14,2.1
1.5800e-04,2.14,2.1
1.5808e-04,2.14,2.12
1.5816e-04,2.14,2.12
1.5824e-04,2.16,2.12
1.5832e-04,2.16,2.12
1.5840e-04,2.16,2.12
1.5848e-04,2.16,2.14
1.5856e-04,2.18,2.14
1.5864e-04,2.18,2.14
1.5872e-04,2.18,2.14
1.5880e-04,2.18,2.14
1.5888e-04,2.18,2.14
1.5896e-04,2.18,2.14
1.5904e-04,2.18,2.14
1.5912e-04,2.18,2.16
1.5920e-04,2.2,2.16
1.5928e-04,2.2,2.16
1.5936e-04,2.2,2.16
1.5944e-04,2.22,2.16
1.5952e-04,2.2,2.16
1.5960e-04,2.2,2.16
1.5968e-04,2.2,2.16
1.5976e-04,2.22,2.16
1.5984e-04,2.2,2.16
1.5992e-04,2.24,2.18
1.6000e-04,2.22,2.18
1.6008e-04,2.22,2.18
1.6016e-04,2.22,2.18
1.6024e-04,2.22,2.16
1.6032e-04,2.22,2.18
1.6040e-04,2.22,2.18
1.6048e-04,2.22,2.18
1.6056e-04,2.22,2.18
1.6064e-04,2.22,2.18
1.6072e-04,2.22,2.18
1.6080e-04,2.22,2.18
1.6088e-04,2.22,2.18
1.6096e-04,2.22,2.18
1.6104e-04,2.24,2.18
1.6112e-04,2.24,2.18
1.6120e-04,2.22,2.18
1.6128e-04,2.22,2.18
1.6136e-04,2.24,2.18
1.6144e-04,2.22,2.18
1.6152e-04,2.22,2.16
1.6160e-04,2.22,2.18
1.6168e-04,2.22,2.18
1.6176e-04,2.22,2.18
1.6184e-04,2.22,2.18
1.6192e-04,2.2,2.16
1.6200e-04,2.22,2.18
1.6208e-04,2.22,2.16
1.6216e-04,2.2,2.16
1.6224e-04,2.2,2.16
1.6232e-04,2.22,2.16
1.6240e-04,2.2,2.16
1.6248e-04,2.2,2.16
1.6256e-04,2.2,2.16
1.6264e-04,2.2,2.16
1.6272e-04,2.2,2.14
1.6280e-04,2.2,2.14
1.6288e-04,2.2,2.14
1.6296e-04,2.2,2.14
1.6304e-04,2.18,2.14
1.6312e-04,2.18,2.14
1.6320e-04,2.18,2.12
1.6328e-04,2.18,2.12
1.6336e-04,2.18,2.12
1.6344e-04,2.18,2.12
1.6352e-04,2.16,2.12
1.6360e-04,2.16,2.1
1.6368e-04,2.18,2.12
1.6376e-04,2.16,2.1
1.6384e-04,2.18,2.1
1.6392e-04,2.16,2.1
1.6400e-04,2.14,2.1
1.6408e-04,2.14,2.1
1.6416e-04,2.14,2.08
1.6424e-04,2.14,2.08
1.6432e-04,2.14,2.08
1.6440e-04,2.12,2.08
1.6448e-04,2.12,2.08
1.6456e-04,2.12,2.06
1.6464e-04,2.12,2.06
1.6472e-04,2.1,2.04
1.6480e-04,2.1,2.06
1.6488e-04,2.1,2.04
1.6496e-04,2.1,2.04
1.6504e-04,2.1,2.04
1.6512e-04,2.08,2.02
1.6520e-04,2.08,2.02
1.6528e-04,2.08,2.02
1.6536e-04,2.06,2.02
1.6544e-04,2.06,2
1.6552e-04,2.06,2
1.6560e-04,2.04,1.98
1.6568e-04,2.04,1.98
1.6576e-04,2.04,1.98
1.6584e-04,2.02,1.98
1.6592e-04,2.02,1.96
1.6600e-04,2.02,1.96
1.6608e-04,2,1.96
1.6616e-04,2,1.94
1.6624e-04,2,1.94
1.6632e-04,1.98,1.92
1.6640e-04,1.98,1.92
1.6648e-04,1.98,1.9
1.6656e-04,1.98,1.9
1.6664e-04,1.96,1.9
1.6672e-04,1.96,1.88
1.6680e-04,1.96,1.88
1.6688e-04,1.94,1.86
1.6696e-04,1.94,1.86
1.6704e-04,1.92,1.86
1.6712e-04,1.92,1.84
1.6720e-04,1.9,1.84
1.6728e-04,1.9,1.84
1.6736e-04,1.88,1.84
1.6744e-04,1.88,1.82
1.6752e-04,1.88,1.82
1.6760e-04,1.86,1.8
1.6768e-04,1.86,1.78
1.6776e-04,1.86,1.78
1.6784e-04,1.84,1.78
1.6792e-04,1.82,1.78
1.6800e-04,1.82,1.76
1.6808e-04,1.82,1.74
1.6816e-04,1.8,1.74
1.6824e-04,1.8,1.72
1.6832e-04,1.78,1.72
1.6840e-04,1.78,1.72
1.6848e-04,1.78,1.7
1.6856e-04,1.76,1.7
1.6864e-04,1.76,1.68
1.6872e-04,1.74,1.68
1.6880e-04,1.74,1.68
1.6888e-04,1.72,1.64
1.6896e-04,1.74,1.64
1.6904e-04,1.7,1.64
1.6912e-04,1.7,1.62
1.6920e-04,1.68,1.62
1.6928e-04,1.7,1.6
1.6936e-04,1.66,1.58
1.6944e-04,1.66,1.58
1.6952e-04,1.64,1.56
1.6960e-04,1.64,1.56
1.6968e-04,1.62,1.54
1.6976e-04,1.62,1.56
1.6984e-04,1.62,1.54
1.6992e-04,1.6,1.52
1.7000e-04,1.58,1.5
1.7008e-04,1.56,1.5
1.7016e-04,1.56,1.48
1.7024e-04,1.54,1.48
1.7032e-04,1.54,1.48
1.7040e-04,1.52,1.46
1.7048e-04,1.52,1.44
1.7056e-04,1.5,1.42
1.7064e-04,1.48,1.42
1.7072e-04,1.48,1.4
1.7080e-04,1.46,1.38
1.7088e-04,1.46,1.38
1.7096e-04,1.44,1.36
1.7104e-04,1.42,1.34
1.7112e-04,1.44,1.34
1.7120e-04,1.4,1.32
1.7128e-04,1.4,1.32
1.7136e-04,1.38,1.3
1.7144e-04,1.36,1.28
1.7152e-04,1.36,1.28
1.7160e-04,1.36,1.26
1.7168e-04,1.34,1.26
1.7176e-04,1.34,1.24
1.7184e-04,1.32,1.24
1.7192e-04,1.3,1.22
1.7200e-04,1.28,1.2
1.7208e-04,1.26,1.2
1.7216e-04,1.26,1.2
1.7224e-04,1.24,1.16
1.7232e-04,1.22,1.16
1.7240e-04,1.22,1.14
1.7248e-04,1.2,1.12
1.7256e-04,1.18,1.1
1.7264e-04,1.2,1.1
1.7272e-04,1.16,1.1
1.7280e-04,1.14,1.08
1.7288e-04,1.14,1.06
1.7296e-04,1.14,1.06
1.7304e-04,1.1,1.04
1.7312e-04,1.1,1.02
1.7320e-04,1.1,1
1.7328e-04,1.08,1
1.7336e-04,1.06,0.98
1.7344e-04,1.04,0.96
1.7352e-04,1.04,0.96
1.7360e-04,1.02,0.94
1.7368e-04,1,0.92
1.7376e-04,0.98,0.9
1.7384e-04,0.98,0.9
1.7392e-04,0.98,0.88
1.7400e-04,0.94,0.88
1.7408e-04,0.94,0.86
1.7416e-04,0.92,0.84
1.7424e-04,0.9,0.82
1.7432e-04,0.88,0.82
1.7440e-04,0.88,0.8
1.7448e-04,0.86,0.78
1.7456e-04,0.84,0.76
1.7464e-04,0.82,0.76
1.7472e-04,0.82,0.76
1.7480e-04,0.8,0.72
1.7488e-04,0.78,0.72
1.7496e-04,0.78,0.72
1.7504e-04,0.76,0.68
1.7512e-04,0.76,0.68
1.7520e-04,0.74,0.66
1.7528e-04,0.72,0.64
1.7536e-04,0.7,0.62
1.7544e-04,0.68,0.62
1.7552e-04,0.68,0.6
1.7560e-04,0.66,0.58
1.7568e-04,0.64,0.58
1.7576e-04,0.62,0.56
1.7584e-04,0.6,0.54
1.7592e-04,0.58,0.52
1.7600e-04,0.58,0.5
1.7608e-04,0.56,0.48
1.7616e-04,0.56,0.48
1.7624e-04,0.54,0.48
1.7632e-04,0.52,0.44
1.7640e-04,0.52,0.44
1.7648e-04,0.48,0.42
1.7656e-04,0.48,0.4
1.7664e-04,0.46,0.4
1.7672e-04,0.44,0.38
1.7680e-04,0.42,0.36
1.7688e-04,0.42,0.36
1.7696e-04,0.4,0.32
1.7704e-04,0.38,0.3
1.7712e-04,0.36,0.3
1.7720e-04,0.36,0.28
1.7728e-04,0.34,0.26
1.7736e-04,0.32,0.26
1.7744e-04,0.3,0.24
1.7752e-04,0.3,0.24
1.7760e-04,0.28,0.2
1.7768e-04,0.26,0.2
1.7776e-04,0.26,0.18
1.7784e-04,0.24,0.16
1.7792e-04,0.22,0.14
1.7800e-04,0.2,0.14
1.7808e-04,0.18,0.12
1.7816e-04,0.18,0.1
1.7824e-04,0.16,0.08
1.7832e-04,0.14,0.06
1.7840e-04,0.12,0.06
1.7848e-04,0.12,0.04
1.7856e-04,0.1,0.02
1.7864e-04,0.08,0
1.7872e-04,0.06,0
1.7880e-04,0.06,0
1.7888e-04,0.04,-0.02
1.7896e-04,0.02,-0.04
1.7904e-04,0.02,-0.06
1.7912e-04,-0.02,-0.08
1.7920e-04,-0.02,-0.1
1.7928e-04,-0.04,-0.1
1.7936e-04,-0.04,-0.12
1.7944e-04,-0.06,-0.12
1.7952e-04,-0.08,-0.14
1.7960e-04,-0.1,-0.16
1.7968e-04,-0.1,-0.2
1.7976e-04,-0.12,-0.2
1.7984e-04,-0.14,-0.2
1.7992e-04,-0.16,-0.22
1.8000e-04,-0.16,-0.24
1.8008e-04,-0.18,-0.26
1.8016e-04,-0.2,-0.26
1.8024e-04,-0.22,-0.28
1.8032e-04,-0.22,-0.3
1.8040e-04,-0.24,-0.32
1.8048e-04,-0.26,-0.32
1.8056e-04,-0.28,-0.34
1.8064e-04,-0.3,-0.36
1.8072e-04,-0.3,-0.36
1.8080e-04,-0.32,-0.38
1.8088e-04,-0.34,-0.4
1.8096e-04,-0.36,-0.42
1.8104e-04,-0.36,-0.42
1.8112e-04,-0.38,-0.44
1.8120e-04,-0.4,-0.46
1.8128e-04,-0.42,-0.48
1.8136e-04,-0.44,-0.5
1.8144e-04,-0.44,-0.5
1.8152e-04,-0.46,-0.52
1.8160e-04,-0.48,-0.54
1.8168e-04,-0.48,-0.54
1.8176e-04,-0.5,-0.58
1.8184e-04,-0.52,-0.58
1.8192e-04,-0.52,-0.6
1.8200e-04,-0.54,-0.6
1.8208e-04,-0.56,-0.62
1.8216e-04,-0.58,-0.64
1.8224e-04,-0.58,-0.66
1.8232e-04,-0.6,-0.68
1.8240e-04,-0.62,-0.68
1.8248e-04,-0.64,-0.7
1.8256e-04,-0.64,-0.7
1.8264e-04,-0.66,-0.72
1.8272e-04,-0.68,-0.74
1.8280e-04,-0.68,-0.74
1.8288e-04,-0.7,-0.76
1.8296e-04,-0.72,-0.78
1.8304e-04,-0.72,-0.78
1.8312e-04,-0.74,-0.8
1.8320e-04,-0.76,-0.82
1.8328e-04,-0.78,-0.82
1.8336e-04,-0.8,-0.84
1.8344e-04,-0.8,-0.86
1.8352e-04,-0.82,-0.88
1.8360e-04,-0.82,-0.88
1.8368e-04,-0.84,-0.9
1.8376e-04,-0.86,-0.92
1.8384e-04,-0.86,-0.94
1.8392e-04,-0.88,-0.94
1.8400e-04,-0.9,-0.96
1.8408e-04,-0.92,-0.98
1.8416e-04,-0.94,-0.98
1.8424e-04,-0.94,-1
1.8432e-04,-0.96,-1.02
1.8440e-04,-0.96,-1.04
1.8448e-04,-0.98,-1.06
1.8456e-04,-1,-1.06
1.8464e-04,-1,-1.06
1.8472e-04,-1.04,-1.08
1.8480e-04,-1.04,-1.1
1.8488e-04,-1.06,-1.1
1.8496e-04,-1.06,-1.12
1.8504e-04,-1.08,-1.14
1.8512e-04,-1.1,-1.16
1.8520e-04,-1.1,-1.16
1.8528e-04,-1.12,-1.18
1.8536e-04,-1.14,-1.2
1.8544e-04,-1.14,-1.2
1.8552e-04,-1.16,-1.22
1.8560e-04,-1.16,-1.22
1.8568e-04,-1.2,-1.24
1.8576e-04,-1.2,-1.26
1.8584e-04,-1.2,-1.26
1.8592e-04,-1.22,-1.28
1.8600e-04,-1.24,-1.28
1.8608e-04,-1.24,-1.3
1.8616e-04,-1.26,-1.32
1.8624e-04,-1.28,-1.32
1.8632e-04,-1.28,-1.34
1.8640e-04,-1.3,-1.36
1.8648e-04,-1.3,-1.36
1.8656e-04,-1.32,-1.38
1.8664e-04,-1.34,-1.38
1.8672e-04,-1.34,-1.4
1.8680e-04,-1.36,-1.4
1.8688e-04,-1.38,-1.44
1.8696e-04,-1.38,-1.42
1.8704e-04,-1.38,-1.46
1.8712e-04,-1.4,-1.46
1.8720e-04,-1.42,-1.48
1.8728e-04,-1.44,-1.48
1.8736e-04,-1.44,-1.48
1.8744e-04,-1.46,-1.5
1.8752e-04,-1.46,-1.5
1.8760e-04,-1.48,-1.52
1.8768e-04,-1.48,-1.52
1.8776e-04,-1.5,-1.54
1.8784e-04,-1.5,-1.56
1.8792e-04,-1.52,-1.58
1.8800e-04,-1.54,-1.58
1.8808e-04,-1.54,-1.58
1.8816e-04,-1.54,-1.6
1.8824e-04,-1.56,-1.62
1.8832e-04,-1.58,-1.62
1.8840e-04,-1.6,-1.62
1.8848e-04,-1.6,-1.64
1.8856e-04,-1.6,-1.64
1.8864e-04,-1.62,-1.66
1.8872e-04,-1.64,-1.66
1.8880e-04,-1.64,-1.66
1.8888e-04,-1.66,-1.68
1.8896e-04,-1.66,-1.68
1.8904e-04,-1.66,-1.7
1.8912e-04,-1.68,-1.7
1.8920e-04,-1.68,-1.72
1.8928e-04,-1.68,-1.74
1.8936e-04,-1.7,-1.74
1.8944e-04,-1.72,-1.74
1.8952e-04,-1.72,-1.76
1.8960e-04,-1.72,-1.76
1.8968e-04,-1.74,-1.78
1.8976e-04,-1.74,-1.78
1.8984e-04,-1.76,-1.78
1.8992e-04,-1.76,-1.8
1.9000e-04,-1.78,-1.8
1.9008e-04,-1.78,-1.82
1.9016e-04,-1.78,-1.82
1.9024e-04,-1.78,-1.82
1.9032e-04,-1.8,-1.84
1.9040e-04,-1.8,-1.84
1.9048e-04,-1.82,-1.86
1.9056e-04,-1.84,-1.86
1.9064e-04,-1.82,-1.86
1.9072e-04,-1.84,-1.88
1.9080e-04,-1.86,-1.88
1.9088e-04,-1.86,-1.9
1.9096e-04,-1.86,-1.9
1.9104e-04,-1.86,-1.9
1.9112e-04,-1.9,-1.9
1.9120e-04,-1.9,-1.9
1.9128e-04,-1.9,-1.9
1.9136e-04,-1.9,-1.92
1.9144e-04,-1.92,-1.92
1.9152e-04,-1.92,-1.94
1.9160e-04,-1.92,-1.94
1.9168e-04,-1.94,-1.94
1.9176e-04,-1.96,-1.94
1.9184e-04,-1.94,-1.96
1.9192e-04,-1.96,-1.98
1.9200e-04,-1.98,-1.98
1.9208e-04,-1.96,-1.98
1.9216e-04,-1.96,-1.98
1.9224e-04,-1.98,-2
1.9232e-04,-1.98,-2
1.9240e-04,-2,-2
1.9248e-04,-2,-2.02
1.9256e-04,-2,-2.02
1.9264e-04,-2.02,-2.02
1.9272e-04,-2,-2.02
1.9280e-04,-2.02,-2.02
1.9288e-04,-2.02,-2.04
1.9296e-04,-2.02,-2.04
1.9304e-04,-2.04,-2.06
1.9312e-04,-2.04,-2.04
1.9320e-04,-2.04,-2.06
1.9328e-04,-2.04,-2.06
1.9336e-04,-2.04,-2.06
1.9344e-04,-2.06,-2.06
1.9352e-04,-2.06,-2.08
1.9360e-04,-2.06,-2.08
1.9368e-04,-2.08,-2.08
1.9376e-04,-2.08,-2.08
1.9384e-04,-2.08,-2.1
1.9392e-04,-2.08,-2.08
1.9400e-04,-2.08,-2.1
1.9408e-04,-2.08,-2.1
1.9416e-04,-2.1,-2.1
1.9424e-04,-2.1,-2.1
1.9432e-04,-2.1,-2.12
1.9440e-04,-2.1,-2.1
1.9448e-04,-2.1,-2.12
1.9456e-04,-2.12,-2.12
1.9464e-04,-2.12,-2.12
1.9472e-04,-2.12,-2.12
1.9480e-04,-2.12,-2.12
1.9488e-04,-2.12,-2.12
1.9496e-04,-2.12,-2.14
1.9504e-04,-2.12,-2.14
1.9512e-04,-2.14,-2.14
1.9520e-04,-2.14,-2.12
1.9528e-04,-2.14,-2.14
1.9536e-04,-2.14,-2.14
1.9544e-04,-2.14,-2.14
1.9552e-04,-2.14,-2.14
1.9560e-04,-2.14,-2.14
1.9568e-04,-2.16,-2.14
1.9576e-04,-2.16,-2.14
1.9584e-04,-2.16,-2.16
1.9592e-04,-2.16,-2.14
1.9600e-04,-2.16,-2.14
1.9608e-04,-2.16,-2.14
1.9616e-04,-2.16,-2.16
1.9624e-04,-2.16,-2.16
1.9632e-04,-2.16,-2.14
1.9640e-04,-2.16,-2.16
1.9648e-04,-2.16,-2.16
1.9656e-04,-2.16,-2.16
1.9664e-04,-2.16,-2.16
1.9672e-04,-2.18,-2.16
1.9680e-04,-2.16,-2.16
1.9688e-04,-2.16,-2.16
1.9696e-04,-2.16,-2.16
1.9704e-04,-2.16,-2.14
1.9712e-04,-2.18,-2.16
1.9720e-04,-2.16,-2.16
1.9728e-04,-2.16,-2.16
1.9736e-04,-2.16,-2.14
1.9744e-04,-2.16,-2.14
1.9752e-04,-2.14,-2.14
1.9760e-04,-2.14,-2.14
1.9768e-04,-2.14,-2.16
1.9776e-04,-2.14,-2.14
1.9784e-04,-2.14,-2.14
1.9792e-04,-2.14,-2.14
1.9800e-04,-2.16,-2.12
1.9808e-04,-2.14,-2.14
1.9816e-04,-2.14,-2.12
1.9824e-04,-2.14,-2.14
1.9832e-04,-2.12,-2.12
1.9840e-04,-2.12,-2.12
1.9848e-04,-2.12,-2.12
1.9856e-04,-2.12,-2.12
1.9864e-04,-2.12,-2.12
1.9872e-04,-2.12,-2.12
1.9880e-04,-2.12,-2.12
1.9888e-04,-2.12,-2.1
1.9896e-04,-2.1,-2.1
1.9904e-04,-2.1,-2.1
1.9912e-04,-2.1,-2.08
1.9920e-04,-2.1,-2.08
1.9928e-04,-2.1,-2.08
1.9936e-04,-2.08,-2.08
1.9944e-04,-2.08,-2.08
1.9952e-04,-2.08,-2.06
1.9960e-04,-2.08,-2.06
1.9968e-04,-2.08,-2.06
1.9976e-04,-2.08,-2.06
1.9984e-04,-2.06,-2.06
1.9992e-04,-2.06,-2.04
2.0000e-04,-2.04,-2.04
2.0008e-04,-2.04,-2.04
2.0016e-04,-2.04,-2.02
2.0024e-04,-2.04,-2.04
2.0032e-04,-2.04,-2.02
2.0040e-04,-2.02,-2.02
2.0048e-04,-2.02,-2
2.0056e-04,-2.02,-2
2.0064e-04,-2.02,-2
2.0072e-04,-2.02,-2
2.0080e-04,-2,-2
2.0088e-04,-2,-1.98
2.0096e-04,-2,-1.98
2.0104e-04,-1.98,-1.96
2.0112e-04,-1.98,-1.96
2.0120e-04,-1.98,-1.96
2.0128e-04,-1.96,-1.96
2.0136e-04,-1.96,-1.94
2.0144e-04,-1.96,-1.96
2.0152e-04,-1.96,-1.92
2.0160e-04,-1.94,-1.92
2.0168e-04,-1.94,-1.92
2.0176e-04,-1.92,-1.9
2.0184e-04,-1.92,-1.9
2.0192e-04,-1.92,-1.9
2.0200e-04,-1.92,-1.88
2.0208e-04,-1.9,-1.88
2.0216e-04,-1.9,-1.88
2.0224e-04,-1.9,-1.86
2.0232e-04,-1.88,-1.86
2.0240e-04,-1.88,-1.86
2.0248e-04,-1.88,-1.86
2.0256e-04,-1.86,-1.84
2.0264e-04,-1.86,-1.82
2.0272e-04,-1.84,-1.82
2.0280e-04,-1.84,-1.82
2.0288e-04,-1.82,-1.8
2.0296e-04,-1.82,-1.8
2.0304e-04,-1.82,-1.8
2.0312e-04,-1.8,-1.78
2.0320e-04,-1.8,-1.78
2.0328e-04,-1.78,-1.76
2.0336e-04,-1.78,-1.76
2.0344e-04,-1.76,-1.76
2.0352e-04,-1.76,-1.74
2.0360e-04,-1.76,-1.74
2.0368e-04,-1.76,-1.74
2.0376e-04,-1.74,-1.72
2.0384e-04,-1.74,-1.7
2.0392e-04,-1.72,-1.7
2.0400e-04,-1.7,-1.68
2.0408e-04,-1.7,-1.68
2.0416e-04,-1.68,-1.68
2.0424e-04,-1.68,-1.66
2.0432e-04,-1.68,-1.66
2.0440e-04,-1.66,-1.64
2.0448e-04,-1.66,-1.64
2.0456e-04,-1.64,-1.62
2.0464e-04,-1.64,-1.62
2.0472e-04,-1.62,-1.6
2.0480e-04,-1.62,-1.6
2.0488e-04,-1.62,-1.58
2.0496e-04,-1.6,-1.58
2.0504e-04,-1.58,-1.56
2.0512e-04,-1.58,-1.56
2.0520e-04,-1.56,-1.54
2.0528e-04,-1.58,-1.54
2.0536e-04,-1.54,-1.52
2.0544e-04,-1.54,-1.5
2.0552e-04,-1.52,-1.5
2.0560e-04,-1.52,-1.48
2.0568e-04,-1.5,-1.48
2.0576e-04,-1.5,-1.46
2.0584e-04,-1.5,-1.46
2.0592e-04,-1.48,-1.44
2.0600e-04,-1.46,-1.44
2.0608e-04,-1.44,-1.44
2.0616e-04,-1.44,-1.42
2.0624e-04,-1.42,-1.4
2.0632e-04,-1.42,-1.38
2.0640e-04,-1.4,-1.38
2.0648e-04,-1.38,-1.36
2.0656e-04,-1.38,-1.36
2.0664e-04,-1.36,-1.34
2.0672e-04,-1.34,-1.34
2.0680e-04,-1.34,-1.32
2.0688e-04,-1.32,-1.3
2.0696e-04,-1.3,-1.3
2.0704e-04,-1.3,-1.28
2.0712e-04,-1.28,-1.28
2.0720e-04,-1.28,-1.26
2.0728e-04,-1.28,-1.24
2.0736e-04,-1.24,-1.24
2.0744e-04,-1.24,-1.22
2.0752e-04,-1.22,-1.2
2.0760e-04,-1.22,-1.2
2.0768e-04,-1.2,-1.18
2.0776e-04,-1.18,-1.16
2.0784e-04,-1.18,-1.14
2.0792e-04,-1.16,-1.14
2.0800e-04,-1.14,-1.14
2.0808e-04,-1.14,-1.12
2.0816e-04,-1.12,-1.1
2.0824e-04,-1.12,-1.1
2.0832e-04,-1.1,-1.08
2.0840e-04,-1.08,-1.06
2.0848e-04,-1.08,-1.04
2.0856e-04,-1.06,-1.04
2.0864e-04,-1.04,-1.02
2.0872e-04,-1.04,-1
2.0880e-04,-1.02,-1
2.0888e-04,-1,-0.98
2.0896e-04,-1,-0.96
2.0904e-04,-0.98,-0.96
2.0912e-04,-0.96,-0.94
2.0920e-04,-0.96,-0.92
2.0928e-04,-0.94,-0.92
2.0936e-04,-0.92,-0.92
2.0944e-04,-0.9,-0.88
2.0952e-04,-0.9,-0.86
2.0960e-04,-0.88,-0.86
2.0968e-04,-0.86,-0.84
2.0976e-04,-0.86,-0.84
2.0984e-04,-0.84,-0.82
2.0992e-04,-0.82,-0.8
2.1000e-04,-0.8,-0.78
2.1008e-04,-0.8,-0.78
2.1016e-04,-0.78,-0.76
2.1024e-04,-0.76,-0.74
2.1032e-04,-0.76,-0.74
2.1040e-04,-0.74,-0.72
2.1048e-04,-0.72,-0.7
2.1056e-04,-0.7,-0.68
2.1064e-04,-0.72,-0.68
2.1072e-04,-0.68,-0.66
2.1080e-04,-0.68,-0.66
2.1088e-04,-0.66,-0.64
2.1096e-04,-0.64,-0.62
2.1104e-04,-0.62,-0.6
2.1112e-04,-0.62,-0.58
2.1120e-04,-0.6,-0.58
2.1128e-04,-0.58,-0.56
2.1136e-04,-0.56,-0.54
2.1144e-04,-0.56,-0.52
2.1152e-04,-0.54,-0.5
2.1160e-04,-0.52,-0.52
2.1168e-04,-0.52,-0.48
2.1176e-04,-0.5,-0.46
2.1184e-04,-0.48,-0.46
2.1192e-04,-0.48,-0.44
2.1200e-04,-0.44,-0.42
2.1208e-04,-0.44,-0.4
2.1216e-04,-0.42,-0.4
2.1224e-04,-0.4,-0.4
2.1232e-04,-0.4,-0.36
2.1240e-04,-0.38,-0.36
2.1248e-04,-0.36,-0.34
2.1256e-04,-0.34,-0.32
2.1264e-04,-0.34,-0.32
2.1272e-04,-0.32,-0.3
2.1280e-04,-0.32,-0.28
2.1288e-04,-0.3,-0.26
2.1296e-04,-0.28,-0.24
2.1304e-04,-0.26,-0.24
2.1312e-04,-0.24,-0.22
2.1320e-04,-0.22,-0.2
2.1328e-04,-0.22,-0.2
2.1336e-04,-0.2,-0.18
2.1344e-04,-0.2,-0.16
2.1352e-04,-0.16,-0.16
2.1360e-04,-0.16,-0.14
2.1368e-04,-0.14,-0.14
2.1376e-04,-0.12,-0.1
2.1384e-04,-0.1,-0.08
2.1392e-04,-0.1,-0.08
2.1400e-04,-0.08,-0.06
2.1408e-04,-0.06,-0.04
2.1416e-04,-0.04,-0.02
2.1424e-04,-0.04,-0.02
2.1432e-04,-0.02,0
2.1440e-04,-0.02,0
2.1448e-04,0,0.02
2.1456e-04,0.02,0.02
2.1464e-04,0.02,0.04
2.1472e-04,0.04,0.06
2.1480e-04,0.06,0.08
2.1488e-04,0.08,0.1
2.1496e-04,0.1,0.1
2.1504e-04,0.12,0.12
2.1512e-04,0.12,0.14
2.1520e-04,0.14,0.16
2.1528e-04,0.16,0.18
2.1536e-04,0.18,0.2
2.1544e-04,0.18,0.2
2.1552e-04,0.2,0.22
2.1560e-04,0.22,0.24
2.1568e-04,0.24,0.26
2.1576e-04,0.24,0.28
2.1584e-04,0.26,0.28
2.1592e-04,0.28,0.3
2.1600e-04,0.3,0.3
2.1608e-04,0.3,0.32
2.1616e-04,0.32,0.36
2.1624e-04,0.34,0.36
2.1632e-04,0.34,0.38
2.1640e-04,0.36,0.38
2.1648e-04,0.38,0.42
2.1656e-04,0.4,0.42
2.1664e-04,0.4,0.42
2.1672e-04,0.42,0.44
2.1680e-04,0.44,0.46
2.1688e-04,0.46,0.46
2.1696e-04,0.48,0.48
2.1704e-04,0.48,0.5
2.1712e-04,0.5,0.52
