lab2/r1/data/F0004CH1.CSV

Record Length,2.500000e+03,,  -0.000025000000,  -2.00000,
Sample Interval,1.000000e-07,,  -0.000024900000,  -2.00000,
Trigger Point,2.500000000000e+02,,  -0.000024800000,  -2.00000,
,,,  -0.000024700000,  -2.02000,
,,,  -0.000024600000,  -2.04000,
,,,  -0.000024500000,  -2.00000,
Source,CH1,,  -0.000024400000,  -2.00000,
Vertical Units,V,,  -0.000024300000,  -2.00000,
Vertical Scale,5.000000e-01,,  -0.000024200000,  -2.02000,
Vertical Offset,0.000000e+00,,  -0.000024100000,  -2.00000,
Horizontal Units,s,,  -0.000024000000,  -2.02000,
Horizontal Scale,2.500000e-05,,  -0.000023900000,  -2.00000,
Pt Fmt,Y,,  -0.000023800000,  -2.02000,
Yzero,0.000000e+00,,  -0.000023700000,  -2.00000,
Probe Atten,1.000000e+00,,  -0.000023600000,  -2.02000,
Model Number,TDS2002C,,  -0.000023500000,  -2.00000,
Serial Number,C050621,,  -0.000023400000,  -2.02000,
Firmware Version,FV:v24.26,,  -0.000023300000,  -2.02000,
,,,-00.000023200000,  -2.00000,
,,,-00.000023100000,  -2.00000,
,,,-00.000023000000,  -2.02000,
,,,-00.000022900000,  -2.00000,
,,,-00.000022800000,  -2.02000,
,,,-00.000022700000,  -1.98000,
,,,-00.000022600000,  -1.96000,
,,,-00.000022500000,  -2.02000,
,,,-00.000022400000,  -1.98000,
,,,-00.000022300000,  -2.00000,
,,,-00.000022200000,  -2.02000,
,,,-00.000022100000,  -2.00000,
,,,-00.000022000000,  -2.00000,
,,,-00.000021900000,  -2.00000,
,,,-00.000021800000,  -2.00000,
,,,-00.000021700000,  -1.98000,
,,,-00.000021600000,  -2.00000,
,,,-00.000021500000,  -2.02000,
,,,-00.000021400000,  -2.02000,
,,,-00.000021300000,  -2.04000,
,,,-00.000021200000,  -2.00000,
,,,-00.000021100000,  -2.02000,
,,,-00.000021000000,  -2.00000,
,,,-00.000020900000,  -1.98000,
,,,-00.000020800000,  -2.02000,
,,,-00.000020700000,  -2.00000,
,,,-00.000020600000,  -2.00000,
,,,-00.000020500000,  -2.00000,
,,,-00.000020400000,  -2.00000,
,,,-00.000020300000,  -2.00000,
,,,-00.000020200000,  -2.00000,
,,,-00.000020100000,  -2.02000,
,,,-00.000020000000,  -2.00000,
,,,-00.000019900000,  -2.00000,
,,,-00.000019800000,  -2.04000,
,,,-00.000019700000,  -2.02000,
,,,-00.000019600000,  -2.02000,
,,,-00.000019500000,  -2.02000,
,,,-00.000019400000,  -2.00000,
,,,-00.000019300000,  -2.00000,
,,,-00.000019200000,  -1.98000,
,,,-00.000019100000,  -2.02000,
,,,-00.000019000000,  -2.00000,
,,,-00.000018900000,  -2.02000,
,,,-00.000018800000,  -2.02000,
,,,-00.000018700000,  -2.02000,
,,,-00.000018600000,  -2.00000,
,,,-00.000018500000,  -2.00000,
,,,-00.000018400000,  -2.02000,
,,,-00.000018300000,  -2.00000,
,,,-00.000018200000,  -2.02000,
,,,-00.000018100000,  -2.00000,
,,,-00.000018000000,  -2.02000,
,,,-00.000017900000,  -2.04000,
,,,-00.000017800000,  -2.00000,
,,,-00.000017700000,  -2.00000,
,,,-00.000017600000,  -2.00000,
,,,-00.000017500000,  -2.00000,
,,,-00.000017400000,  -2.00000,
,,,-00.000017300000,  -2.00000,
,,,-00.000017200000,  -2.02000,
,,,-00.000017100000,  -2.02000,
,,,-00.000017000000,  -2.02000,
,,,-00.000016900000,  -2.00000,
,,,-00.000016800000,  -2.02000,
,,,-00.000016700000,  -2.00000,
,,,-00.000016600000,  -2.00000,
,,,-00.000016500000,  -2.02000,
,,,-00.000016400000,  -2.04000,
,,,-00.000016300000,  -2.02000,
,,,-00.000016200000,  -2.04000,
,,,-00.000016100000,  -2.02000,
,,,-00.000016000000,  -2.00000,
,,,-00.000015900000,  -2.00000,
,,,-00.000015800000,  -2.02000,
,,,-00.000015700000,  -2.00000,
,,,-00.000015600000,  -2.04000,
,,,-00.000015500000,  -2.02000,
,,,-00.000015400000,  -2.02000,
,,,-00.000015300000,  -2.00000,
,,,-00.000015200000,  -2.00000,
,,,-00.000015100000,  -2.00000,
,,,-00.000015000000,  -2.00000,
,,,-00.000014900000,  -2.02000,
,,,-00.000014800000,  -1.98000,
,,,-00.000014700000,  -2.02000,
,,,-00.000014600000,  -2.04000,
,,,-00.000014500000,  -2.00000,
,,,-00.000014400000,  -1.98000,
,,,-00.000014300000,  -2.00000,
,,,-00.000014200000,  -2.00000,
,,,-00.000014100000,  -2.00000,
,,,-00.000014000000,  -2.02000,
,,,-00.000013900000,  -2.00000,
,,,-00.000013800000,  -2.00000,
,,,-00.000013700000,  -2.02000,
,,,-00.000013600000,  -2.02000,
,,,-00.000013500000,  -2.00000,
,,,-00.000013400000,  -2.02000,
,,,-00.000013300000,  -2.00000,
,,,-00.000013200000,  -2.00000,
,,,-00.000013100000,  -2.02000,
,,,-00.000013000000,  -2.04000,
,,,-00.000012900000,  -2.02000,
,,,-00.000012800000,  -2.00000,
,,,-00.000012700000,  -1.98000,
,,,-00.000012600000,  -1.98000,
,,,-00.000012500000,  -2.00000,
,,,-00.000012400000,  -1.98000,
,,,-00.000012300000,  -1.98000,
,,,-00.000012200000,  -2.00000,
,,,-00.000012100000,  -2.02000,
,,,-00.000012000000,  -2.00000,
,,,-00.000011900000,  -2.00000,
,,,-00.000011800000,  -2.00000,
,,,-00.000011700000,  -2.00000,
,,,-00.000011600000,  -2.00000,
,,,-00.000011500000,  -2.00000,
,,,-00.000011400000,  -2.02000,
,,,-00.000011300000,  -2.02000,
,,,-00.000011200000,  -2.04000,
,,,-00.000011100000,  -2.00000,
,,,-00.000011000000,  -1.98000,
,,,-00.000010900000,  -2.00000,
,,,-00.000010800000,  -1.98000,
,,,-00.000010700000,  -2.00000,
,,,-00.000010600000,  -2.04000,
,,,-00.000010500000,  -2.00000,
,,,-00.000010400000,  -2.00000,
,,,-00.000010300000,  -2.02000,
,,,-00.000010200000,  -1.98000,
,,,-00.000010100000,  -2.02000,
,,,-00.000010000000,  -2.00000,
,,,-00.000009900000,  -2.00000,
,,,-00.000009800000,  -2.02000,
,,,-00.000009700000,  -2.02000,
,,,-00.000009600000,  -2.04000,
,,,-00.000009500000,  -1.98000,
,,,-00.000009400000,  -2.00000,
,,,-00.000009300000,  -1.98000,
,,,-00.000009200000,  -2.00000,
,,,-00.000009100000,  -2.00000,
,,,-00.000009000000,  -1.98000,
,,,-00.000008900000,  -2.02000,
,,,-00.000008800000,  -2.00000,
,,,-00.000008700000,  -2.00000,
,,,-00.000008600000,  -2.02000,
,,,-00.000008500000,  -2.02000,
,,,-00.000008400000,  -2.04000,
,,,-00.000008300000,  -2.00000,
,,,-00.000008200000,  -2.00000,
,,,-00.000008100000,  -2.00000,
,,,-00.000008000000,  -2.02000,
,,,-00.000007900000,  -1.98000,
,,,-00.000007800000,  -1.98000,
,,,-00.000007700000,  -1.98000,
,,,-00.000007600000,  -2.00000,
,,,-00.000007500000,  -2.00000,
,,,-00.000007400000,  -1.98000,
,,,-00.000007300000,  -2.00000,
,,,-00.000007200000,  -2.02000,
,,,-00.000007100000,  -2.00000,
,,,-00.000007000000,  -2.00000,
,,,-00.000006900000,  -2.02000,
,,,-00.000006800000,  -2.00000,
,,,-00.000006700000,  -2.02000,
,,,-00.000006600000,  -2.02000,
,,,-00.000006500000,  -2.02000,
,,,-00.000006400000,  -2.00000,
,,,-00.000006300000,  -2.04000,
,,,-00.000006200000,  -2.00000,
,,,-00.000006100000,  -2.00000,
,,,-00.000006000000,  -1.98000,
,,,-00.000005900000,  -2.02000,
,,,-00.000005800000,  -2.00000,
,,,-00.000005700000,  -2.00000,
,,,-00.000005600000,  -2.00000,
,,,-00.000005500000,  -2.02000,
,,,-00.000005400000,  -2.00000,
,,,-00.000005300000,  -1.98000,
,,,-00.000005200000,  -2.00000,
,,,-00.000005100000,  -2.00000,
,,,-00.000005000000,  -2.02000,
,,,-00.000004900000,  -2.02000,
,,,-00.000004800000,  -2.02000,
,,,-00.000004700000,  -2.02000,
,,,-00.000004600000,  -2.00000,
,,,-00.000004500000,  -1.98000,
,,,-00.000004400000,  -2.00000,
,,,-00.000004300000,  -2.00000,
,,,-00.000004200000,  -2.00000,
,,,-00.000004100000,  -2.00000,
,,,-00.000004000000,  -2.00000,
,,,-00.000003900000,  -1.98000,
,,,-00.000003800000,  -2.02000,
,,,-00.000003700000,  -2.00000,
,,,-00.000003600000,  -2.04000,
,,,-00.000003500000,  -2.00000,
,,,-00.000003400000,  -2.00000,
,,,-00.000003300000,  -2.02000,
,,,-00.000003200000,  -2.02000,
,,,-00.000003100000,  -2.00000,
,,,-00.000003000000,  -2.02000,
,,,-00.000002900000,  -2.00000,
,,,-00.000002800000,  -1.98000,
,,,-00.000002700000,  -2.02000,
,,,-00.000002600000,  -1.98000,
,,,-00.000002500000,  -2.00000,
,,,-00.000002400000,  -2.00000,
,,,-00.000002300000,  -2.02000,
,,,-00.000002200000,  -2.04000,
,,,-00.000002100000,  -2.00000,
,,,-00.000002000000,  -2.02000,
,,,-00.000001900000,  -2.02000,
,,,-00.000001800000,  -1.98000,
,,,-00.000001700000,  -1.98000,
,,,-00.000001600000,  -2.02000,
,,,-00.000001500000,  -2.00000,
,,,-00.000001400000,  -2.02000,
,,,-00.000001300000,  -2.02000,
,,,-00.000001200000,  -2.00000,
,,,-00.000001100000,  -1.98000,
,,,-00.000001000000,  -2.00000,
,,,-00.000000900000,  -1.96000,
,,,-00.000000800000,  -2.00000,
,,,-00.000000700000,  -2.00000,
,,,-00.000000600000,  -2.00000,
,,,-00.000000500000,  -2.00000,
,,,-00.000000400000,  -2.00000,
,,,-00.000000300000,  -2.02000,
,,,-00.000000200000,  -2.00000,
,,,-00.000000100000,  -2.00000,
,,,-00.000000000000,  -2.00000,
,,,00.000000100000,  -2.00000,
,,,00.000000200000,  -2.00000,
,,,00.000000300000,  -2.00000,
,,,00.000000400000,  -2.00000,
,,,00.000000500000,  -2.00000,
,,,00.000000600000,  -1.96000,
,,,00.000000700000,   2.16000,
,,,00.000000800000,   2.54000,
,,,00.000000900000,   1.58000,
,,,00.000001000000,   2.22000,
,,,00.000001100000,   1.96000,
,,,00.000001200000,   1.98000,
,,,00.000001300000,   2.06000,
,,,00.000001400000,   1.90000,
,,,00.000001500000,   2.02000,
,,,00.000001600000,   2.02000,
,,,00.000001700000,   2.00000,
,,,00.000001800000,   2.00000,
,,,00.000001900000,   2.00000,
,,,00.000002000000,   2.00000,
,,,00.000002100000,   1.98000,
,,,00.000002200000,   2.00000,
,,,00.000002300000,   2.00000,
,,,00.000002400000,   1.98000,
,,,00.000002500000,   1.98000,
,,,00.000002600000,   1.96000,
,,,00.000002700000,   1.98000,
,,,00.000002800000,   1.98000,
,,,00.000002900000,   1.98000,
,,,00.000003000000,   1.96000,
,,,00.000003100000,   1.98000,
,,,00.000003200000,   1.98000,
,,,00.000003300000,   1.96000,
,,,00.000003400000,   1.98000,
,,,00.000003500000,   2.00000,
,,,00.000003600000,   1.96000,
,,,00.000003700000,   1.98000,
,,,00.000003800000,   1.96000,
,,,00.000003900000,   1.96000,
,,,00.000004000000,   1.96000,
,,,00.000004100000,   1.96000,
,,,00.000004200000,   1.98000,
,,,00.000004300000,   2.00000,
,,,00.000004400000,   1.96000,
,,,00.000004500000,   2.00000,
,,,00.000004600000,   1.96000,
,,,00.000004700000,   1.94000,
,,,00.000004800000,   1.98000,
,,,00.000004900000,   1.96000,
,,,00.000005000000,   1.98000,
,,,00.000005100000,   2.00000,
,,,00.000005200000,   2.00000,
,,,00.000005300000,   1.98000,
,,,00.000005400000,   1.98000,
,,,00.000005500000,   1.96000,
,,,00.000005600000,   1.98000,
,,,00.000005700000,   1.98000,
,,,00.000005800000,   1.98000,
,,,00.000005900000,   1.98000,
,,,00.000006000000,   2.00000,
,,,00.000006100000,   2.00000,
,,,00.000006200000,   1.98000,
,,,00.000006300000,   2.00000,
,,,00.000006400000,   1.98000,
,,,00.000006500000,   2.00000,
,,,00.000006600000,   1.98000,
,,,00.000006700000,   1.98000,
,,,00.000006800000,   1.98000,
,,,00.000006900000,   1.98000,
,,,00.000007000000,   1.98000,
,,,00.000007100000,   1.92000,
,,,00.000007200000,   1.94000,
,,,00.000007300000,   1.94000,
,,,00.000007400000,   1.96000,
,,,00.000007500000,   2.00000,
,,,00.000007600000,   1.96000,
,,,00.000007700000,   1.98000,
,,,00.000007800000,   1.98000,
,,,00.000007900000,   1.98000,
,,,00.000008000000,   1.98000,
,,,00.000008100000,   1.98000,
,,,00.000008200000,   1.96000,
,,,00.000008300000,   1.98000,
,,,00.000008400000,   2.00000,
,,,00.000008500000,   2.00000,
,,,00.000008600000,   1.96000,
,,,00.000008700000,   1.96000,
,,,00.000008800000,   1.96000,
,,,00.000008900000,   1.96000,
,,,00.000009000000,   1.96000,
,,,00.000009100000,   1.98000,
,,,00.000009200000,   1.96000,
,,,00.000009300000,   1.98000,
,,,00.000009400000,   2.00000,
,,,00.000009500000,   1.96000,
,,,00.000009600000,   1.98000,
,,,00.000009700000,   1.94000,
,,,00.000009800000,   1.98000,
,,,00.000009900000,   1.98000,
,,,00.000010000000,   1.98000,
,,,00.000010100000,   1.98000,
,,,00.000010200000,   2.02000,
,,,00.000010300000,   1.96000,
,,,00.000010400000,   1.96000,
,,,00.000010500000,   1.96000,
,,,00.000010600000,   1.96000,
,,,00.000010700000,   2.00000,
,,,00.000010800000,   1.98000,
,,,00.000010900000,   2.00000,
,,,00.000011000000,   1.98000,
,,,00.000011100000,   1.96000,
,,,00.000011200000,   1.98000,
,,,00.000011300000,   1.98000,
,,,00.000011400000,   1.96000,
,,,00.000011500000,   2.00000,
,,,00.000011600000,   2.00000,
,,,00.000011700000,   1.98000,
,,,00.000011800000,   1.98000,
,,,00.000011900000,   1.98000,
,,,00.000012000000,   1.98000,
,,,00.000012100000,   1.98000,
,,,00.000012200000,   1.94000,
,,,00.000012300000,   2.00000,
,,,00.000012400000,   1.98000,
,,,00.000012500000,   1.98000,
,,,00.000012600000,   2.00000,
,,,00.000012700000,   1.98000,
,,,00.000012800000,   1.96000,
,,,00.000012900000,   1.98000,
,,,00.000013000000,   1.98000,
,,,00.000013100000,   1.96000,
,,,00.000013200000,   1.96000,
,,,00.000013300000,   2.00000,
,,,00.000013400000,   2.00000,
,,,00.000013500000,   1.98000,
,,,00.000013600000,   2.00000,
,,,00.000013700000,   1.96000,
,,,00.000013800000,   1.94000,
,,,00.000013900000,   1.98000,
,,,00.000014000000,   1.98000,
,,,00.000014100000,   2.00000,
,,,00.000014200000,   2.00000,
,,,00.000014300000,   1.98000,
,,,00.000014400000,   2.00000,
,,,00.000014500000,   1.98000,
,,,00.000014600000,   1.98000,
,,,00.000014700000,   2.02000,
,,,00.000014800000,   1.98000,
,,,00.000014900000,   1.98000,
,,,00.000015000000,   2.00000,
,,,00.000015100000,   2.00000,
,,,00.000015200000,   1.98000,
,,,00.000015300000,   1.96000,
,,,00.000015400000,   1.94000,
,,,00.000015500000,   1.98000,
,,,00.000015600000,   2.00000,
,,,00.000015700000,   1.98000,
,,,00.000015800000,   1.98000,
,,,00.000015900000,   2.00000,
,,,00.000016000000,   1.98000,
,,,00.000016100000,   2.00000,
,,,00.000016200000,   1.98000,
,,,00.000016300000,   2.00000,
,,,00.000016400000,   1.96000,
,,,00.000016500000,   2.00000,
,,,00.000016600000,   2.00000,
,,,00.000016700000,   2.02000,
,,,00.000016800000,   1.96000,
,,,00.000016900000,   1.98000,
,,,00.000017000000,   1.96000,
,,,00.000017100000,   1.94000,
,,,00.000017200000,   2.00000,
,,,00.000017300000,   1.98000,
,,,00.000017400000,   2.00000,
,,,00.000017500000,   2.00000,
,,,00.000017600000,   1.98000,
,,,00.000017700000,   1.96000,
,,,00.000017800000,   2.00000,
,,,00.000017900000,   2.00000,
,,,00.000018000000,   1.98000,
,,,00.000018100000,   1.98000,
,,,00.000018200000,   1.98000,
,,,00.000018300000,   1.98000,
,,,00.000018400000,   2.02000,
,,,00.000018500000,   1.96000,
,,,00.000018600000,   1.98000,
,,,00.000018700000,   1.96000,
,,,00.000018800000,   1.96000,
,,,00.000018900000,   2.00000,
,,,00.000019000000,   1.98000,
,,,00.000019100000,   1.94000,
,,,00.000019200000,   2.00000,
,,,00.000019300000,   1.98000,
,,,00.000019400000,   2.00000,
,,,00.000019500000,   1.98000,
,,,00.000019600000,   2.00000,
,,,00.000019700000,   1.98000,
,,,00.000019800000,   1.96000,
,,,00.000019900000,   2.00000,
,,,00.000020000000,   1.98000,
,,,00.000020100000,   2.00000,
,,,00.000020200000,   2.00000,
,,,00.000020300000,   1.96000,
,,,00.000020400000,   1.98000,
,,,00.000020500000,   2.00000,
,,,00.000020600000,   1.98000,
,,,00.000020700000,   2.00000,
,,,00.000020800000,   2.00000,
,,,00.000020900000,   2.00000,
,,,00.000021000000,   1.96000,
,,,00.000021100000,   2.00000,
,,,00.000021200000,   1.94000,
,,,00.000021300000,   1.98000,
,,,00.000021400000,   2.00000,
,,,00.000021500000,   1.96000,
,,,00.000021600000,   2.00000,
,,,00.000021700000,   1.98000,
,,,00.000021800000,   2.00000,
,,,00.000021900000,   1.96000,
,,,00.000022000000,   1.98000,
,,,00.000022100000,   1.98000,
,,,00.000022200000,   1.96000,
,,,00.000022300000,   2.00000,
,,,00.000022400000,   1.98000,
,,,00.000022500000,   1.98000,
,,,00.000022600000,   2.02000,
,,,00.000022700000,   2.00000,
,,,00.000022800000,   1.96000,
,,,00.000022900000,   1.98000,
,,,00.000023000000,   1.96000,
,,,00.000023100000,   1.98000,
,,,00.000023200000,   2.00000,
,,,00.000023300000,   1.96000,
,,,00.000023400000,   1.98000,
,,,00.000023500000,   2.02000,
,,,00.000023600000,   1.96000,
,,,00.000023700000,   1.96000,
,,,00.000023800000,   1.98000,
,,,00.000023900000,   1.96000,
,,,00.000024000000,   1.98000,
,,,00.000024100000,   2.00000,
,,,00.000024200000,   1.98000,
,,,00.000024300000,   1.98000,
,,,00.000024400000,   1.98000,
,,,00.000024500000,   1.96000,
,,,00.000024600000,   1.98000,
,,,00.000024700000,   2.00000,
,,,00.000024800000,   1.98000,
,,,00.000024900000,   2.02000,
,,,00.000025000000,   2.00000,
,,,00.000025100000,   2.00000,
,,,00.000025200000,   1.98000,
,,,00.000025300000,   1.96000,
,,,00.000025400000,   1.98000,
,,,00.000025500000,   1.96000,
,,,00.000025600000,   1.96000,
,,,00.000025700000,   2.00000,
,,,00.000025800000,   1.96000,
,,,00.000025900000,   2.00000,
,,,00.000026000000,   1.98000,
,,,00.000026100000,   1.98000,
,,,00.000026200000,   2.00000,
,,,00.000026300000,   1.98000,
,,,00.000026400000,   2.02000,
,,,00.000026500000,   1.98000,
,,,00.000026600000,   1.98000,
,,,00.000026700000,   1.98000,
,,,00.000026800000,   1.98000,
,,,00.000026900000,   1.96000,
,,,00.000027000000,   1.96000,
,,,00.000027100000,   1.96000,
,,,00.000027200000,   2.00000,
,,,00.000027300000,   2.02000,
,,,00.000027400000,   2.00000,
,,,00.000027500000,   1.98000,
,,,00.000027600000,   1.98000,
,,,00.000027700000,   1.98000,
,,,00.000027800000,   1.98000,
,,,00.000027900000,   1.98000,
,,,00.000028000000,   1.96000,
,,,00.000028100000,   1.98000,
,,,00.000028200000,   1.98000,
,,,00.000028300000,   2.00000,
,,,00.000028400000,   1.98000,
,,,00.000028500000,   1.98000,
,,,00.000028600000,   1.96000,
,,,00.000028700000,   1.96000,
,,,00.000028800000,   1.98000,
,,,00.000028900000,   1.98000,
,,,00.000029000000,   2.00000,
,,,00.000029100000,   1.98000,
,,,00.000029200000,   2.02000,
,,,00.000029300000,   2.00000,
,,,00.000029400000,   1.98000,
,,,00.000029500000,   2.00000,
,,,00.000029600000,   1.98000,
,,,00.000029700000,   1.98000,
,,,00.000029800000,   2.00000,
,,,00.000029900000,   2.00000,
,,,00.000030000000,   2.00000,
,,,00.000030100000,   1.98000,
,,,00.000030200000,   1.98000,
,,,00.000030300000,   1.98000,
,,,00.000030400000,   1.98000,
,,,00.000030500000,   2.02000,
,,,00.000030600000,   2.00000,
,,,00.000030700000,   2.00000,
,,,00.000030800000,   2.00000,
,,,00.000030900000,   1.98000,
,,,00.000031000000,   1.98000,
,,,00.000031100000,   1.96000,
,,,00.000031200000,   1.98000,
,,,00.000031300000,   2.02000,
,,,00.000031400000,   1.98000,
,,,00.000031500000,   1.98000,
,,,00.000031600000,   2.00000,
,,,00.000031700000,   2.00000,
,,,00.000031800000,   1.98000,
,,,00.000031900000,   2.00000,
,,,00.000032000000,   1.96000,
,,,00.000032100000,   1.98000,
,,,00.000032200000,   1.98000,
,,,00.000032300000,   2.02000,
,,,00.000032400000,   2.00000,
,,,00.000032500000,   2.00000,
,,,00.000032600000,   1.98000,
,,,00.000032700000,   2.00000,
,,,00.000032800000,   1.98000,
,,,00.000032900000,   1.98000,
,,,00.000033000000,   1.98000,
,,,00.000033100000,   2.02000,
,,,00.000033200000,   2.00000,
,,,00.000033300000,   2.00000,
,,,00.000033400000,   2.00000,
,,,00.000033500000,   1.98000,
,,,00.000033600000,   1.96000,
,,,00.000033700000,   1.98000,
,,,00.000033800000,   1.98000,
,,,00.000033900000,   2.00000,
,,,00.000034000000,   2.00000,
,,,00.000034100000,   1.98000,
,,,00.000034200000,   2.00000,
,,,00.000034300000,   1.96000,
,,,00.000034400000,   1.96000,
,,,00.000034500000,   2.00000,
,,,00.000034600000,   1.98000,
,,,00.000034700000,   2.00000,
,,,00.000034800000,   1.98000,
,,,00.000034900000,   2.00000,
,,,00.000035000000,   2.02000,
,,,00.000035100000,   1.96000,
,,,00.000035200000,   1.98000,
,,,00.000035300000,   1.96000,
,,,00.000035400000,   1.96000,
,,,00.000035500000,   1.98000,
,,,00.000035600000,   2.00000,
,,,00.000035700000,   1.98000,
,,,00.000035800000,   2.00000,
,,,00.000035900000,   1.98000,
,,,00.000036000000,   1.96000,
,,,00.000036100000,   2.02000,
,,,00.000036200000,   2.00000,
,,,00.000036300000,   2.00000,
,,,00.000036400000,   2.02000,
,,,00.000036500000,   1.98000,
,,,00.000036600000,   2.00000,
,,,00.000036700000,   1.96000,
,,,00.000036800000,   1.98000,
,,,00.000036900000,   1.96000,
,,,00.000037000000,   1.98000,
,,,00.000037100000,   1.96000,
,,,00.000037200000,   2.00000,
,,,00.000037300000,   1.98000,
,,,00.000037400000,   1.98000,
,,,00.000037500000,   1.98000,
