lab2/exp5/data/TEK00033.CSV

Model,TBS1102C
Firmware Version,v2015-08-04-prequal4ch70_v1.3

Point Format,Y,
Horizontal Units,S,
Horizontal Scale,1e-05,
Sample Interval,8e-08,
Filter Frequency,2e+08,
Record Length,2000,
Gating,0.0% to 100.0%,0.0% to 100.0%
Probe Attenuation,1,1
Vertical Units,V,V
Vertical Offset,0,0
Vertical Scale,1,1
Label,,
TIME,CH1,CH2
-1.0880e-05,-2.28,-2.24
-1.0800e-05,-2.28,-2.24
-1.0720e-05,-2.24,-2.24
-1.0640e-05,-2.28,-2.24
-1.0560e-05,-2.24,-2.24
-1.0480e-05,-2.24,-2.28
-1.0400e-05,-2.24,-2.24
-1.0320e-05,-2.28,-2.24
-1.0240e-05,-2.24,-2.24
-1.0160e-05,-2.24,-2.24
-1.0080e-05,-2.28,-2.24
-1.0000e-05,-2.28,-2.28
-9.9200e-06,-2.24,-2.24
-9.8400e-06,-2.24,-2.24
-9.7600e-06,-2.24,-2.24
-9.6800e-06,-2.24,-2.28
-9.6000e-06,-2.24,-2.24
-9.5200e-06,-2.28,-2.24
-9.4400e-06,-2.24,-2.24
-9.3600e-06,-2.28,-2.24
-9.2800e-06,-2.24,-2.24
-9.2000e-06,-2.24,-2.24
-9.1200e-06,-2.24,-2.24
-9.0400e-06,-2.28,-2.28
-8.9600e-06,-2.28,-2.24
-8.8800e-06,-2.24,-2.24
-8.8000e-06,-2.24,-2.28
-8.7200e-06,-2.24,-2.24
-8.6400e-06,-2.24,-2.24
-8.5600e-06,-2.24,-2.24
-8.4800e-06,-2.24,-2.24
-8.4000e-06,-2.24,-2.24
-8.3200e-06,-2.24,-2.24
-8.2400e-06,-2.24,-2.24
-8.1600e-06,-2.24,-2.24
-8.0800e-06,-2.24,-2.24
-8.0000e-06,-2.24,-2.24
-7.9200e-06,-2.28,-2.24
-7.8400e-06,-2.28,-2.24
-7.7600e-06,-2.24,-2.24
-7.6800e-06,-2.24,-2.28
-7.6000e-06,-2.24,-2.28
-7.5200e-06,-2.24,-2.28
-7.4400e-06,-2.24,-2.24
-7.3600e-06,-2.24,-2.28
-7.2800e-06,-2.28,-2.24
-7.2000e-06,-2.24,-2.24
-7.1200e-06,-2.24,-2.28
-7.0400e-06,-2.28,-2.28
-6.9600e-06,-2.24,-2.24
-6.8800e-06,-2.24,-2.24
-6.8000e-06,-2.24,-2.24
-6.7200e-06,-2.28,-2.24
-6.6400e-06,-2.24,-2.24
-6.5600e-06,-2.24,-2.28
-6.4800e-06,-2.24,-2.24
-6.4000e-06,-2.28,-2.28
-6.3200e-06,-2.24,-2.24
-6.2400e-06,-2.28,-2.24
-6.1600e-06,-2.24,-2.28
-6.0800e-06,-2.24,-2.24
-6.0000e-06,-2.24,-2.24
-5.9200e-06,-2.28,-2.24
-5.8400e-06,-2.24,-2.24
-5.7600e-06,-2.28,-2.24
-5.6800e-06,-2.28,-2.24
-5.6000e-06,-2.24,-2.24
-5.5200e-06,-2.24,-2.24
-5.4400e-06,-2.24,-2.24
-5.3600e-06,-2.24,-2.24
-5.2800e-06,-2.28,-2.24
-5.2000e-06,-2.24,-2.24
-5.1200e-06,-2.24,-2.24
-5.0400e-06,-2.24,-2.24
-4.9600e-06,-2.28,-2.24
-4.8800e-06,-2.24,-2.24
-4.8000e-06,-2.24,-2.24
-4.7200e-06,-2.24,-2.24
-4.6400e-06,-2.24,-2.24
-4.5600e-06,-2.24,-2.24
-4.4800e-06,-2.24,-2.24
-4.4000e-06,-2.24,-2.24
-4.3200e-06,-2.24,-2.28
-4.2400e-06,-2.28,-2.24
-4.1600e-06,-2.24,-2.24
-4.0800e-06,-2.28,-2.24
-4.0000e-06,-2.24,-2.24
-3.9200e-06,-2.24,-2.24
-3.8400e-06,-2.24,-2.24
-3.7600e-06,-2.24,-2.24
-3.6800e-06,-2.24,-2.24
-3.6000e-06,-2.28,-2.28
-3.5200e-06,-2.24,-2.24
-3.4400e-06,-2.24,-2.24
-3.3600e-06,-2.24,-2.24
-3.2800e-06,-2.24,-2.24
-3.2000e-06,-2.28,-2.24
-3.1200e-06,-2.28,-2.28
-3.0400e-06,-2.24,-2.24
-2.9600e-06,-2.24,-2.24
-2.8800e-06,-2.28,-2.24
-2.8000e-06,-2.28,-2.28
-2.7200e-06,-2.28,-2.24
-2.6400e-06,-2.24,-2.24
-2.5600e-06,-2.24,-2.24
-2.4800e-06,-2.24,-2.24
-2.4000e-06,-2.24,-2.24
-2.3200e-06,-2.24,-2.28
-2.2400e-06,-2.24,-2.24
-2.1600e-06,-2.24,-2.24
-2.0800e-06,-2.24,-2.24
-2.0000e-06,-2.28,-2.24
-1.9200e-06,-2.24,-2.24
-1.8400e-06,-2.24,-2.24
-1.7600e-06,-2.24,-2.28
-1.6800e-06,-2.28,-2.24
-1.6000e-06,-2.24,-2.24
-1.5200e-06,-2.24,-2.24
-1.4400e-06,-2.24,-2.24
-1.3600e-06,-2.24,-2.24
-1.2800e-06,-2.24,-2.24
-1.2000e-06,-2.24,-2.24
-1.1200e-06,-2.28,-2.24
-1.0400e-06,-2.24,-2.24
-9.6000e-07,-2.28,-2.24
-8.8000e-07,-2.24,-2.24
-8.0000e-07,-2.24,-2.28
-7.2000e-07,-2.24,-2.24
-6.4000e-07,-2.24,-2.24
-5.6000e-07,-2.24,-2.24
-4.8000e-07,-2.24,-2.24
-4.0000e-07,-2.28,-2.24
-3.2000e-07,-2.24,-2.24
-2.4000e-07,-2.24,-2.24
-1.6000e-07,-2.24,-2.24
-8.0000e-08,-2.24,-2.24
-1.4744e-20,0.92,-3.52
8.0000e-08,2.4,-2.08
1.6000e-07,3.12,-1.36
2.4000e-07,2.56,-1.88
3.2000e-07,1.8,-2.64
4.0000e-07,1.76,-2.68
4.8000e-07,2.2,-2.24
5.6000e-07,2.4,-2
6.4000e-07,2.24,-2.16
7.2000e-07,2.08,-2.28
8.0000e-07,2,-2.32
8.8000e-07,2.04,-2.24
9.6000e-07,2.04,-2.24
1.0400e-06,2.04,-2.2
1.1200e-06,2.12,-2.16
1.2000e-06,2.12,-2.16
1.2800e-06,2,-2.24
1.3600e-06,1.88,-2.32
1.4400e-06,1.88,-2.24
1.5200e-06,2,-2.12
1.6000e-06,2,-2.04
1.6800e-06,1.92,-2.16
1.7600e-06,1.84,-2.24
1.8400e-06,1.8,-2.24
1.9200e-06,1.88,-2.16
2.0000e-06,1.92,-2.08
2.0800e-06,1.88,-2.12
2.1600e-06,1.76,-2.2
2.2400e-06,1.76,-2.2
2.3200e-06,1.76,-2.12
2.4000e-06,1.84,-2.04
2.4800e-06,1.8,-2.04
2.5600e-06,1.72,-2.12
2.6400e-06,1.68,-2.12
2.7200e-06,1.72,-2.12
2.8000e-06,1.72,-2.08
2.8800e-06,1.72,-2.04
2.9600e-06,1.68,-2.04
3.0400e-06,1.6,-2.04
3.1200e-06,1.6,-2.04
3.2000e-06,1.6,-2
3.2800e-06,1.64,-2
3.3600e-06,1.6,-1.96
3.4400e-06,1.56,-2
3.5200e-06,1.56,-1.96
3.6000e-06,1.52,-1.96
3.6800e-06,1.52,-1.92
3.7600e-06,1.52,-1.92
3.8400e-06,1.52,-1.92
3.9200e-06,1.48,-1.92
4.0000e-06,1.48,-1.88
4.0800e-06,1.48,-1.88
4.1600e-06,1.48,-1.88
4.2400e-06,1.44,-1.84
4.3200e-06,1.44,-1.84
4.4000e-06,1.4,-1.84
4.4800e-06,1.4,-1.84
4.5600e-06,1.4,-1.8
4.6400e-06,1.4,-1.8
4.7200e-06,1.36,-1.8
4.8000e-06,1.36,-1.76
4.8800e-06,1.36,-1.72
4.9600e-06,1.32,-1.72
5.0400e-06,1.32,-1.72
5.1200e-06,1.32,-1.68
5.2000e-06,1.28,-1.68
5.2800e-06,1.28,-1.64
5.3600e-06,1.24,-1.64
5.4400e-06,1.24,-1.64
5.5200e-06,1.24,-1.6
5.6000e-06,1.24,-1.6
5.6800e-06,1.24,-1.6
5.7600e-06,1.2,-1.56
5.8400e-06,1.2,-1.56
5.9200e-06,1.2,-1.52
6.0000e-06,1.2,-1.56
6.0800e-06,1.2,-1.52
6.1600e-06,1.16,-1.52
6.2400e-06,1.16,-1.48
6.3200e-06,1.16,-1.44
6.4000e-06,1.12,-1.44
6.4800e-06,1.12,-1.44
6.5600e-06,1.12,-1.4
6.6400e-06,1.12,-1.44
6.7200e-06,1.12,-1.36
6.8000e-06,1.12,-1.36
6.8800e-06,1.08,-1.32
6.9600e-06,1.08,-1.32
7.0400e-06,1.08,-1.28
7.1200e-06,1.04,-1.28
7.2000e-06,1.04,-1.24
7.2800e-06,1.04,-1.28
7.3600e-06,1,-1.2
7.4400e-06,1,-1.2
7.5200e-06,1,-1.2
7.6000e-06,1,-1.16
7.6800e-06,1,-1.12
7.7600e-06,1,-1.12
7.8400e-06,1,-1.08
7.9200e-06,1,-1.12
8.0000e-06,1,-1.08
8.0800e-06,0.96,-1.04
8.1600e-06,0.96,-1
8.2400e-06,0.96,-1.04
8.3200e-06,0.96,-0.96
8.4000e-06,0.96,-0.96
8.4800e-06,0.96,-0.92
8.5600e-06,0.92,-0.88
8.6400e-06,0.92,-0.88
8.7200e-06,0.92,-0.88
8.8000e-06,0.92,-0.84
8.8800e-06,0.92,-0.84
8.9600e-06,0.88,-0.8
9.0400e-06,0.88,-0.8
9.1200e-06,0.92,-0.76
9.2000e-06,0.88,-0.76
9.2800e-06,0.88,-0.72
9.3600e-06,0.84,-0.72
9.4400e-06,0.84,-0.68
9.5200e-06,0.84,-0.68
9.6000e-06,0.84,-0.64
9.6800e-06,0.88,-0.64
9.7600e-06,0.84,-0.6
9.8400e-06,0.84,-0.56
9.9200e-06,0.84,-0.56
1.0000e-05,0.84,-0.52
1.0080e-05,0.84,-0.52
1.0160e-05,0.84,-0.48
1.0240e-05,0.8,-0.48
1.0320e-05,0.8,-0.44
1.0400e-05,0.8,-0.44
1.0480e-05,0.8,-0.44
1.0560e-05,0.8,-0.4
1.0640e-05,0.84,-0.36
1.0720e-05,0.84,-0.32
1.0800e-05,0.8,-0.32
1.0880e-05,0.8,-0.28
1.0960e-05,0.8,-0.28
1.1040e-05,0.76,-0.24
1.1120e-05,0.8,-0.24
1.1200e-05,0.8,-0.2
1.1280e-05,0.8,-0.16
1.1360e-05,0.76,-0.12
1.1440e-05,0.76,-0.12
1.1520e-05,0.76,-0.08
1.1600e-05,0.76,-0.08
1.1680e-05,0.76,-0.04
1.1760e-05,0.76,-0.04
1.1840e-05,0.76,0
1.1920e-05,0.76,0
1.2000e-05,0.76,0.04
1.2080e-05,0.76,0.04
1.2160e-05,0.76,0.08
1.2240e-05,0.76,0.08
1.2320e-05,0.76,0.12
1.2400e-05,0.76,0.16
1.2480e-05,0.76,0.16
1.2560e-05,0.76,0.2
1.2640e-05,0.76,0.2
1.2720e-05,0.76,0.24
1.2800e-05,0.76,0.28
1.2880e-05,0.76,0.28
1.2960e-05,0.76,0.32
1.3040e-05,0.76,0.36
1.3120e-05,0.76,0.36
1.3200e-05,0.76,0.4
1.3280e-05,0.76,0.4
1.3360e-05,0.76,0.44
1.3440e-05,0.76,0.48
1.3520e-05,0.72,0.48
1.3600e-05,0.76,0.48
1.3680e-05,0.8,0.52
1.3760e-05,0.76,0.56
1.3840e-05,0.76,0.56
1.3920e-05,0.76,0.64
1.4000e-05,0.76,0.64
1.4080e-05,0.76,0.68
1.4160e-05,0.76,0.68
1.4240e-05,0.76,0.68
1.4320e-05,0.76,0.72
1.4400e-05,0.76,0.76
1.4480e-05,0.76,0.76
1.4560e-05,0.76,0.8
1.4640e-05,0.76,0.8
1.4720e-05,0.8,0.84
1.4800e-05,0.76,0.88
1.4880e-05,0.76,0.88
1.4960e-05,0.76,0.92
1.5040e-05,0.76,0.96
1.5120e-05,0.76,0.96
1.5200e-05,0.8,1
1.5280e-05,0.76,1
1.5360e-05,0.76,1.04
1.5440e-05,0.76,1.08
1.5520e-05,0.76,1.08
1.5600e-05,0.76,1.12
1.5680e-05,0.8,1.12
1.5760e-05,0.8,1.16
1.5840e-05,0.8,1.2
1.5920e-05,0.8,1.2
1.6000e-05,0.8,1.24
1.6080e-05,0.8,1.24
1.6160e-05,0.8,1.28
1.6240e-05,0.8,1.28
1.6320e-05,0.8,1.32
1.6400e-05,0.84,1.32
1.6480e-05,0.8,1.36
1.6560e-05,0.84,1.36
1.6640e-05,0.84,1.4
1.6720e-05,0.84,1.44
1.6800e-05,0.84,1.48
1.6880e-05,0.84,1.44
1.6960e-05,0.88,1.52
1.7040e-05,0.84,1.52
1.7120e-05,0.84,1.56
1.7200e-05,0.88,1.56
1.7280e-05,0.88,1.56
1.7360e-05,0.88,1.64
1.7440e-05,0.88,1.64
1.7520e-05,0.88,1.64
1.7600e-05,0.88,1.68
1.7680e-05,0.88,1.72
1.7760e-05,0.88,1.76
1.7840e-05,0.88,1.72
1.7920e-05,0.88,1.76
1.8000e-05,0.92,1.76
1.8080e-05,0.88,1.8
1.8160e-05,0.92,1.84
1.8240e-05,0.92,1.84
1.8320e-05,0.92,1.88
1.8400e-05,0.92,1.92
1.8480e-05,0.96,1.92
1.8560e-05,0.96,1.92
1.8640e-05,0.96,1.96
1.8720e-05,0.96,2
1.8800e-05,0.96,2
1.8880e-05,0.96,2.04
1.8960e-05,0.96,2.04
1.9040e-05,0.96,2.04
1.9120e-05,0.96,2.08
1.9200e-05,1,2.08
1.9280e-05,1,2.16
1.9360e-05,1,2.16
1.9440e-05,1,2.16
1.9520e-05,1,2.16
1.9600e-05,1.04,2.2
1.9680e-05,1,2.24
1.9760e-05,1,2.24
1.9840e-05,1.04,2.28
1.9920e-05,1,2.28
2.0000e-05,1.04,2.32
2.0080e-05,1.04,2.32
2.0160e-05,1.08,2.36
2.0240e-05,1.04,2.4
2.0320e-05,1.04,2.36
2.0400e-05,1.08,2.4
2.0480e-05,1.08,2.44
2.0560e-05,1.08,2.44
2.0640e-05,1.08,2.48
2.0720e-05,1.12,2.44
2.0800e-05,1.12,2.48
2.0880e-05,1.08,2.52
2.0960e-05,1.12,2.52
2.1040e-05,1.12,2.56
2.1120e-05,1.12,2.56
2.1200e-05,1.16,2.56
2.1280e-05,1.16,2.6
2.1360e-05,1.16,2.64
2.1440e-05,1.16,2.64
2.1520e-05,1.16,2.64
2.1600e-05,1.2,2.64
2.1680e-05,1.16,2.68
2.1760e-05,1.2,2.68
2.1840e-05,1.2,2.72
2.1920e-05,1.2,2.72
2.2000e-05,1.24,2.76
2.2080e-05,1.2,2.76
2.2160e-05,1.24,2.76
2.2240e-05,1.24,2.8
2.2320e-05,1.24,2.8
2.2400e-05,1.24,2.84
2.2480e-05,1.24,2.84
2.2560e-05,1.28,2.88
2.2640e-05,1.24,2.88
2.2720e-05,1.28,2.92
2.2800e-05,1.28,2.92
2.2880e-05,1.28,2.92
2.2960e-05,1.28,2.96
2.3040e-05,1.32,2.96
2.3120e-05,1.32,2.96
2.3200e-05,1.32,3
2.3280e-05,1.32,3
2.3360e-05,1.36,3.04
2.3440e-05,1.32,3.08
2.3520e-05,1.32,3.04
2.3600e-05,1.36,3.04
2.3680e-05,1.36,3.08
2.3760e-05,1.4,3.12
2.3840e-05,1.36,3.12
2.3920e-05,1.4,3.16
2.4000e-05,1.36,3.12
2.4080e-05,1.4,3.16
2.4160e-05,1.4,3.16
2.4240e-05,1.44,3.2
2.4320e-05,1.4,3.2
2.4400e-05,1.44,3.24
2.4480e-05,1.48,3.24
2.4560e-05,1.44,3.24
2.4640e-05,1.44,3.24
2.4720e-05,1.48,3.28
2.4800e-05,1.52,3.28
2.4880e-05,1.52,3.28
2.4960e-05,1.48,3.32
2.5040e-05,1.52,3.32
2.5120e-05,1.52,3.36
2.5200e-05,1.52,3.36
2.5280e-05,1.56,3.36
2.5360e-05,1.56,3.36
2.5440e-05,1.52,3.36
2.5520e-05,1.56,3.4
2.5600e-05,1.56,3.4
2.5680e-05,1.6,3.4
2.5760e-05,1.56,3.44
2.5840e-05,1.6,3.44
2.5920e-05,1.6,3.44
2.6000e-05,1.6,3.48
2.6080e-05,1.6,3.48
2.6160e-05,1.6,3.48
2.6240e-05,1.64,3.48
2.6320e-05,1.64,3.52
2.6400e-05,1.64,3.52
2.6480e-05,1.64,3.52
2.6560e-05,1.64,3.52
2.6640e-05,1.68,3.56
2.6720e-05,1.68,3.56
2.6800e-05,1.68,3.56
2.6880e-05,1.68,3.6
2.6960e-05,1.68,3.6
2.7040e-05,1.72,3.6
2.7120e-05,1.72,3.6
2.7200e-05,1.72,3.6
2.7280e-05,1.72,3.64
2.7360e-05,1.76,3.64
2.7440e-05,1.76,3.64
2.7520e-05,1.76,3.68
2.7600e-05,1.76,3.64
2.7680e-05,1.76,3.68
2.7760e-05,1.76,3.64
2.7840e-05,1.76,3.72
2.7920e-05,1.8,3.72
2.8000e-05,1.76,3.68
2.8080e-05,1.8,3.72
2.8160e-05,1.84,3.76
2.8240e-05,1.8,3.72
2.8320e-05,1.84,3.72
2.8400e-05,1.84,3.72
2.8480e-05,1.84,3.76
2.8560e-05,1.84,3.76
2.8640e-05,1.88,3.76
2.8720e-05,1.88,3.76
2.8800e-05,1.88,3.8
2.8880e-05,1.88,3.76
2.8960e-05,1.88,3.8
2.9040e-05,1.88,3.8
2.9120e-05,1.92,3.8
2.9200e-05,1.92,3.8
2.9280e-05,1.92,3.8
2.9360e-05,1.92,3.8
2.9440e-05,1.96,3.84
2.9520e-05,1.96,3.8
2.9600e-05,2,3.84
2.9680e-05,1.96,3.84
2.9760e-05,1.96,3.84
2.9840e-05,2,3.84
2.9920e-05,2,3.84
3.0000e-05,2,3.88
3.0080e-05,2,3.88
3.0160e-05,2,3.88
3.0240e-05,2.04,3.88
3.0320e-05,2,3.88
3.0400e-05,2.04,3.88
3.0480e-05,2.04,3.92
3.0560e-05,2.04,3.92
3.0640e-05,2.08,3.92
3.0720e-05,2.04,3.92
3.0800e-05,2.08,3.92
3.0880e-05,2.08,3.92
3.0960e-05,2.08,3.92
3.1040e-05,2.12,3.92
3.1120e-05,2.08,3.92
3.1200e-05,2.12,3.92
3.1280e-05,2.12,3.92
3.1360e-05,2.12,3.96
3.1440e-05,2.12,3.92
3.1520e-05,2.16,3.96
3.1600e-05,2.16,3.96
3.1680e-05,2.16,3.96
3.1760e-05,2.16,3.96
3.1840e-05,2.16,3.96
3.1920e-05,2.2,3.96
3.2000e-05,2.16,3.96
3.2080e-05,2.2,3.96
3.2160e-05,2.2,4
3.2240e-05,2.2,3.96
3.2320e-05,2.2,3.96
3.2400e-05,2.2,3.96
3.2480e-05,2.24,3.96
3.2560e-05,2.24,3.96
3.2640e-05,2.24,3.96
3.2720e-05,2.24,3.96
3.2800e-05,2.24,4
3.2880e-05,2.24,4
3.2960e-05,2.28,3.96
3.3040e-05,2.28,3.96
3.3120e-05,2.28,3.96
3.3200e-05,2.32,4
3.3280e-05,2.28,3.96
3.3360e-05,2.28,3.96
3.3440e-05,2.32,3.96
3.3520e-05,2.32,3.96
3.3600e-05,2.32,4
3.3680e-05,2.32,4
3.3760e-05,2.32,3.96
3.3840e-05,2.32,4
3.3920e-05,2.32,4
3.4000e-05,2.36,3.96
3.4080e-05,2.36,4
3.4160e-05,2.36,4
3.4240e-05,2.36,3.96
3.4320e-05,2.36,3.96
3.4400e-05,2.36,4
3.4480e-05,2.36,3.96
3.4560e-05,2.4,4
3.4640e-05,2.4,4
3.4720e-05,2.4,4
3.4800e-05,2.4,3.96
3.4880e-05,2.44,3.96
3.4960e-05,2.44,3.96
3.5040e-05,2.44,3.96
3.5120e-05,2.44,4
3.5200e-05,2.44,3.96
3.5280e-05,2.44,3.96
3.5360e-05,2.44,3.96
3.5440e-05,2.48,3.96
3.5520e-05,2.44,3.96
3.5600e-05,2.48,3.96
3.5680e-05,2.52,3.96
3.5760e-05,2.52,3.96
3.5840e-05,2.48,3.96
3.5920e-05,2.48,3.96
3.6000e-05,2.52,3.92
3.6080e-05,2.48,3.92
3.6160e-05,2.52,3.92
3.6240e-05,2.52,3.92
3.6320e-05,2.52,3.92
3.6400e-05,2.52,3.92
3.6480e-05,2.52,3.92
3.6560e-05,2.52,3.92
3.6640e-05,2.6,3.88
3.6720e-05,2.52,3.88
3.6800e-05,2.52,3.88
3.6880e-05,2.56,3.88
3.6960e-05,2.56,3.88
3.7040e-05,2.56,3.88
3.7120e-05,2.56,3.88
3.7200e-05,2.6,3.88
3.7280e-05,2.6,3.88
3.7360e-05,2.56,3.88
3.7440e-05,2.6,3.88
3.7520e-05,2.6,3.88
3.7600e-05,2.6,3.84
3.7680e-05,2.6,3.84
3.7760e-05,2.6,3.88
3.7840e-05,2.6,3.84
3.7920e-05,2.64,3.84
3.8000e-05,2.6,3.84
3.8080e-05,2.64,3.84
3.8160e-05,2.64,3.84
3.8240e-05,2.64,3.8
3.8320e-05,2.64,3.84
3.8400e-05,2.68,3.8
3.8480e-05,2.64,3.8
3.8560e-05,2.64,3.8
3.8640e-05,2.64,3.8
3.8720e-05,2.68,3.8
3.8800e-05,2.68,3.8
3.8880e-05,2.68,3.76
3.8960e-05,2.68,3.76
3.9040e-05,2.72,3.76
3.9120e-05,2.72,3.76
3.9200e-05,2.68,3.76
3.9280e-05,2.68,3.72
3.9360e-05,2.68,3.72
3.9440e-05,2.72,3.72
3.9520e-05,2.72,3.72
3.9600e-05,2.72,3.72
3.9680e-05,2.72,3.72
3.9760e-05,2.72,3.72
3.9840e-05,2.72,3.72
3.9920e-05,2.72,3.72
4.0000e-05,2.76,3.68
4.0080e-05,2.72,3.68
4.0160e-05,2.72,3.68
4.0240e-05,2.76,3.68
4.0320e-05,2.72,3.68
4.0400e-05,2.72,3.68
4.0480e-05,2.72,3.64
4.0560e-05,2.76,3.64
4.0640e-05,2.76,3.68
4.0720e-05,2.76,3.64
4.0800e-05,2.76,3.68
4.0880e-05,2.76,3.64
4.0960e-05,2.76,3.64
4.1040e-05,2.76,3.64
4.1120e-05,2.76,3.6
4.1200e-05,2.76,3.6
4.1280e-05,2.8,3.6
4.1360e-05,2.76,3.6
4.1440e-05,2.8,3.6
4.1520e-05,2.8,3.6
4.1600e-05,2.76,3.56
4.1680e-05,2.8,3.56
4.1760e-05,2.8,3.56
4.1840e-05,2.84,3.52
4.1920e-05,2.8,3.56
4.2000e-05,2.8,3.52
4.2080e-05,2.8,3.52
4.2160e-05,2.8,3.52
4.2240e-05,2.8,3.52
4.2320e-05,2.8,3.52
4.2400e-05,2.8,3.48
4.2480e-05,2.8,3.48
4.2560e-05,2.8,3.48
4.2640e-05,2.84,3.44
4.2720e-05,2.84,3.48
4.2800e-05,2.84,3.44
4.2880e-05,2.84,3.44
4.2960e-05,2.84,3.44
4.3040e-05,2.84,3.44
4.3120e-05,2.84,3.44
4.3200e-05,2.84,3.4
4.3280e-05,2.84,3.44
4.3360e-05,2.84,3.4
4.3440e-05,2.84,3.4
4.3520e-05,2.84,3.4
4.3600e-05,2.84,3.4
4.3680e-05,2.84,3.36
4.3760e-05,2.84,3.36
4.3840e-05,2.84,3.36
4.3920e-05,2.84,3.32
4.4000e-05,2.84,3.32
4.4080e-05,2.84,3.32
4.4160e-05,2.88,3.32
4.4240e-05,2.88,3.32
4.4320e-05,2.84,3.32
4.4400e-05,2.84,3.32
4.4480e-05,2.88,3.28
4.4560e-05,2.88,3.28
4.4640e-05,2.88,3.28
4.4720e-05,2.88,3.28
4.4800e-05,2.88,3.24
4.4880e-05,2.88,3.24
4.4960e-05,2.88,3.24
4.5040e-05,2.88,3.24
4.5120e-05,2.88,3.2
4.5200e-05,2.88,3.24
4.5280e-05,2.88,3.2
4.5360e-05,2.88,3.2
4.5440e-05,2.84,3.2
4.5520e-05,2.84,3.16
4.5600e-05,2.88,3.16
4.5680e-05,2.88,3.16
4.5760e-05,2.88,3.16
4.5840e-05,2.88,3.16
4.5920e-05,2.88,3.12
4.6000e-05,2.88,3.12
4.6080e-05,2.88,3.12
4.6160e-05,2.88,3.12
4.6240e-05,2.88,3.12
4.6320e-05,2.84,3.12
4.6400e-05,2.88,3.08
4.6480e-05,2.88,3.12
4.6560e-05,2.88,3.08
4.6640e-05,2.88,3.08
4.6720e-05,2.88,3.08
4.6800e-05,2.88,3.08
4.6880e-05,2.88,3.04
4.6960e-05,2.88,3
4.7040e-05,2.88,3.04
4.7120e-05,2.88,3
4.7200e-05,2.88,3
4.7280e-05,2.88,3
4.7360e-05,2.88,3
4.7440e-05,2.88,2.96
4.7520e-05,2.88,2.96
4.7600e-05,2.88,2.96
4.7680e-05,2.88,2.96
4.7760e-05,2.88,2.96
4.7840e-05,2.88,2.96
4.7920e-05,2.84,2.96
4.8000e-05,2.88,2.96
4.8080e-05,2.88,2.92
4.8160e-05,2.88,2.92
4.8240e-05,2.88,2.88
4.8320e-05,2.88,2.88
4.8400e-05,2.88,2.92
4.8480e-05,2.88,2.88
4.8560e-05,2.88,2.88
4.8640e-05,2.92,2.84
4.8720e-05,2.88,2.84
4.8800e-05,2.84,2.84
4.8880e-05,2.88,2.84
4.8960e-05,2.88,2.84
4.9040e-05,2.84,2.84
4.9120e-05,2.88,2.8
4.9200e-05,2.88,2.8
4.9280e-05,2.88,2.8
4.9360e-05,2.88,2.76
4.9440e-05,2.88,2.76
4.9520e-05,2.88,2.76
4.9600e-05,2.88,2.76
4.9680e-05,2.84,2.72
4.9760e-05,2.88,2.72
4.9840e-05,2.88,2.76
4.9920e-05,2.84,2.72
5.0000e-05,2.84,2.72
5.0080e-05,2.88,2.68
5.0160e-05,2.88,2.68
5.0240e-05,2.84,2.72
5.0320e-05,2.88,2.68
5.0400e-05,2.88,2.68
5.0480e-05,2.84,2.64
5.0560e-05,2.84,2.68
5.0640e-05,2.88,2.64
5.0720e-05,2.88,2.64
5.0800e-05,2.84,2.64
5.0880e-05,2.84,2.64
5.0960e-05,2.84,2.6
5.1040e-05,2.84,2.6
5.1120e-05,2.88,2.6
5.1200e-05,2.88,2.6
5.1280e-05,2.88,2.56
5.1360e-05,2.84,2.6
5.1440e-05,2.84,2.56
5.1520e-05,2.84,2.56
5.1600e-05,2.84,2.56
5.1680e-05,2.8,2.56
5.1760e-05,2.84,2.56
5.1840e-05,2.84,2.52
5.1920e-05,2.8,2.52
5.2000e-05,2.84,2.52
5.2080e-05,2.84,2.52
5.2160e-05,2.84,2.48
5.2240e-05,2.84,2.52
5.2320e-05,2.8,2.48
5.2400e-05,2.8,2.48
5.2480e-05,2.8,2.48
5.2560e-05,2.84,2.48
5.2640e-05,2.84,2.48
5.2720e-05,2.8,2.48
5.2800e-05,2.8,2.48
5.2880e-05,2.8,2.44
5.2960e-05,2.8,2.44
5.3040e-05,2.8,2.4
5.3120e-05,2.8,2.4
5.3200e-05,2.8,2.4
5.3280e-05,2.8,2.4
5.3360e-05,2.84,2.4
5.3440e-05,2.8,2.36
5.3520e-05,2.8,2.4
5.3600e-05,2.8,2.36
5.3680e-05,2.8,2.36
5.3760e-05,2.76,2.36
5.3840e-05,2.76,2.36
5.3920e-05,2.8,2.36
5.4000e-05,2.8,2.36
5.4080e-05,2.8,2.36
5.4160e-05,2.76,2.32
5.4240e-05,2.76,2.32
5.4320e-05,2.8,2.32
5.4400e-05,2.8,2.32
5.4480e-05,2.76,2.32
5.4560e-05,2.76,2.32
5.4640e-05,2.76,2.28
5.4720e-05,2.76,2.28
5.4800e-05,2.76,2.28
5.4880e-05,2.76,2.24
5.4960e-05,2.8,2.28
5.5040e-05,2.76,2.24
5.5120e-05,2.72,2.28
5.5200e-05,2.76,2.24
5.5280e-05,2.72,2.2
5.5360e-05,2.72,2.24
5.5440e-05,2.72,2.2
5.5520e-05,2.72,2.24
5.5600e-05,2.72,2.2
5.5680e-05,2.76,2.2
5.5760e-05,2.72,2.2
5.5840e-05,2.76,2.2
5.5920e-05,2.72,2.2
5.6000e-05,2.68,2.16
5.6080e-05,2.68,2.2
5.6160e-05,2.76,2.16
5.6240e-05,2.72,2.16
5.6320e-05,2.72,2.16
5.6400e-05,2.68,2.16
5.6480e-05,2.68,2.12
5.6560e-05,2.68,2.12
5.6640e-05,2.68,2.12
5.6720e-05,2.68,2.16
5.6800e-05,2.68,2.12
5.6880e-05,2.68,2.12
5.6960e-05,2.68,2.12
5.7040e-05,2.68,2.12
5.7120e-05,2.68,2.12
5.7200e-05,2.68,2.12
5.7280e-05,2.68,2.08
5.7360e-05,2.68,2.12
5.7440e-05,2.68,2.12
5.7520e-05,2.68,2.08
5.7600e-05,2.68,2.08
5.7680e-05,2.64,2.08
5.7760e-05,2.68,2.08
5.7840e-05,2.68,2.08
5.7920e-05,2.64,2.04
5.8000e-05,2.68,2.04
5.8080e-05,2.64,2.08
5.8160e-05,2.64,2.04
5.8240e-05,2.64,2.04
5.8320e-05,2.64,2.04
5.8400e-05,2.64,2.04
5.8480e-05,2.64,2.04
5.8560e-05,2.6,2
5.8640e-05,2.6,2
5.8720e-05,2.6,2
5.8800e-05,2.6,2
5.8880e-05,2.6,2.04
5.8960e-05,2.6,2
5.9040e-05,2.6,2
5.9120e-05,2.6,2
5.9200e-05,2.6,2
5.9280e-05,2.64,1.96
5.9360e-05,2.6,1.96
5.9440e-05,2.6,1.96
5.9520e-05,2.6,1.96
5.9600e-05,2.6,1.96
5.9680e-05,2.6,1.96
5.9760e-05,2.6,1.92
5.9840e-05,2.6,1.96
5.9920e-05,2.6,1.96
6.0000e-05,2.56,1.96
6.0080e-05,2.56,1.96
6.0160e-05,2.56,1.92
6.0240e-05,2.56,1.92
6.0320e-05,2.56,1.92
6.0400e-05,2.56,1.92
6.0480e-05,2.56,1.92
6.0560e-05,2.56,1.92
6.0640e-05,2.56,1.92
6.0720e-05,2.56,1.92
6.0800e-05,2.56,1.92
6.0880e-05,2.52,1.92
6.0960e-05,2.52,1.92
6.1040e-05,2.52,1.92
6.1120e-05,2.52,1.92
6.1200e-05,2.52,1.92
6.1280e-05,2.56,1.88
6.1360e-05,2.52,1.88
6.1440e-05,2.52,1.88
6.1520e-05,2.52,1.88
6.1600e-05,2.52,1.88
6.1680e-05,2.56,1.88
6.1760e-05,2.52,1.88
6.1840e-05,2.52,1.88
6.1920e-05,2.48,1.84
6.2000e-05,2.52,1.88
6.2080e-05,2.52,1.88
6.2160e-05,2.48,1.84
6.2240e-05,2.52,1.84
6.2320e-05,2.48,1.84
6.2400e-05,2.48,1.84
6.2480e-05,2.48,1.84
6.2560e-05,2.48,1.88
6.2640e-05,2.48,1.84
6.2720e-05,2.52,1.84
6.2800e-05,2.48,1.84
6.2880e-05,2.48,1.88
6.2960e-05,2.48,1.84
6.3040e-05,2.48,1.84
6.3120e-05,2.44,1.84
6.3200e-05,2.48,1.84
6.3280e-05,2.44,1.84
6.3360e-05,2.44,1.84
6.3440e-05,2.44,1.84
6.3520e-05,2.48,1.84
