lab2/exp5/data/TEK00003.CSV

Model,TBS1102C
Firmware Version,v2015-08-04-prequal4ch70_v1.3

Point Format,Y,
Horizontal Units,S,
Horizontal Scale,0.1,
Sample Interval,0.0008,
Filter Frequency,2e+08,
Record Length,2000,
Gating,0.0% to 100.0%,0.0% to 100.0%
Probe Attenuation,1,1
Vertical Units,V,V
Vertical Offset,0,0
Vertical Scale,0.5,0.5
Label,,
TIME,CH1,CH2
-8.000e-01,1.84,1.84
-7.992e-01,1.82,1.82
-7.984e-01,1.82,1.82
-7.976e-01,1.82,1.82
-7.968e-01,1.82,1.82
-7.960e-01,1.8,1.8
-7.952e-01,1.8,1.8
-7.944e-01,1.78,1.78
-7.936e-01,1.78,1.78
-7.928e-01,1.76,1.78
-7.920e-01,1.76,1.76
-7.912e-01,1.74,1.74
-7.904e-01,1.76,1.74
-7.896e-01,1.74,1.74
-7.888e-01,1.72,1.74
-7.880e-01,1.72,1.72
-7.872e-01,1.72,1.72
-7.864e-01,1.7,1.7
-7.856e-01,1.7,1.7
-7.848e-01,1.7,1.7
-7.840e-01,1.68,1.68
-7.832e-01,1.68,1.68
-7.824e-01,1.68,1.66
-7.816e-01,1.68,1.66
-7.808e-01,1.66,1.66
-7.800e-01,1.64,1.64
-7.792e-01,1.64,1.64
-7.784e-01,1.64,1.62
-7.776e-01,1.62,1.62
-7.768e-01,1.62,1.6
-7.760e-01,1.6,1.6
-7.752e-01,1.6,1.6
-7.744e-01,1.58,1.58
-7.736e-01,1.58,1.58
-7.728e-01,1.58,1.56
-7.720e-01,1.56,1.56
-7.712e-01,1.54,1.54
-7.704e-01,1.54,1.54
-7.696e-01,1.54,1.54
-7.688e-01,1.52,1.52
-7.680e-01,1.52,1.52
-7.672e-01,1.52,1.5
-7.664e-01,1.5,1.5
-7.656e-01,1.5,1.48
-7.648e-01,1.48,1.48
-7.640e-01,1.48,1.48
-7.632e-01,1.46,1.46
-7.624e-01,1.46,1.46
-7.616e-01,1.46,1.44
-7.608e-01,1.44,1.44
-7.600e-01,1.42,1.42
-7.592e-01,1.42,1.42
-7.584e-01,1.4,1.4
-7.576e-01,1.4,1.4
-7.568e-01,1.38,1.38
-7.560e-01,1.4,1.36
-7.552e-01,1.38,1.36
-7.544e-01,1.38,1.36
-7.536e-01,1.36,1.34
-7.528e-01,1.34,1.34
-7.520e-01,1.32,1.32
-7.512e-01,1.32,1.32
-7.504e-01,1.3,1.3
-7.496e-01,1.3,1.3
-7.488e-01,1.3,1.28
-7.480e-01,1.28,1.28
-7.472e-01,1.26,1.28
-7.464e-01,1.26,1.26
-7.456e-01,1.26,1.24
-7.448e-01,1.24,1.24
-7.440e-01,1.24,1.24
-7.432e-01,1.24,1.22
-7.424e-01,1.22,1.22
-7.416e-01,1.2,1.2
-7.408e-01,1.2,1.22
-7.400e-01,1.18,1.18
-7.392e-01,1.18,1.18
-7.384e-01,1.16,1.18
-7.376e-01,1.16,1.14
-7.368e-01,1.14,1.16
-7.360e-01,1.12,1.12
-7.352e-01,1.12,1.12
-7.344e-01,1.12,1.12
-7.336e-01,1.1,1.1
-7.328e-01,1.08,1.08
-7.320e-01,1.1,1.08
-7.312e-01,1.06,1.08
-7.304e-01,1.06,1.06
-7.296e-01,1.06,1.06
-7.288e-01,1.04,1.04
-7.280e-01,1.04,1.02
-7.272e-01,1.02,1.02
-7.264e-01,1,1
-7.256e-01,1,1
-7.248e-01,0.98,1
-7.240e-01,0.98,0.98
-7.232e-01,0.96,0.96
-7.224e-01,0.96,0.96
-7.216e-01,0.94,0.96
-7.208e-01,0.92,0.94
-7.200e-01,0.92,0.92
-7.192e-01,0.9,0.92
-7.184e-01,0.92,0.92
-7.176e-01,0.9,0.9
-7.168e-01,0.88,0.88
-7.160e-01,0.86,0.88
-7.152e-01,0.86,0.86
-7.144e-01,0.86,0.86
-7.136e-01,0.84,0.84
-7.128e-01,0.82,0.82
-7.120e-01,0.82,0.82
-7.112e-01,0.82,0.82
-7.104e-01,0.8,0.8
-7.096e-01,0.78,0.8
-7.088e-01,0.78,0.78
-7.080e-01,0.78,0.76
-7.072e-01,0.76,0.76
-7.064e-01,0.74,0.74
-7.056e-01,0.74,0.74
-7.048e-01,0.72,0.72
-7.040e-01,0.7,0.72
-7.032e-01,0.68,0.7
-7.024e-01,0.68,0.68
-7.016e-01,0.68,0.68
-7.008e-01,0.66,0.66
-7.000e-01,0.66,0.66
-6.992e-01,0.64,0.66
-6.984e-01,0.62,0.62
-6.976e-01,0.62,0.62
-6.968e-01,0.6,0.62
-6.960e-01,0.6,0.6
-6.952e-01,0.58,0.6
-6.944e-01,0.58,0.58
-6.936e-01,0.56,0.56
-6.928e-01,0.56,0.56
-6.920e-01,0.54,0.54
-6.912e-01,0.54,0.54
-6.904e-01,0.52,0.52
-6.896e-01,0.5,0.5
-6.888e-01,0.5,0.5
-6.880e-01,0.48,0.5
-6.872e-01,0.46,0.48
-6.864e-01,0.46,0.48
-6.856e-01,0.44,0.46
-6.848e-01,0.44,0.44
-6.840e-01,0.42,0.44
-6.832e-01,0.4,0.42
-6.824e-01,0.4,0.42
-6.816e-01,0.38,0.4
-6.808e-01,0.38,0.38
-6.800e-01,0.36,0.38
-6.792e-01,0.36,0.36
-6.784e-01,0.34,0.36
-6.776e-01,0.32,0.34
-6.768e-01,0.32,0.34
-6.760e-01,0.32,0.32
-6.752e-01,0.3,0.32
-6.744e-01,0.28,0.3
-6.736e-01,0.28,0.28
-6.728e-01,0.26,0.28
-6.720e-01,0.26,0.26
-6.712e-01,0.24,0.26
-6.704e-01,0.22,0.24
-6.696e-01,0.22,0.22
-6.688e-01,0.2,0.2
-6.680e-01,0.2,0.2
-6.672e-01,0.18,0.18
-6.664e-01,0.18,0.18
-6.656e-01,0.16,0.16
-6.648e-01,0.16,0.16
-6.640e-01,0.14,0.14
-6.632e-01,0.12,0.12
-6.624e-01,0.12,0.12
-6.616e-01,0.1,0.1
-6.608e-01,0.1,0.1
-6.600e-01,0.08,0.08
-6.592e-01,0.08,0.06
-6.584e-01,0.06,0.06
-6.576e-01,0.04,0.04
-6.568e-01,0.04,0.04
-6.560e-01,0.02,0.02
-6.552e-01,0,0
-6.544e-01,0,0
-6.536e-01,0,0
-6.528e-01,-0.02,0
-6.520e-01,-0.04,-0.02
-6.512e-01,-0.04,-0.04
-6.504e-01,-0.04,-0.04
-6.496e-01,-0.06,-0.06
-6.488e-01,-0.06,-0.08
-6.480e-01,-0.08,-0.08
-6.472e-01,-0.08,-0.08
-6.464e-01,-0.1,-0.1
-6.456e-01,-0.1,-0.12
-6.448e-01,-0.12,-0.14
-6.440e-01,-0.14,-0.14
-6.432e-01,-0.14,-0.14
-6.424e-01,-0.16,-0.16
-6.416e-01,-0.16,-0.18
-6.408e-01,-0.18,-0.18
-6.400e-01,-0.18,-0.2
-6.392e-01,-0.2,-0.2
-6.384e-01,-0.22,-0.2
-6.376e-01,-0.22,-0.22
-6.368e-01,-0.24,-0.24
-6.360e-01,-0.24,-0.26
-6.352e-01,-0.26,-0.26
-6.344e-01,-0.28,-0.26
-6.336e-01,-0.3,-0.28
-6.328e-01,-0.3,-0.3
-6.320e-01,-0.3,-0.3
-6.312e-01,-0.32,-0.32
-6.304e-01,-0.32,-0.34
-6.296e-01,-0.34,-0.34
-6.288e-01,-0.34,-0.36
-6.280e-01,-0.36,-0.36
-6.272e-01,-0.36,-0.36
-6.264e-01,-0.38,-0.38
-6.256e-01,-0.4,-0.4
-6.248e-01,-0.4,-0.4
-6.240e-01,-0.42,-0.42
-6.232e-01,-0.42,-0.42
-6.224e-01,-0.44,-0.46
-6.216e-01,-0.44,-0.44
-6.208e-01,-0.46,-0.46
-6.200e-01,-0.48,-0.48
-6.192e-01,-0.5,-0.48
-6.184e-01,-0.5,-0.5
-6.176e-01,-0.5,-0.5
-6.168e-01,-0.52,-0.52
-6.160e-01,-0.54,-0.52
-6.152e-01,-0.56,-0.52
-6.144e-01,-0.54,-0.54
-6.136e-01,-0.56,-0.56
-6.128e-01,-0.58,-0.56
-6.120e-01,-0.58,-0.58
-6.112e-01,-0.6,-0.6
-6.104e-01,-0.62,-0.6
-6.096e-01,-0.62,-0.62
-6.088e-01,-0.64,-0.62
-6.080e-01,-0.64,-0.66
-6.072e-01,-0.66,-0.66
-6.064e-01,-0.66,-0.66
-6.056e-01,-0.66,-0.68
-6.048e-01,-0.68,-0.68
-6.040e-01,-0.68,-0.68
-6.032e-01,-0.7,-0.7
-6.024e-01,-0.7,-0.7
-6.016e-01,-0.72,-0.72
-6.008e-01,-0.74,-0.74
-6.000e-01,-0.74,-0.74
-5.992e-01,-0.76,-0.76
-5.984e-01,-0.76,-0.76
-5.976e-01,-0.78,-0.78
-5.968e-01,-0.78,-0.78
-5.960e-01,-0.8,-0.78
-5.952e-01,-0.8,-0.82
-5.944e-01,-0.82,-0.82
-5.936e-01,-0.84,-0.82
-5.928e-01,-0.84,-0.84
-5.920e-01,-0.86,-0.84
-5.912e-01,-0.86,-0.86
-5.904e-01,-0.86,-0.88
-5.896e-01,-0.88,-0.9
-5.888e-01,-0.9,-0.9
-5.880e-01,-0.9,-0.9
-5.872e-01,-0.92,-0.92
-5.864e-01,-0.92,-0.92
-5.856e-01,-0.94,-0.94
-5.848e-01,-0.94,-0.94
-5.840e-01,-0.96,-0.96
-5.832e-01,-0.96,-0.96
-5.824e-01,-1,-0.98
-5.816e-01,-1,-1
-5.808e-01,-1,-1
-5.800e-01,-1,-1
-5.792e-01,-1.02,-1.02
-5.784e-01,-1.02,-1.02
-5.776e-01,-1.04,-1.06
-5.768e-01,-1.06,-1.04
-5.760e-01,-1.06,-1.08
-5.752e-01,-1.08,-1.06
-5.744e-01,-1.08,-1.1
-5.736e-01,-1.1,-1.08
-5.728e-01,-1.1,-1.1
-5.720e-01,-1.12,-1.1
-5.712e-01,-1.12,-1.12
-5.704e-01,-1.14,-1.12
-5.696e-01,-1.14,-1.14
-5.688e-01,-1.16,-1.16
-5.680e-01,-1.16,-1.16
-5.672e-01,-1.18,-1.16
-5.664e-01,-1.2,-1.18
-5.656e-01,-1.18,-1.18
-5.648e-01,-1.2,-1.18
-5.640e-01,-1.22,-1.22
-5.632e-01,-1.22,-1.22
-5.624e-01,-1.22,-1.24
-5.616e-01,-1.24,-1.24
-5.608e-01,-1.24,-1.26
-5.600e-01,-1.26,-1.26
-5.592e-01,-1.26,-1.28
-5.584e-01,-1.28,-1.28
-5.576e-01,-1.28,-1.28
-5.568e-01,-1.3,-1.28
-5.560e-01,-1.3,-1.3
-5.552e-01,-1.32,-1.3
-5.544e-01,-1.32,-1.32
-5.536e-01,-1.34,-1.32
-5.528e-01,-1.36,-1.34
-5.520e-01,-1.36,-1.34
-5.512e-01,-1.36,-1.36
-5.504e-01,-1.38,-1.36
-5.496e-01,-1.38,-1.38
-5.488e-01,-1.4,-1.38
-5.480e-01,-1.4,-1.4
-5.472e-01,-1.4,-1.4
-5.464e-01,-1.42,-1.4
-5.456e-01,-1.42,-1.42
-5.448e-01,-1.44,-1.44
-5.440e-01,-1.46,-1.44
-5.432e-01,-1.46,-1.44
-5.424e-01,-1.46,-1.44
-5.416e-01,-1.48,-1.48
-5.408e-01,-1.48,-1.48
-5.400e-01,-1.5,-1.48
-5.392e-01,-1.5,-1.48
-5.384e-01,-1.52,-1.5
-5.376e-01,-1.52,-1.5
-5.368e-01,-1.54,-1.52
-5.360e-01,-1.54,-1.52
-5.352e-01,-1.54,-1.54
-5.344e-01,-1.56,-1.54
-5.336e-01,-1.58,-1.54
-5.328e-01,-1.56,-1.56
-5.320e-01,-1.58,-1.56
-5.312e-01,-1.6,-1.58
-5.304e-01,-1.6,-1.58
-5.296e-01,-1.62,-1.6
-5.288e-01,-1.62,-1.6
-5.280e-01,-1.62,-1.62
-5.272e-01,-1.64,-1.62
-5.264e-01,-1.64,-1.62
-5.256e-01,-1.64,-1.64
-5.248e-01,-1.66,-1.64
-5.240e-01,-1.66,-1.66
-5.232e-01,-1.68,-1.66
-5.224e-01,-1.68,-1.66
-5.216e-01,-1.68,-1.66
-5.208e-01,-1.68,-1.68
-5.200e-01,-1.7,-1.68
-5.192e-01,-1.7,-1.68
-5.184e-01,-1.72,-1.7
-5.176e-01,-1.72,-1.7
-5.168e-01,-1.72,-1.7
-5.160e-01,-1.72,-1.72
-5.152e-01,-1.74,-1.72
-5.144e-01,-1.74,-1.74
-5.136e-01,-1.76,-1.74
-5.128e-01,-1.78,-1.76
-5.120e-01,-1.76,-1.76
-5.112e-01,-1.78,-1.76
-5.104e-01,-1.78,-1.78
-5.096e-01,-1.78,-1.78
-5.088e-01,-1.8,-1.78
-5.080e-01,-1.8,-1.8
-5.072e-01,-1.8,-1.8
-5.064e-01,-1.8,-1.8
-5.056e-01,-1.84,-1.82
-5.048e-01,-1.82,-1.82
-5.040e-01,-1.84,-1.82
-5.032e-01,-1.84,-1.82
-5.024e-01,-1.86,-1.84
-5.016e-01,-1.86,-1.84
-5.008e-01,-1.86,-1.84
-5.000e-01,-1.86,-1.86
-4.992e-01,-1.86,-1.86
-4.984e-01,-1.88,-1.88
-4.976e-01,-1.88,-1.88
-4.968e-01,-1.9,-1.88
-4.960e-01,-1.9,-1.88
-4.952e-01,-1.9,-1.9
-4.944e-01,-1.9,-1.9
-4.936e-01,-1.92,-1.9
-4.928e-01,-1.92,-1.9
-4.920e-01,-1.94,-1.92
-4.912e-01,-1.94,-1.92
-4.904e-01,-1.94,-1.92
-4.896e-01,-1.96,-1.92
-4.888e-01,-1.96,-1.94
-4.880e-01,-1.98,-1.94
-4.872e-01,-1.96,-1.94
-4.864e-01,-1.98,-1.96
-4.856e-01,-1.98,-1.96
-4.848e-01,-1.98,-1.96
-4.840e-01,-2,-1.98
-4.832e-01,-2.02,-1.98
-4.824e-01,-2,-1.98
-4.816e-01,-2.02,-2
-4.808e-01,-2.02,-2
-4.800e-01,-2.02,-2
-4.792e-01,-2.02,-2
-4.784e-01,-2.02,-2
-4.776e-01,-2.02,-2.02
-4.768e-01,-2.04,-2.02
-4.760e-01,-2.04,-2.02
-4.752e-01,-2.04,-2.04
-4.744e-01,-2.06,-2.04
-4.736e-01,-2.06,-2.04
-4.728e-01,-2.06,-2.06
-4.720e-01,-2.06,-2.04
-4.712e-01,-2.08,-2.06
-4.704e-01,-2.1,-2.06
-4.696e-01,-2.08,-2.06
-4.688e-01,-2.08,-2.08
-4.680e-01,-2.08,-2.08
-4.672e-01,-2.1,-2.08
-4.664e-01,-2.1,-2.08
-4.656e-01,-2.1,-2.08
-4.648e-01,-2.1,-2.08
-4.640e-01,-2.12,-2.1
-4.632e-01,-2.12,-2.1
-4.624e-01,-2.12,-2.1
-4.616e-01,-2.12,-2.1
-4.608e-01,-2.14,-2.12
-4.600e-01,-2.14,-2.12
-4.592e-01,-2.14,-2.12
-4.584e-01,-2.14,-2.12
-4.576e-01,-2.14,-2.12
-4.568e-01,-2.14,-2.14
-4.560e-01,-2.14,-2.14
-4.552e-01,-2.16,-2.14
-4.544e-01,-2.16,-2.14
-4.536e-01,-2.16,-2.14
-4.528e-01,-2.18,-2.14
-4.520e-01,-2.18,-2.16
-4.512e-01,-2.16,-2.16
-4.504e-01,-2.18,-2.16
-4.496e-01,-2.18,-2.16
-4.488e-01,-2.18,-2.18
-4.480e-01,-2.18,-2.16
-4.472e-01,-2.2,-2.18
-4.464e-01,-2.2,-2.18
-4.456e-01,-2.2,-2.18
-4.448e-01,-2.2,-2.18
-4.440e-01,-2.2,-2.18
-4.432e-01,-2.2,-2.18
-4.424e-01,-2.2,-2.2
-4.416e-01,-2.2,-2.18
-4.408e-01,-2.22,-2.2
-4.400e-01,-2.22,-2.2
-4.392e-01,-2.22,-2.2
-4.384e-01,-2.22,-2.2
-4.376e-01,-2.22,-2.2
-4.368e-01,-2.24,-2.22
-4.360e-01,-2.24,-2.2
-4.352e-01,-2.22,-2.22
-4.344e-01,-2.22,-2.22
-4.336e-01,-2.24,-2.22
-4.328e-01,-2.24,-2.22
-4.320e-01,-2.24,-2.22
-4.312e-01,-2.24,-2.22
-4.304e-01,-2.26,-2.22
-4.296e-01,-2.24,-2.22
-4.288e-01,-2.24,-2.24
-4.280e-01,-2.26,-2.24
-4.272e-01,-2.24,-2.24
-4.264e-01,-2.26,-2.24
-4.256e-01,-2.26,-2.24
-4.248e-01,-2.26,-2.24
-4.240e-01,-2.26,-2.24
-4.232e-01,-2.26,-2.24
-4.224e-01,-2.26,-2.24
-4.216e-01,-2.26,-2.24
-4.208e-01,-2.26,-2.24
-4.200e-01,-2.26,-2.24
-4.192e-01,-2.26,-2.24
-4.184e-01,-2.26,-2.24
-4.176e-01,-2.26,-2.24
-4.168e-01,-2.28,-2.24
-4.160e-01,-2.28,-2.26
-4.152e-01,-2.28,-2.26
-4.144e-01,-2.28,-2.26
-4.136e-01,-2.28,-2.26
-4.128e-01,-2.28,-2.24
-4.120e-01,-2.28,-2.26
-4.112e-01,-2.28,-2.26
-4.104e-01,-2.28,-2.26
-4.096e-01,-2.28,-2.26
-4.088e-01,-2.3,-2.26
-4.080e-01,-2.28,-2.26
-4.072e-01,-2.3,-2.26
-4.064e-01,-2.28,-2.26
-4.056e-01,-2.28,-2.26
-4.048e-01,-2.28,-2.24
-4.040e-01,-2.28,-2.26
-4.032e-01,-2.3,-2.26
-4.024e-01,-2.28,-2.26
-4.016e-01,-2.28,-2.26
-4.008e-01,-2.28,-2.26
-4.000e-01,-2.28,-2.26
-3.992e-01,-2.28,-2.26
-3.984e-01,-2.28,-2.26
-3.976e-01,-2.28,-2.26
-3.968e-01,-2.28,-2.26
-3.960e-01,-2.28,-2.26
-3.952e-01,-2.28,-2.24
-3.944e-01,-2.28,-2.24
-3.936e-01,-2.28,-2.24
-3.928e-01,-2.28,-2.24
-3.920e-01,-2.26,-2.24
-3.912e-01,-2.28,-2.24
-3.904e-01,-2.26,-2.24
-3.896e-01,-2.26,-2.24
-3.888e-01,-2.26,-2.24
-3.880e-01,-2.26,-2.24
-3.872e-01,-2.28,-2.24
-3.864e-01,-2.26,-2.24
-3.856e-01,-2.26,-2.22
-3.848e-01,-2.26,-2.24
-3.840e-01,-2.26,-2.22
-3.832e-01,-2.24,-2.22
-3.824e-01,-2.24,-2.22
-3.816e-01,-2.24,-2.22
-3.808e-01,-2.24,-2.22
-3.800e-01,-2.24,-2.22
-3.792e-01,-2.24,-2.22
-3.784e-01,-2.24,-2.22
-3.776e-01,-2.24,-2.22
-3.768e-01,-2.22,-2.2
-3.760e-01,-2.22,-2.2
-3.752e-01,-2.22,-2.2
-3.744e-01,-2.24,-2.2
-3.736e-01,-2.22,-2.2
-3.728e-01,-2.22,-2.2
-3.720e-01,-2.22,-2.18
-3.712e-01,-2.22,-2.18
-3.704e-01,-2.2,-2.2
-3.696e-01,-2.2,-2.18
-3.688e-01,-2.2,-2.18
-3.680e-01,-2.2,-2.18
-3.672e-01,-2.2,-2.18
-3.664e-01,-2.2,-2.18
-3.656e-01,-2.18,-2.16
-3.648e-01,-2.18,-2.16
-3.640e-01,-2.18,-2.14
-3.632e-01,-2.18,-2.16
-3.624e-01,-2.18,-2.16
-3.616e-01,-2.18,-2.14
-3.608e-01,-2.16,-2.14
-3.600e-01,-2.16,-2.14
-3.592e-01,-2.18,-2.16
-3.584e-01,-2.16,-2.14
-3.576e-01,-2.16,-2.14
-3.568e-01,-2.14,-2.12
-3.560e-01,-2.16,-2.12
-3.552e-01,-2.14,-2.12
-3.544e-01,-2.14,-2.12
-3.536e-01,-2.14,-2.12
-3.528e-01,-2.12,-2.12
-3.520e-01,-2.12,-2.1
-3.512e-01,-2.12,-2.1
-3.504e-01,-2.12,-2.1
-3.496e-01,-2.12,-2.1
-3.488e-01,-2.12,-2.1
-3.480e-01,-2.1,-2.1
-3.472e-01,-2.1,-2.08
-3.464e-01,-2.1,-2.08
-3.456e-01,-2.08,-2.08
-3.448e-01,-2.08,-2.08
-3.440e-01,-2.08,-2.08
-3.432e-01,-2.08,-2.06
-3.424e-01,-2.08,-2.06
-3.416e-01,-2.08,-2.06
-3.408e-01,-2.06,-2.04
-3.400e-01,-2.08,-2.04
-3.392e-01,-2.04,-2.04
-3.384e-01,-2.06,-2.04
-3.376e-01,-2.04,-2.04
-3.368e-01,-2.04,-2.02
-3.360e-01,-2.04,-2.02
-3.352e-01,-2.04,-2.02
-3.344e-01,-2.02,-2
-3.336e-01,-2,-2
-3.328e-01,-2.02,-2
-3.320e-01,-2,-2
-3.312e-01,-2,-1.98
-3.304e-01,-2,-1.98
-3.296e-01,-1.98,-1.98
-3.288e-01,-1.98,-1.96
-3.280e-01,-1.98,-1.96
-3.272e-01,-1.98,-1.96
-3.264e-01,-1.98,-1.96
-3.256e-01,-1.96,-1.96
-3.248e-01,-1.96,-1.94
-3.240e-01,-1.96,-1.94
-3.232e-01,-1.96,-1.94
-3.224e-01,-1.94,-1.92
-3.216e-01,-1.94,-1.92
-3.208e-01,-1.94,-1.92
-3.200e-01,-1.92,-1.9
-3.192e-01,-1.92,-1.92
-3.184e-01,-1.92,-1.9
-3.176e-01,-1.9,-1.88
-3.168e-01,-1.9,-1.88
-3.160e-01,-1.88,-1.88
-3.152e-01,-1.88,-1.88
-3.144e-01,-1.88,-1.86
-3.136e-01,-1.88,-1.86
-3.128e-01,-1.88,-1.86
-3.120e-01,-1.86,-1.86
-3.112e-01,-1.86,-1.84
-3.104e-01,-1.84,-1.84
-3.096e-01,-1.84,-1.82
-3.088e-01,-1.84,-1.82
-3.080e-01,-1.82,-1.82
-3.072e-01,-1.84,-1.82
-3.064e-01,-1.82,-1.8
-3.056e-01,-1.82,-1.8
-3.048e-01,-1.8,-1.78
-3.040e-01,-1.8,-1.78
-3.032e-01,-1.8,-1.78
-3.024e-01,-1.78,-1.76
-3.016e-01,-1.76,-1.76
-3.008e-01,-1.76,-1.76
-3.000e-01,-1.76,-1.74
-2.992e-01,-1.74,-1.74
-2.984e-01,-1.74,-1.74
-2.976e-01,-1.74,-1.72
-2.968e-01,-1.72,-1.72
-2.960e-01,-1.72,-1.7
-2.952e-01,-1.74,-1.7
-2.944e-01,-1.72,-1.7
-2.936e-01,-1.7,-1.68
-2.928e-01,-1.7,-1.68
-2.920e-01,-1.68,-1.66
-2.912e-01,-1.68,-1.66
-2.904e-01,-1.68,-1.66
-2.896e-01,-1.68,-1.66
-2.888e-01,-1.66,-1.64
-2.880e-01,-1.66,-1.64
-2.872e-01,-1.64,-1.62
-2.864e-01,-1.64,-1.62
-2.856e-01,-1.62,-1.62
-2.848e-01,-1.62,-1.6
-2.840e-01,-1.62,-1.58
-2.832e-01,-1.6,-1.58
-2.824e-01,-1.6,-1.58
-2.816e-01,-1.6,-1.58
-2.808e-01,-1.58,-1.56
-2.800e-01,-1.58,-1.56
-2.792e-01,-1.56,-1.56
-2.784e-01,-1.56,-1.54
-2.776e-01,-1.54,-1.54
-2.768e-01,-1.54,-1.52
-2.760e-01,-1.52,-1.52
-2.752e-01,-1.52,-1.52
-2.744e-01,-1.52,-1.5
-2.736e-01,-1.5,-1.5
-2.728e-01,-1.5,-1.48
-2.720e-01,-1.5,-1.48
-2.712e-01,-1.5,-1.48
-2.704e-01,-1.46,-1.46
-2.696e-01,-1.46,-1.44
-2.688e-01,-1.46,-1.44
-2.680e-01,-1.44,-1.42
-2.672e-01,-1.44,-1.44
-2.664e-01,-1.42,-1.42
-2.656e-01,-1.44,-1.4
-2.648e-01,-1.4,-1.4
-2.640e-01,-1.4,-1.38
-2.632e-01,-1.38,-1.38
-2.624e-01,-1.38,-1.38
-2.616e-01,-1.36,-1.38
-2.608e-01,-1.36,-1.34
-2.600e-01,-1.34,-1.34
-2.592e-01,-1.34,-1.34
-2.584e-01,-1.34,-1.34
-2.576e-01,-1.32,-1.32
-2.568e-01,-1.32,-1.3
-2.560e-01,-1.3,-1.3
-2.552e-01,-1.3,-1.3
-2.544e-01,-1.28,-1.28
-2.536e-01,-1.26,-1.28
-2.528e-01,-1.26,-1.26
-2.520e-01,-1.26,-1.24
-2.512e-01,-1.26,-1.24
-2.504e-01,-1.24,-1.24
-2.496e-01,-1.22,-1.22
-2.488e-01,-1.24,-1.2
-2.480e-01,-1.2,-1.2
-2.472e-01,-1.2,-1.2
-2.464e-01,-1.18,-1.18
-2.456e-01,-1.18,-1.18
-2.448e-01,-1.16,-1.16
-2.440e-01,-1.16,-1.16
-2.432e-01,-1.16,-1.14
-2.424e-01,-1.14,-1.14
-2.416e-01,-1.12,-1.14
-2.408e-01,-1.12,-1.12
-2.400e-01,-1.1,-1.1
-2.392e-01,-1.1,-1.1
-2.384e-01,-1.08,-1.1
-2.376e-01,-1.08,-1.08
-2.368e-01,-1.08,-1.06
-2.360e-01,-1.06,-1.06
-2.352e-01,-1.04,-1.04
-2.344e-01,-1.04,-1.04
-2.336e-01,-1.02,-1.02
-2.328e-01,-1.02,-1.02
-2.320e-01,-1,-1
-2.312e-01,-1,-1
-2.304e-01,-0.98,-1
-2.296e-01,-0.98,-0.98
-2.288e-01,-0.96,-0.96
-2.280e-01,-0.96,-0.96
-2.272e-01,-0.94,-0.94
-2.264e-01,-0.92,-0.94
-2.256e-01,-0.92,-0.92
-2.248e-01,-0.92,-0.92
-2.240e-01,-0.92,-0.9
-2.232e-01,-0.9,-0.88
-2.224e-01,-0.88,-0.88
-2.216e-01,-0.86,-0.88
-2.208e-01,-0.86,-0.86
-2.200e-01,-0.86,-0.84
-2.192e-01,-0.84,-0.84
-2.184e-01,-0.82,-0.84
-2.176e-01,-0.82,-0.82
-2.168e-01,-0.8,-0.8
-2.160e-01,-0.8,-0.8
-2.152e-01,-0.8,-0.78
-2.144e-01,-0.78,-0.8
-2.136e-01,-0.76,-0.76
-2.128e-01,-0.76,-0.76
-2.120e-01,-0.76,-0.74
-2.112e-01,-0.74,-0.74
-2.104e-01,-0.72,-0.72
-2.096e-01,-0.72,-0.72
-2.088e-01,-0.7,-0.7
-2.080e-01,-0.68,-0.68
-2.072e-01,-0.68,-0.7
-2.064e-01,-0.68,-0.66
-2.056e-01,-0.66,-0.66
-2.048e-01,-0.64,-0.64
-2.040e-01,-0.64,-0.64
-2.032e-01,-0.62,-0.62
-2.024e-01,-0.6,-0.6
-2.016e-01,-0.6,-0.62
-2.008e-01,-0.6,-0.6
-2.000e-01,-0.58,-0.58
-1.992e-01,-0.56,-0.58
-1.984e-01,-0.56,-0.56
-1.976e-01,-0.54,-0.54
-1.968e-01,-0.54,-0.54
-1.960e-01,-0.52,-0.54
-1.952e-01,-0.52,-0.52
-1.944e-01,-0.52,-0.5
-1.936e-01,-0.5,-0.5
-1.928e-01,-0.48,-0.48
-1.920e-01,-0.48,-0.48
-1.912e-01,-0.46,-0.48
-1.904e-01,-0.46,-0.44
-1.896e-01,-0.44,-0.44
-1.888e-01,-0.42,-0.42
-1.880e-01,-0.44,-0.42
-1.872e-01,-0.4,-0.4
-1.864e-01,-0.4,-0.4
-1.856e-01,-0.38,-0.38
-1.848e-01,-0.36,-0.38
-1.840e-01,-0.36,-0.36
-1.832e-01,-0.36,-0.36
-1.824e-01,-0.34,-0.34
-1.816e-01,-0.32,-0.32
-1.808e-01,-0.34,-0.32
-1.800e-01,-0.3,-0.3
-1.792e-01,-0.3,-0.3
-1.784e-01,-0.28,-0.28
-1.776e-01,-0.26,-0.26
-1.768e-01,-0.26,-0.28
-1.760e-01,-0.24,-0.26
-1.752e-01,-0.24,-0.24
-1.744e-01,-0.24,-0.24
-1.736e-01,-0.22,-0.22
-1.728e-01,-0.2,-0.22
-1.720e-01,-0.18,-0.2
-1.712e-01,-0.18,-0.18
-1.704e-01,-0.16,-0.18
-1.696e-01,-0.18,-0.16
-1.688e-01,-0.14,-0.16
-1.680e-01,-0.14,-0.14
-1.672e-01,-0.12,-0.14
-1.664e-01,-0.1,-0.12
-1.656e-01,-0.1,-0.1
-1.648e-01,-0.08,-0.1
-1.640e-01,-0.08,-0.08
-1.632e-01,-0.06,-0.08
-1.624e-01,-0.06,-0.06
-1.616e-01,-0.04,-0.04
-1.608e-01,-0.04,-0.04
-1.600e-01,-0.02,-0.02
-1.592e-01,0,0
-1.584e-01,0,0
-1.576e-01,0,0.02
-1.568e-01,0,0
-1.560e-01,0.02,0.02
-1.552e-01,0.04,0.04
-1.544e-01,0.04,0.04
-1.536e-01,0.06,0.06
-1.528e-01,0.06,0.06
-1.520e-01,0.08,0.08
-1.512e-01,0.1,0.08
-1.504e-01,0.1,0.1
-1.496e-01,0.12,0.12
-1.488e-01,0.12,0.14
-1.480e-01,0.14,0.14
-1.472e-01,0.14,0.16
-1.464e-01,0.16,0.16
-1.456e-01,0.16,0.18
-1.448e-01,0.18,0.18
-1.440e-01,0.2,0.2
-1.432e-01,0.2,0.22
-1.424e-01,0.22,0.22
-1.416e-01,0.22,0.22
-1.408e-01,0.24,0.24
-1.400e-01,0.26,0.26
-1.392e-01,0.26,0.28
-1.384e-01,0.28,0.28
-1.376e-01,0.3,0.28
-1.368e-01,0.3,0.3
-1.360e-01,0.3,0.32
-1.352e-01,0.32,0.32
-1.344e-01,0.32,0.34
-1.336e-01,0.34,0.34
-1.328e-01,0.34,0.36
-1.320e-01,0.36,0.38
-1.312e-01,0.38,0.4
-1.304e-01,0.38,0.38
-1.296e-01,0.38,0.4
-1.288e-01,0.4,0.4
-1.280e-01,0.42,0.42
-1.272e-01,0.44,0.44
-1.264e-01,0.44,0.44
-1.256e-01,0.46,0.46
-1.248e-01,0.46,0.46
-1.240e-01,0.48,0.48
-1.232e-01,0.5,0.5
-1.224e-01,0.5,0.5
-1.216e-01,0.5,0.52
-1.208e-01,0.52,0.52
-1.200e-01,0.52,0.54
-1.192e-01,0.54,0.54
-1.184e-01,0.56,0.56
-1.176e-01,0.58,0.56
-1.168e-01,0.58,0.58
-1.160e-01,0.58,0.58
-1.152e-01,0.6,0.6
-1.144e-01,0.6,0.62
-1.136e-01,0.62,0.64
-1.128e-01,0.64,0.64
-1.120e-01,0.64,0.66
-1.112e-01,0.66,0.66
-1.104e-01,0.66,0.66
-1.096e-01,0.66,0.68
-1.088e-01,0.68,0.7
-1.080e-01,0.7,0.7
-1.072e-01,0.7,0.72
-1.064e-01,0.72,0.72
-1.056e-01,0.74,0.74
-1.048e-01,0.74,0.74
-1.040e-01,0.76,0.76
-1.032e-01,0.78,0.76
-1.024e-01,0.78,0.78
-1.016e-01,0.8,0.8
-1.008e-01,0.82,0.8
-1.000e-01,0.8,0.82
-9.920e-02,0.82,0.84
-9.840e-02,0.84,0.82
-9.760e-02,0.84,0.84
-9.680e-02,0.86,0.86
-9.600e-02,0.86,0.86
-9.520e-02,0.88,0.88
-9.440e-02,0.88,0.88
-9.360e-02,0.9,0.9
-9.280e-02,0.92,0.9
-9.200e-02,0.92,0.92
-9.120e-02,0.92,0.92
-9.040e-02,0.92,0.94
-8.960e-02,0.94,0.94
-8.880e-02,0.96,0.96
-8.800e-02,0.96,0.98
-8.720e-02,1,0.98
-8.640e-02,0.98,1
-8.560e-02,1.02,1
-8.480e-02,1,1.02
-8.400e-02,1.02,1.02
-8.320e-02,1.02,1.02
-8.240e-02,1.04,1.04
-8.160e-02,1.06,1.06
