lab2/exp7/data/F0017CH1.CSV

Record Length,2.500000e+03,,   0.000000000000,  -1.01600,
Sample Interval,4.000000e-02,,   0.040000000000,  -1.01600,
Trigger Point,0.000000000000e+00,,   0.080000000000,  -1.01600,
,,,   0.120000000000,  -1.01600,
,,,   0.160000000000,  -1.01600,
,,,   0.200000000000,  -1.01600,
Source,CH1,,   0.240000000000,  -1.01600,
Vertical Units,V,,   0.280000000000,  -1.01600,
Vertical Scale,2.000000e-01,,   0.320000000000,  -1.01600,
Vertical Offset,-8.000000e-03,,   0.360000000000,  -1.01600,
Horizontal Units,s,,   0.400000000000,  -1.01600,
Horizontal Scale,1.000000e+01,,   0.440000000000,  -1.01600,
Pt Fmt,Y,,   0.480000000000,  -1.01600,
Yzero,0.000000e+00,,   0.520000000000,  -1.01600,
Probe Atten,1.000000e+00,,   0.560000000000,  -1.01600,
Model Number,TDS2002C,,   0.600000000000,  -1.01600,
Serial Number,C012054,,   0.640000000000,  -1.01600,
Firmware Version,FV:v24.09,,   0.680000000000,  -1.01600,
,,,0.720000000000,  -1.01600,
,,,0.760000000000,  -1.01600,
,,,0.800000000000,  -1.01600,
,,,0.840000000000,  -1.01600,
,,,0.880000000000,  -1.01600,
,,,0.920000000000,  -1.01600,
,,,0.960000000000,  -1.01600,
,,,1.000000000000,  -1.01600,
,,,1.040000000000,  -1.01600,
,,,1.080000000000,  -1.01600,
,,,1.120000000000,  -1.01600,
,,,1.160000000000,  -1.01600,
,,,1.200000000000,  -1.01600,
,,,1.240000000000,  -1.01600,
,,,1.280000000000,  -1.01600,
,,,1.320000000000,  -1.01600,
,,,1.360000000000,  -1.01600,
,,,1.400000000000,  -1.01600,
,,,1.440000000000,  -1.01600,
,,,1.480000000000,  -1.01600,
,,,1.520000000000,  -1.01600,
,,,1.560000000000,  -1.01600,
,,,1.600000000000,  -1.01600,
,,,1.640000000000,  -1.01600,
,,,1.680000000000,  -1.01600,
,,,1.720000000000,  -1.01600,
,,,1.760000000000,  -1.01600,
,,,1.800000000000,  -1.01600,
,,,1.840000000000,  -1.01600,
,,,1.880000000000,  -1.01600,
,,,1.920000000000,  -1.01600,
,,,1.960000000000,  -1.01600,
,,,2.000000000000,  -1.01600,
,,,2.040000000000,  -1.01600,
,,,2.080000000000,  -1.01600,
,,,2.120000000000,  -1.01600,
,,,2.160000000000,  -1.01600,
,,,2.200000000000,  -1.01600,
,,,2.240000000000,  -1.01600,
,,,2.280000000000,  -1.01600,
,,,2.320000000000,  -1.01600,
,,,2.360000000000,  -1.01600,
,,,2.400000000000,  -1.01600,
,,,2.440000000000,  -1.01600,
,,,2.480000000000,  -1.01600,
,,,2.520000000000,  -1.01600,
,,,2.560000000000,  -1.01600,
,,,2.600000000000,  -1.01600,
,,,2.640000000000,  -1.01600,
,,,2.680000000000,  -1.01600,
,,,2.720000000000,  -1.01600,
,,,2.760000000000,  -1.01600,
,,,2.800000000000,  -1.01600,
,,,2.840000000000,  -1.01600,
,,,2.880000000000,  -1.01600,
,,,2.920000000000,  -1.01600,
,,,2.960000000000,  -1.01600,
,,,3.000000000000,  -1.01600,
,,,3.040000000000,  -1.01600,
,,,3.080000000000,  -1.01600,
,,,3.120000000000,  -1.01600,
,,,3.160000000000,  -1.01600,
,,,3.200000000000,  -1.01600,
,,,3.240000000000,  -1.01600,
,,,3.280000000000,  -1.01600,
,,,3.320000000000,  -1.01600,
,,,3.360000000000,  -1.01600,
,,,3.400000000000,  -1.01600,
,,,3.440000000000,  -1.01600,
,,,3.480000000000,  -1.01600,
,,,3.520000000000,  -1.01600,
,,,3.560000000000,  -1.01600,
,,,3.600000000000,  -1.01600,
,,,3.640000000000,  -1.01600,
,,,3.680000000000,  -1.01600,
,,,3.720000000000,  -1.01600,
,,,3.760000000000,  -1.01600,
,,,3.800000000000,  -1.01600,
,,,3.840000000000,  -1.01600,
,,,3.880000000000,  -1.01600,
,,,3.920000000000,  -1.01600,
,,,3.960000000000,  -1.01600,
,,,4.000000000000,  -1.01600,
,,,4.040000000000,  -1.01600,
,,,4.080000000000,  -1.01600,
,,,4.120000000000,  -1.01600,
,,,4.160000000000,  -1.01600,
,,,4.200000000000,  -1.01600,
,,,4.240000000000,  -1.01600,
,,,4.280000000000,  -1.01600,
,,,4.320000000000,  -1.01600,
,,,4.360000000000,  -1.01600,
,,,4.400000000000,  -1.01600,
,,,4.440000000000,  -1.01600,
,,,4.480000000000,  -1.01600,
,,,4.520000000000,  -1.01600,
,,,4.560000000000,  -1.01600,
,,,4.600000000000,  -1.01600,
,,,4.640000000000,  -1.01600,
,,,4.680000000000,  -1.01600,
,,,4.720000000000,  -1.01600,
,,,4.760000000000,  -1.01600,
,,,4.800000000000,   0.44800,
,,,4.840000000000,   0.44800,
,,,4.880000000000,   0.44800,
,,,4.920000000000,   0.44800,
,,,4.960000000000,   0.44000,
,,,5.000000000000,   0.44800,
,,,5.040000000000,   0.44800,
,,,5.080000000000,   0.45600,
,,,5.120000000000,   0.44800,
,,,5.160000000000,   0.44800,
,,,5.200000000000,   0.44800,
,,,5.240000000000,   0.44800,
,,,5.280000000000,   0.44800,
,,,5.320000000000,   0.44800,
,,,5.360000000000,   0.44800,
,,,5.400000000000,   0.44800,
,,,5.440000000000,   0.44800,
,,,5.480000000000,   0.44800,
,,,5.520000000000,   0.44800,
,,,5.560000000000,   0.44800,
,,,5.600000000000,   0.44800,
,,,5.640000000000,   0.44800,
,,,5.680000000000,   0.44800,
,,,5.720000000000,   0.44800,
,,,5.760000000000,   0.45600,
,,,5.800000000000,   0.44800,
,,,5.840000000000,   0.44800,
,,,5.880000000000,   0.44800,
,,,5.920000000000,   0.44800,
,,,5.960000000000,   0.44800,
,,,6.000000000000,   0.44000,
,,,6.040000000000,   0.44800,
,,,6.080000000000,   0.44800,
,,,6.120000000000,   0.44800,
,,,6.160000000000,   0.44800,
,,,6.200000000000,   0.44800,
,,,6.240000000000,   0.44800,
,,,6.280000000000,   0.44800,
,,,6.320000000000,   0.44800,
,,,6.360000000000,   0.44000,
,,,6.400000000000,   0.44800,
,,,6.440000000000,   0.44800,
,,,6.480000000000,   0.44800,
,,,6.520000000000,   0.44800,
,,,6.560000000000,   0.44800,
,,,6.600000000000,   0.44800,
,,,6.640000000000,   0.44800,
,,,6.680000000000,   0.44000,
,,,6.720000000000,   0.44800,
,,,6.760000000000,   0.44800,
,,,6.800000000000,   0.44800,
,,,6.840000000000,   0.44800,
,,,6.880000000000,   0.44000,
,,,6.920000000000,   0.44800,
,,,6.960000000000,   0.44800,
,,,7.000000000000,   0.44800,
,,,7.040000000000,   0.44000,
,,,7.080000000000,   0.44800,
,,,7.120000000000,   0.44000,
,,,7.160000000000,   0.44000,
,,,7.200000000000,   0.44000,
,,,7.240000000000,   0.44800,
,,,7.280000000000,   0.44000,
,,,7.320000000000,   0.44000,
,,,7.360000000000,   0.44000,
,,,7.400000000000,   0.44000,
,,,7.440000000000,   0.44000,
,,,7.480000000000,   0.43200,
,,,7.520000000000,   0.44000,
,,,7.560000000000,   0.44000,
,,,7.600000000000,   0.44000,
,,,7.640000000000,   0.44000,
,,,7.680000000000,   0.44800,
,,,7.720000000000,   0.44000,
,,,7.760000000000,   0.44000,
,,,7.800000000000,   0.43200,
,,,7.840000000000,   0.44000,
,,,7.880000000000,   0.44000,
,,,7.920000000000,   0.43200,
,,,7.960000000000,   0.44000,
,,,8.000000000000,   0.44000,
,,,8.040000000000,   0.44000,
,,,8.080000000000,   0.44000,
,,,8.120000000000,   0.43200,
,,,8.160000000000,   0.44000,
,,,8.200000000000,   0.44000,
,,,8.240000000000,   0.44000,
,,,8.280000000000,   0.43200,
,,,8.320000000000,   0.43200,
,,,8.360000000000,   0.43200,
,,,8.400000000000,   0.43200,
,,,8.440000000000,   0.43200,
,,,8.480000000000,   0.43200,
,,,8.520000000000,   0.43200,
,,,8.560000000000,   0.43200,
,,,8.600000000000,   0.43200,
,,,8.640000000000,   0.43200,
,,,8.680000000000,   0.43200,
,,,8.720000000000,   0.43200,
,,,8.760000000000,   0.43200,
,,,8.800000000000,   0.43200,
,,,8.840000000000,   0.43200,
,,,8.880000000000,   0.43200,
,,,8.920000000000,   0.43200,
,,,8.960000000000,   0.43200,
,,,9.000000000000,   0.43200,
,,,9.040000000000,   0.42400,
,,,9.080000000000,   0.43200,
,,,9.120000000000,   0.42400,
,,,9.160000000000,   0.42400,
,,,9.200000000000,   0.43200,
,,,9.240000000000,   0.43200,
,,,9.280000000000,   0.42400,
,,,9.320000000000,   0.43200,
,,,9.360000000000,   0.42400,
,,,9.400000000000,   0.42400,
,,,9.440000000000,   0.42400,
,,,9.480000000000,   0.42400,
,,,9.520000000000,   0.42400,
,,,9.560000000000,   0.42400,
,,,9.600000000000,   0.42400,
,,,9.640000000000,   0.42400,
,,,9.680000000000,   0.42400,
,,,9.720000000000,   0.42400,
,,,9.760000000000,   0.42400,
,,,9.800000000000,   0.42400,
,,,9.840000000000,   0.41600,
,,,9.880000000000,   0.42400,
,,,9.920000000000,   0.42400,
,,,9.960000000000,   0.42400,
,,,10.000000000000,   0.41600,
,,,10.040000000000,   0.42400,
,,,10.080000000000,   0.42400,
,,,10.120000000000,   0.42400,
,,,10.160000000000,   0.41600,
,,,10.200000000000,   0.42400,
,,,10.240000000000,   0.41600,
,,,10.280000000000,   0.42400,
,,,10.320000000000,   0.42400,
,,,10.360000000000,   0.41600,
,,,10.400000000000,   0.41600,
,,,10.440000000000,   0.41600,
,,,10.480000000000,   0.41600,
,,,10.520000000000,   0.41600,
,,,10.560000000000,   0.41600,
,,,10.600000000000,   0.41600,
,,,10.640000000000,   0.41600,
,,,10.680000000000,   0.41600,
,,,10.720000000000,   0.41600,
,,,10.760000000000,   0.41600,
,,,10.800000000000,   0.40800,
,,,10.840000000000,   0.40800,
,,,10.880000000000,   0.40800,
,,,10.920000000000,   0.41600,
,,,10.960000000000,   0.41600,
,,,11.000000000000,   0.40800,
,,,11.040000000000,   0.41600,
,,,11.080000000000,   0.40800,
,,,11.120000000000,   0.40800,
,,,11.160000000000,   0.40800,
,,,11.200000000000,   0.41600,
,,,11.240000000000,   0.40000,
,,,11.280000000000,   0.40800,
,,,11.320000000000,   0.40000,
,,,11.360000000000,   0.40800,
,,,11.400000000000,   0.40800,
,,,11.440000000000,   0.40800,
,,,11.480000000000,   0.40800,
,,,11.520000000000,   0.40800,
,,,11.560000000000,   0.40000,
,,,11.600000000000,   0.40000,
,,,11.640000000000,   0.40000,
,,,11.680000000000,   0.40000,
,,,11.720000000000,   0.40000,
,,,11.760000000000,   0.40800,
,,,11.800000000000,   0.40000,
,,,11.840000000000,   0.40000,
,,,11.880000000000,   0.40000,
,,,11.920000000000,   0.40800,
,,,11.960000000000,   0.40000,
,,,12.000000000000,   0.40000,
,,,12.040000000000,   0.40000,
,,,12.080000000000,   0.40000,
,,,12.120000000000,   0.39200,
,,,12.160000000000,   0.40000,
,,,12.200000000000,   0.40000,
,,,12.240000000000,   0.40000,
,,,12.280000000000,   0.39200,
,,,12.320000000000,   0.39200,
,,,12.360000000000,   0.39200,
,,,12.400000000000,   0.39200,
,,,12.440000000000,   0.39200,
,,,12.480000000000,   0.39200,
,,,12.520000000000,   0.40000,
,,,12.560000000000,   0.39200,
,,,12.600000000000,   0.39200,
,,,12.640000000000,   0.39200,
,,,12.680000000000,   0.39200,
,,,12.720000000000,   0.39200,
,,,12.760000000000,   0.39200,
,,,12.800000000000,   0.38400,
,,,12.840000000000,   0.38400,
,,,12.880000000000,   0.38400,
,,,12.920000000000,   0.38400,
,,,12.960000000000,   0.39200,
,,,13.000000000000,   0.39200,
,,,13.040000000000,   0.38400,
,,,13.080000000000,   0.38400,
,,,13.120000000000,   0.38400,
,,,13.160000000000,   0.37600,
,,,13.200000000000,   0.38400,
,,,13.240000000000,   0.37600,
,,,13.280000000000,   0.38400,
,,,13.320000000000,   0.37600,
,,,13.360000000000,   0.37600,
,,,13.400000000000,   0.37600,
,,,13.440000000000,   0.37600,
,,,13.480000000000,   0.37600,
,,,13.520000000000,   0.37600,
,,,13.560000000000,   0.37600,
,,,13.600000000000,   0.37600,
,,,13.640000000000,   0.37600,
,,,13.680000000000,   0.37600,
,,,13.720000000000,   0.37600,
,,,13.760000000000,   0.37600,
,,,13.800000000000,   0.37600,
,,,13.840000000000,   0.37600,
,,,13.880000000000,   0.37600,
,,,13.920000000000,   0.36800,
,,,13.960000000000,   0.36800,
,,,14.000000000000,   0.37600,
,,,14.040000000000,   0.37600,
,,,14.080000000000,   0.36800,
,,,14.120000000000,   0.36800,
,,,14.160000000000,   0.36800,
,,,14.200000000000,   0.36800,
,,,14.240000000000,   0.36800,
,,,14.280000000000,   0.36000,
,,,14.320000000000,   0.36800,
,,,14.360000000000,   0.36000,
,,,14.400000000000,   0.36800,
,,,14.440000000000,   0.36000,
,,,14.480000000000,   0.36000,
,,,14.520000000000,   0.36000,
,,,14.560000000000,   0.35200,
,,,14.600000000000,   0.36000,
,,,14.640000000000,   0.36000,
,,,14.680000000000,   0.35200,
,,,14.720000000000,   0.36000,
,,,14.760000000000,   0.36000,
,,,14.800000000000,   0.35200,
,,,14.840000000000,   0.36000,
,,,14.880000000000,   0.35200,
,,,14.920000000000,   0.35200,
,,,14.960000000000,   0.35200,
,,,15.000000000000,   0.35200,
,,,15.040000000000,   0.35200,
,,,15.080000000000,   0.35200,
,,,15.120000000000,   0.35200,
,,,15.160000000000,   0.35200,
,,,15.200000000000,   0.35200,
,,,15.240000000000,   0.35200,
,,,15.280000000000,   0.34400,
,,,15.320000000000,   0.34400,
,,,15.360000000000,   0.34400,
,,,15.400000000000,   0.34400,
,,,15.440000000000,   0.34400,
,,,15.480000000000,   0.34400,
,,,15.520000000000,   0.34400,
,,,15.560000000000,   0.34400,
,,,15.600000000000,   0.34400,
,,,15.640000000000,   0.34400,
,,,15.680000000000,   0.33600,
,,,15.720000000000,   0.34400,
,,,15.760000000000,   0.34400,
,,,15.800000000000,   0.33600,
,,,15.840000000000,   0.33600,
,,,15.880000000000,   0.33600,
,,,15.920000000000,   0.33600,
,,,15.960000000000,   0.33600,
,,,16.000000000000,   0.33600,
,,,16.040000000000,   0.32800,
,,,16.080000000000,   0.33600,
,,,16.120000000000,   0.33600,
,,,16.160000000000,   0.33600,
,,,16.200000000000,   0.33600,
,,,16.240000000000,   0.32800,
,,,16.280000000000,   0.32800,
,,,16.320000000000,   0.32800,
,,,16.360000000000,   0.33600,
,,,16.400000000000,   0.32800,
,,,16.440000000000,   0.32800,
,,,16.480000000000,   0.32800,
,,,16.520000000000,   0.32800,
,,,16.560000000000,   0.32800,
,,,16.600000000000,   0.32000,
,,,16.640000000000,   0.32000,
,,,16.680000000000,   0.32800,
,,,16.720000000000,   0.32000,
,,,16.760000000000,   0.32800,
,,,16.800000000000,   0.32000,
,,,16.840000000000,   0.32800,
,,,16.880000000000,   0.31200,
,,,16.920000000000,   0.32000,
,,,16.960000000000,   0.32000,
,,,17.000000000000,   0.31200,
,,,17.040000000000,   0.31200,
,,,17.080000000000,   0.31200,
,,,17.120000000000,   0.32000,
,,,17.160000000000,   0.32000,
,,,17.200000000000,   0.31200,
,,,17.240000000000,   0.32000,
,,,17.280000000000,   0.31200,
,,,17.320000000000,   0.31200,
,,,17.360000000000,   0.31200,
,,,17.400000000000,   0.31200,
,,,17.440000000000,   0.31200,
,,,17.480000000000,   0.31200,
,,,17.520000000000,   0.31200,
,,,17.560000000000,   0.30400,
,,,17.600000000000,   0.30400,
,,,17.640000000000,   0.30400,
,,,17.680000000000,   0.30400,
,,,17.720000000000,   0.30400,
,,,17.760000000000,   0.30400,
,,,17.800000000000,   0.29600,
,,,17.840000000000,   0.30400,
,,,17.880000000000,   0.29600,
,,,17.920000000000,   0.29600,
,,,17.960000000000,   0.29600,
,,,18.000000000000,   0.29600,
,,,18.040000000000,   0.28800,
,,,18.080000000000,   0.29600,
,,,18.120000000000,   0.29600,
,,,18.160000000000,   0.29600,
,,,18.200000000000,   0.28800,
,,,18.240000000000,   0.28800,
,,,18.280000000000,   0.28800,
,,,18.320000000000,   0.28800,
,,,18.360000000000,   0.28800,
,,,18.400000000000,   0.28800,
,,,18.440000000000,   0.28800,
,,,18.480000000000,   0.28800,
,,,18.520000000000,   0.28800,
,,,18.560000000000,   0.28000,
,,,18.600000000000,   0.28000,
,,,18.640000000000,   0.28000,
,,,18.680000000000,   0.28000,
,,,18.720000000000,   0.28000,
,,,18.760000000000,   0.28000,
,,,18.800000000000,   0.28000,
,,,18.840000000000,   0.28000,
,,,18.880000000000,   0.27200,
,,,18.920000000000,   0.27200,
,,,18.960000000000,   0.27200,
,,,19.000000000000,   0.27200,
,,,19.040000000000,   0.27200,
,,,19.080000000000,   0.27200,
,,,19.120000000000,   0.26400,
,,,19.160000000000,   0.26400,
,,,19.200000000000,   0.26400,
,,,19.240000000000,   0.27200,
,,,19.280000000000,   0.27200,
,,,19.320000000000,   0.26400,
,,,19.360000000000,   0.26400,
,,,19.400000000000,   0.26400,
,,,19.440000000000,   0.26400,
,,,19.480000000000,   0.26400,
,,,19.520000000000,   0.26400,
,,,19.560000000000,   0.25600,
,,,19.600000000000,   0.25600,
,,,19.640000000000,   0.26400,
,,,19.680000000000,   0.25600,
,,,19.720000000000,   0.25600,
,,,19.760000000000,   0.25600,
,,,19.800000000000,   0.26400,
,,,19.840000000000,   0.24800,
,,,19.880000000000,   0.24800,
,,,19.920000000000,   0.25600,
,,,19.960000000000,   0.24800,
,,,20.000000000000,   0.24800,
,,,20.040000000000,   0.24800,
,,,20.080000000000,   0.24800,
,,,20.120000000000,   0.24800,
,,,20.160000000000,   0.24000,
,,,20.200000000000,   0.24000,
,,,20.240000000000,   0.24800,
,,,20.280000000000,   0.24000,
,,,20.320000000000,   0.24000,
,,,20.360000000000,   0.24000,
,,,20.400000000000,   0.24000,
,,,20.440000000000,   0.23200,
,,,20.480000000000,   0.24000,
,,,20.520000000000,   0.24000,
,,,20.560000000000,   0.24000,
,,,20.600000000000,   0.23200,
,,,20.640000000000,   0.23200,
,,,20.680000000000,   0.23200,
,,,20.720000000000,   0.23200,
,,,20.760000000000,   0.23200,
,,,20.800000000000,   0.23200,
,,,20.840000000000,   0.23200,
,,,20.880000000000,   0.23200,
,,,20.920000000000,   0.23200,
,,,20.960000000000,   0.23200,
,,,21.000000000000,   0.22400,
,,,21.040000000000,   0.23200,
,,,21.080000000000,   0.22400,
,,,21.120000000000,   0.22400,
,,,21.160000000000,   0.22400,
,,,21.200000000000,   0.22400,
,,,21.240000000000,   0.21600,
,,,21.280000000000,   0.21600,
,,,21.320000000000,   0.22400,
,,,21.360000000000,   0.21600,
,,,21.400000000000,   0.21600,
,,,21.440000000000,   0.21600,
,,,21.480000000000,   0.21600,
,,,21.520000000000,   0.21600,
,,,21.560000000000,   0.20800,
,,,21.600000000000,   0.20800,
,,,21.640000000000,   0.20800,
,,,21.680000000000,   0.20800,
,,,21.720000000000,   0.20800,
,,,21.760000000000,   0.20800,
,,,21.800000000000,   0.20800,
,,,21.840000000000,   0.20000,
,,,21.880000000000,   0.20800,
,,,21.920000000000,   0.20800,
,,,21.960000000000,   0.20000,
,,,22.000000000000,   0.20000,
,,,22.040000000000,   0.20000,
,,,22.080000000000,   0.20000,
,,,22.120000000000,   0.20000,
,,,22.160000000000,   0.20000,
,,,22.200000000000,   0.20000,
,,,22.240000000000,   0.20000,
,,,22.280000000000,   0.20000,
,,,22.320000000000,   0.19200,
,,,22.360000000000,   0.19200,
,,,22.400000000000,   0.19200,
,,,22.440000000000,   0.19200,
,,,22.480000000000,   0.19200,
,,,22.520000000000,   0.19200,
,,,22.560000000000,   0.19200,
,,,22.600000000000,   0.18400,
,,,22.640000000000,   0.18400,
,,,22.680000000000,   0.18400,
,,,22.720000000000,   0.18400,
,,,22.760000000000,   0.18400,
,,,22.800000000000,   0.18400,
,,,22.840000000000,   0.18400,
,,,22.880000000000,   0.18400,
,,,22.920000000000,   0.17600,
,,,22.960000000000,   0.17600,
,,,23.000000000000,   0.17600,
,,,23.040000000000,   0.17600,
,,,23.080000000000,   0.17600,
,,,23.120000000000,   0.17600,
,,,23.160000000000,   0.17600,
,,,23.200000000000,   0.17600,
,,,23.240000000000,   0.16800,
,,,23.280000000000,   0.16800,
,,,23.320000000000,   0.16800,
,,,23.360000000000,   0.16800,
,,,23.400000000000,   0.16800,
,,,23.440000000000,   0.16800,
,,,23.480000000000,   0.16800,
,,,23.520000000000,   0.16000,
,,,23.560000000000,   0.16000,
,,,23.600000000000,   0.15200,
,,,23.640000000000,   0.16000,
,,,23.680000000000,   0.16000,
,,,23.720000000000,   0.15200,
,,,23.760000000000,   0.15200,
,,,23.800000000000,   0.15200,
,,,23.840000000000,   0.15200,
,,,23.880000000000,   0.15200,
,,,23.920000000000,   0.15200,
,,,23.960000000000,   0.15200,
,,,24.000000000000,   0.15200,
,,,24.040000000000,   0.14400,
,,,24.080000000000,   0.15200,
,,,24.120000000000,   0.14400,
,,,24.160000000000,   0.14400,
,,,24.200000000000,   0.14400,
,,,24.240000000000,   0.13600,
,,,24.280000000000,   0.14400,
,,,24.320000000000,   0.13600,
,,,24.360000000000,   0.14400,
,,,24.400000000000,   0.13600,
,,,24.440000000000,   0.14400,
,,,24.480000000000,   0.13600,
,,,24.520000000000,   0.13600,
,,,24.560000000000,   0.13600,
,,,24.600000000000,   0.12800,
,,,24.640000000000,   0.13600,
,,,24.680000000000,   0.12800,
,,,24.720000000000,   0.12800,
,,,24.760000000000,   0.12800,
,,,24.800000000000,   0.12800,
,,,24.840000000000,   0.12800,
,,,24.880000000000,   0.12800,
,,,24.920000000000,   0.12800,
,,,24.960000000000,   0.12800,
,,,25.000000000000,   0.12000,
,,,25.040000000000,   0.12000,
,,,25.080000000000,   0.12800,
,,,25.120000000000,   0.12000,
,,,25.160000000000,   0.11200,
,,,25.200000000000,   0.12000,
,,,25.240000000000,   0.12000,
,,,25.280000000000,   0.12000,
,,,25.320000000000,   0.12000,
,,,25.360000000000,   0.12000,
,,,25.400000000000,   0.11200,
,,,25.440000000000,   0.11200,
,,,25.480000000000,   0.10400,
,,,25.520000000000,   0.10400,
,,,25.560000000000,   0.11200,
,,,25.600000000000,   0.10400,
