lab2/exp7/data/F0028CH1.CSV

Record Length,2.500000e+03,,   0.000163100000,   2.20000,
Sample Interval,1.000000e-08,,   0.000163110000,   2.20000,
Trigger Point,-1.631000000000e+04,,   0.000163120000,   2.20000,
,,,   0.000163130000,   2.20000,
,,,   0.000163140000,   2.20000,
,,,   0.000163150000,   2.16000,
Source,CH1,,   0.000163160000,   2.16000,
Vertical Units,V,,   0.000163170000,   2.16000,
Vertical Scale,1.000000e+00,,   0.000163180000,   2.16000,
Vertical Offset,-4.000000e-02,,   0.000163190000,   2.16000,
Horizontal Units,s,,   0.000163200000,   2.12000,
Horizontal Scale,2.500000e-06,,   0.000163210000,   2.12000,
Pt Fmt,Y,,   0.000163220000,   2.12000,
Yzero,0.000000e+00,,   0.000163230000,   2.12000,
Probe Atten,1.000000e+00,,   0.000163240000,   2.12000,
Model Number,TDS2002C,,   0.000163250000,   2.08000,
Serial Number,C012054,,   0.000163260000,   2.08000,
Firmware Version,FV:v24.09,,   0.000163270000,   2.08000,
,,,0.000163280000,   2.04000,
,,,0.000163290000,   2.08000,
,,,0.000163300000,   2.04000,
,,,0.000163310000,   2.04000,
,,,0.000163320000,   2.04000,
,,,0.000163330000,   2.04000,
,,,0.000163340000,   2.00000,
,,,0.000163350000,   2.00000,
,,,0.000163360000,   2.00000,
,,,0.000163370000,   2.00000,
,,,0.000163380000,   1.96000,
,,,0.000163390000,   1.96000,
,,,0.000163400000,   1.96000,
,,,0.000163410000,   1.96000,
,,,0.000163420000,   1.92000,
,,,0.000163430000,   1.92000,
,,,0.000163440000,   1.92000,
,,,0.000163450000,   1.92000,
,,,0.000163460000,   1.88000,
,,,0.000163470000,   1.88000,
,,,0.000163480000,   1.88000,
,,,0.000163490000,   1.88000,
,,,0.000163500000,   1.84000,
,,,0.000163510000,   1.84000,
,,,0.000163520000,   1.84000,
,,,0.000163530000,   1.80000,
,,,0.000163540000,   1.80000,
,,,0.000163550000,   1.80000,
,,,0.000163560000,   1.80000,
,,,0.000163570000,   1.76000,
,,,0.000163580000,   1.76000,
,,,0.000163590000,   1.76000,
,,,0.000163600000,   1.72000,
,,,0.000163610000,   1.72000,
,,,0.000163620000,   1.72000,
,,,0.000163630000,   1.72000,
,,,0.000163640000,   1.68000,
,,,0.000163650000,   1.68000,
,,,0.000163660000,   1.68000,
,,,0.000163670000,   1.68000,
,,,0.000163680000,   1.64000,
,,,0.000163690000,   1.64000,
,,,0.000163700000,   1.64000,
,,,0.000163710000,   1.60000,
,,,0.000163720000,   1.60000,
,,,0.000163730000,   1.60000,
,,,0.000163740000,   1.56000,
,,,0.000163750000,   1.56000,
,,,0.000163760000,   1.56000,
,,,0.000163770000,   1.52000,
,,,0.000163780000,   1.52000,
,,,0.000163790000,   1.52000,
,,,0.000163800000,   1.52000,
,,,0.000163810000,   1.48000,
,,,0.000163820000,   1.48000,
,,,0.000163830000,   1.48000,
,,,0.000163840000,   1.44000,
,,,0.000163850000,   1.44000,
,,,0.000163860000,   1.44000,
,,,0.000163870000,   1.40000,
,,,0.000163880000,   1.40000,
,,,0.000163890000,   1.40000,
,,,0.000163900000,   1.36000,
,,,0.000163910000,   1.36000,
,,,0.000163920000,   1.36000,
,,,0.000163930000,   1.32000,
,,,0.000163940000,   1.32000,
,,,0.000163950000,   1.32000,
,,,0.000163960000,   1.28000,
,,,0.000163970000,   1.28000,
,,,0.000163980000,   1.28000,
,,,0.000163990000,   1.24000,
,,,0.000164000000,   1.24000,
,,,0.000164010000,   1.24000,
,,,0.000164020000,   1.20000,
,,,0.000164030000,   1.20000,
,,,0.000164040000,   1.20000,
,,,0.000164050000,   1.16000,
,,,0.000164060000,   1.16000,
,,,0.000164070000,   1.16000,
,,,0.000164080000,   1.12000,
,,,0.000164090000,   1.12000,
,,,0.000164100000,   1.12000,
,,,0.000164110000,   1.08000,
,,,0.000164120000,   1.08000,
,,,0.000164130000,   1.08000,
,,,0.000164140000,   1.04000,
,,,0.000164150000,   1.04000,
,,,0.000164160000,   1.04000,
,,,0.000164170000,   1.00000,
,,,0.000164180000,   1.00000,
,,,0.000164190000,   0.96000,
,,,0.000164200000,   0.96000,
,,,0.000164210000,   0.96000,
,,,0.000164220000,   0.92000,
,,,0.000164230000,   0.92000,
,,,0.000164240000,   0.92000,
,,,0.000164250000,   0.88000,
,,,0.000164260000,   0.88000,
,,,0.000164270000,   0.88000,
,,,0.000164280000,   0.84000,
,,,0.000164290000,   0.84000,
,,,0.000164300000,   0.84000,
,,,0.000164310000,   0.80000,
,,,0.000164320000,   0.80000,
,,,0.000164330000,   0.76000,
,,,0.000164340000,   0.76000,
,,,0.000164350000,   0.76000,
,,,0.000164360000,   0.72000,
,,,0.000164370000,   0.72000,
,,,0.000164380000,   0.68000,
,,,0.000164390000,   0.68000,
,,,0.000164400000,   0.68000,
,,,0.000164410000,   0.64000,
,,,0.000164420000,   0.64000,
,,,0.000164430000,   0.64000,
,,,0.000164440000,   0.60000,
,,,0.000164450000,   0.60000,
,,,0.000164460000,   0.60000,
,,,0.000164470000,   0.56000,
,,,0.000164480000,   0.56000,
,,,0.000164490000,   0.56000,
,,,0.000164500000,   0.52000,
,,,0.000164510000,   0.52000,
,,,0.000164520000,   0.48000,
,,,0.000164530000,   0.48000,
,,,0.000164540000,   0.48000,
,,,0.000164550000,   0.44000,
,,,0.000164560000,   0.44000,
,,,0.000164570000,   0.40000,
,,,0.000164580000,   0.40000,
,,,0.000164590000,   0.40000,
,,,0.000164600000,   0.36000,
,,,0.000164610000,   0.36000,
,,,0.000164620000,   0.32000,
,,,0.000164630000,   0.32000,
,,,0.000164640000,   0.32000,
,,,0.000164650000,   0.28000,
,,,0.000164660000,   0.28000,
,,,0.000164670000,   0.28000,
,,,0.000164680000,   0.24000,
,,,0.000164690000,   0.24000,
,,,0.000164700000,   0.20000,
,,,0.000164710000,   0.20000,
,,,0.000164720000,   0.20000,
,,,0.000164730000,   0.16000,
,,,0.000164740000,   0.16000,
,,,0.000164750000,   0.12000,
,,,0.000164760000,   0.12000,
,,,0.000164770000,   0.12000,
,,,0.000164780000,   0.08000,
,,,0.000164790000,   0.08000,
,,,0.000164800000,   0.08000,
,,,0.000164810000,   0.04000,
,,,0.000164820000,   0.04000,
,,,0.000164830000,   0.00000,
,,,0.000164840000,   0.00000,
,,,0.000164850000,   0.00000,
,,,0.000164860000,  -0.04000,
,,,0.000164870000,  -0.04000,
,,,0.000164880000,  -0.08000,
,,,0.000164890000,  -0.08000,
,,,0.000164900000,  -0.08000,
,,,0.000164910000,  -0.12000,
,,,0.000164920000,  -0.12000,
,,,0.000164930000,  -0.16000,
,,,0.000164940000,  -0.16000,
,,,0.000164950000,  -0.16000,
,,,0.000164960000,  -0.20000,
,,,0.000164970000,  -0.20000,
,,,0.000164980000,  -0.20000,
,,,0.000164990000,  -0.24000,
,,,0.000165000000,  -0.24000,
,,,0.000165010000,  -0.28000,
,,,0.000165020000,  -0.28000,
,,,0.000165030000,  -0.28000,
,,,0.000165040000,  -0.32000,
,,,0.000165050000,  -0.32000,
,,,0.000165060000,  -0.36000,
,,,0.000165070000,  -0.36000,
,,,0.000165080000,  -0.36000,
,,,0.000165090000,  -0.40000,
,,,0.000165100000,  -0.40000,
,,,0.000165110000,  -0.40000,
,,,0.000165120000,  -0.44000,
,,,0.000165130000,  -0.44000,
,,,0.000165140000,  -0.48000,
,,,0.000165150000,  -0.48000,
,,,0.000165160000,  -0.48000,
,,,0.000165170000,  -0.52000,
,,,0.000165180000,  -0.52000,
,,,0.000165190000,  -0.56000,
,,,0.000165200000,  -0.56000,
,,,0.000165210000,  -0.56000,
,,,0.000165220000,  -0.60000,
,,,0.000165230000,  -0.60000,
,,,0.000165240000,  -0.60000,
,,,0.000165250000,  -0.64000,
,,,0.000165260000,  -0.64000,
,,,0.000165270000,  -0.64000,
,,,0.000165280000,  -0.68000,
,,,0.000165290000,  -0.68000,
,,,0.000165300000,  -0.72000,
,,,0.000165310000,  -0.72000,
,,,0.000165320000,  -0.72000,
,,,0.000165330000,  -0.76000,
,,,0.000165340000,  -0.76000,
,,,0.000165350000,  -0.80000,
,,,0.000165360000,  -0.80000,
,,,0.000165370000,  -0.80000,
,,,0.000165380000,  -0.84000,
,,,0.000165390000,  -0.84000,
,,,0.000165400000,  -0.84000,
,,,0.000165410000,  -0.88000,
,,,0.000165420000,  -0.88000,
,,,0.000165430000,  -0.88000,
,,,0.000165440000,  -0.92000,
,,,0.000165450000,  -0.92000,
,,,0.000165460000,  -0.96000,
,,,0.000165470000,  -0.96000,
,,,0.000165480000,  -0.96000,
,,,0.000165490000,  -1.00000,
,,,0.000165500000,  -1.00000,
,,,0.000165510000,  -1.00000,
,,,0.000165520000,  -1.04000,
,,,0.000165530000,  -1.04000,
,,,0.000165540000,  -1.04000,
,,,0.000165550000,  -1.08000,
,,,0.000165560000,  -1.08000,
,,,0.000165570000,  -1.08000,
,,,0.000165580000,  -1.12000,
,,,0.000165590000,  -1.12000,
,,,0.000165600000,  -1.12000,
,,,0.000165610000,  -1.16000,
,,,0.000165620000,  -1.16000,
,,,0.000165630000,  -1.16000,
,,,0.000165640000,  -1.20000,
,,,0.000165650000,  -1.20000,
,,,0.000165660000,  -1.20000,
,,,0.000165670000,  -1.24000,
,,,0.000165680000,  -1.24000,
,,,0.000165690000,  -1.24000,
,,,0.000165700000,  -1.28000,
,,,0.000165710000,  -1.28000,
,,,0.000165720000,  -1.32000,
,,,0.000165730000,  -1.32000,
,,,0.000165740000,  -1.32000,
,,,0.000165750000,  -1.36000,
,,,0.000165760000,  -1.36000,
,,,0.000165770000,  -1.36000,
,,,0.000165780000,  -1.36000,
,,,0.000165790000,  -1.40000,
,,,0.000165800000,  -1.40000,
,,,0.000165810000,  -1.40000,
,,,0.000165820000,  -1.44000,
,,,0.000165830000,  -1.44000,
,,,0.000165840000,  -1.44000,
,,,0.000165850000,  -1.48000,
,,,0.000165860000,  -1.48000,
,,,0.000165870000,  -1.48000,
,,,0.000165880000,  -1.52000,
,,,0.000165890000,  -1.52000,
,,,0.000165900000,  -1.52000,
,,,0.000165910000,  -1.52000,
,,,0.000165920000,  -1.56000,
,,,0.000165930000,  -1.56000,
,,,0.000165940000,  -1.56000,
,,,0.000165950000,  -1.60000,
,,,0.000165960000,  -1.60000,
,,,0.000165970000,  -1.60000,
,,,0.000165980000,  -1.64000,
,,,0.000165990000,  -1.64000,
,,,0.000166000000,  -1.64000,
,,,0.000166010000,  -1.64000,
,,,0.000166020000,  -1.68000,
,,,0.000166030000,  -1.68000,
,,,0.000166040000,  -1.68000,
,,,0.000166050000,  -1.72000,
,,,0.000166060000,  -1.72000,
,,,0.000166070000,  -1.72000,
,,,0.000166080000,  -1.72000,
,,,0.000166090000,  -1.76000,
,,,0.000166100000,  -1.76000,
,,,0.000166110000,  -1.76000,
,,,0.000166120000,  -1.76000,
,,,0.000166130000,  -1.80000,
,,,0.000166140000,  -1.80000,
,,,0.000166150000,  -1.80000,
,,,0.000166160000,  -1.80000,
,,,0.000166170000,  -1.84000,
,,,0.000166180000,  -1.84000,
,,,0.000166190000,  -1.84000,
,,,0.000166200000,  -1.88000,
,,,0.000166210000,  -1.88000,
,,,0.000166220000,  -1.88000,
,,,0.000166230000,  -1.88000,
,,,0.000166240000,  -1.88000,
,,,0.000166250000,  -1.92000,
,,,0.000166260000,  -1.92000,
,,,0.000166270000,  -1.92000,
,,,0.000166280000,  -1.92000,
,,,0.000166290000,  -1.96000,
,,,0.000166300000,  -1.96000,
,,,0.000166310000,  -1.96000,
,,,0.000166320000,  -1.96000,
,,,0.000166330000,  -2.00000,
,,,0.000166340000,  -2.00000,
,,,0.000166350000,  -2.00000,
,,,0.000166360000,  -2.00000,
,,,0.000166370000,  -2.00000,
,,,0.000166380000,  -2.04000,
,,,0.000166390000,  -2.04000,
,,,0.000166400000,  -2.04000,
,,,0.000166410000,  -2.04000,
,,,0.000166420000,  -2.04000,
,,,0.000166430000,  -2.08000,
,,,0.000166440000,  -2.08000,
,,,0.000166450000,  -2.08000,
,,,0.000166460000,  -2.08000,
,,,0.000166470000,  -2.08000,
,,,0.000166480000,  -2.12000,
,,,0.000166490000,  -2.12000,
,,,0.000166500000,  -2.12000,
,,,0.000166510000,  -2.12000,
,,,0.000166520000,  -2.16000,
,,,0.000166530000,  -2.16000,
,,,0.000166540000,  -2.16000,
,,,0.000166550000,  -2.16000,
,,,0.000166560000,  -2.16000,
,,,0.000166570000,  -2.16000,
,,,0.000166580000,  -2.20000,
,,,0.000166590000,  -2.20000,
,,,0.000166600000,  -2.20000,
,,,0.000166610000,  -2.20000,
,,,0.000166620000,  -2.20000,
,,,0.000166630000,  -2.20000,
,,,0.000166640000,  -2.24000,
,,,0.000166650000,  -2.24000,
,,,0.000166660000,  -2.24000,
,,,0.000166670000,  -2.24000,
,,,0.000166680000,  -2.24000,
,,,0.000166690000,  -2.24000,
,,,0.000166700000,  -2.28000,
,,,0.000166710000,  -2.28000,
,,,0.000166720000,  -2.28000,
,,,0.000166730000,  -2.28000,
,,,0.000166740000,  -2.28000,
,,,0.000166750000,  -2.28000,
,,,0.000166760000,  -2.28000,
,,,0.000166770000,  -2.32000,
,,,0.000166780000,  -2.32000,
,,,0.000166790000,  -2.32000,
,,,0.000166800000,  -2.32000,
,,,0.000166810000,  -2.32000,
,,,0.000166820000,  -2.32000,
,,,0.000166830000,  -2.32000,
,,,0.000166840000,  -2.32000,
,,,0.000166850000,  -2.32000,
,,,0.000166860000,  -2.36000,
,,,0.000166870000,  -2.36000,
,,,0.000166880000,  -2.36000,
,,,0.000166890000,  -2.36000,
,,,0.000166900000,  -2.36000,
,,,0.000166910000,  -2.36000,
,,,0.000166920000,  -2.36000,
,,,0.000166930000,  -2.36000,
,,,0.000166940000,  -2.40000,
,,,0.000166950000,  -2.40000,
,,,0.000166960000,  -2.40000,
,,,0.000166970000,  -2.40000,
,,,0.000166980000,  -2.40000,
,,,0.000166990000,  -2.40000,
,,,0.000167000000,  -2.40000,
,,,0.000167010000,  -2.40000,
,,,0.000167020000,  -2.40000,
,,,0.000167030000,  -2.40000,
,,,0.000167040000,  -2.40000,
,,,0.000167050000,  -2.40000,
,,,0.000167060000,  -2.40000,
,,,0.000167070000,  -2.44000,
,,,0.000167080000,  -2.44000,
,,,0.000167090000,  -2.44000,
,,,0.000167100000,  -2.44000,
,,,0.000167110000,  -2.44000,
,,,0.000167120000,  -2.44000,
,,,0.000167130000,  -2.44000,
,,,0.000167140000,  -2.44000,
,,,0.000167150000,  -2.44000,
,,,0.000167160000,  -2.44000,
,,,0.000167170000,  -2.44000,
,,,0.000167180000,  -2.44000,
,,,0.000167190000,  -2.44000,
,,,0.000167200000,  -2.44000,
,,,0.000167210000,  -2.44000,
,,,0.000167220000,  -2.44000,
,,,0.000167230000,  -2.44000,
,,,0.000167240000,  -2.44000,
,,,0.000167250000,  -2.44000,
,,,0.000167260000,  -2.44000,
,,,0.000167270000,  -2.44000,
,,,0.000167280000,  -2.44000,
,,,0.000167290000,  -2.44000,
,,,0.000167300000,  -2.44000,
,,,0.000167310000,  -2.44000,
,,,0.000167320000,  -2.44000,
,,,0.000167330000,  -2.44000,
,,,0.000167340000,  -2.44000,
,,,0.000167350000,  -2.44000,
,,,0.000167360000,  -2.44000,
,,,0.000167370000,  -2.44000,
,,,0.000167380000,  -2.44000,
,,,0.000167390000,  -2.44000,
,,,0.000167400000,  -2.44000,
,,,0.000167410000,  -2.44000,
,,,0.000167420000,  -2.44000,
,,,0.000167430000,  -2.44000,
,,,0.000167440000,  -2.44000,
,,,0.000167450000,  -2.44000,
,,,0.000167460000,  -2.44000,
,,,0.000167470000,  -2.44000,
,,,0.000167480000,  -2.44000,
,,,0.000167490000,  -2.44000,
,,,0.000167500000,  -2.44000,
,,,0.000167510000,  -2.44000,
,,,0.000167520000,  -2.44000,
,,,0.000167530000,  -2.44000,
,,,0.000167540000,  -2.44000,
,,,0.000167550000,  -2.44000,
,,,0.000167560000,  -2.44000,
,,,0.000167570000,  -2.44000,
,,,0.000167580000,  -2.44000,
,,,0.000167590000,  -2.40000,
,,,0.000167600000,  -2.40000,
,,,0.000167610000,  -2.40000,
,,,0.000167620000,  -2.40000,
,,,0.000167630000,  -2.40000,
,,,0.000167640000,  -2.40000,
,,,0.000167650000,  -2.40000,
,,,0.000167660000,  -2.40000,
,,,0.000167670000,  -2.40000,
,,,0.000167680000,  -2.40000,
,,,0.000167690000,  -2.40000,
,,,0.000167700000,  -2.40000,
,,,0.000167710000,  -2.40000,
,,,0.000167720000,  -2.36000,
,,,0.000167730000,  -2.40000,
,,,0.000167740000,  -2.36000,
,,,0.000167750000,  -2.36000,
,,,0.000167760000,  -2.36000,
,,,0.000167770000,  -2.36000,
,,,0.000167780000,  -2.36000,
,,,0.000167790000,  -2.36000,
,,,0.000167800000,  -2.36000,
,,,0.000167810000,  -2.36000,
,,,0.000167820000,  -2.32000,
,,,0.000167830000,  -2.32000,
,,,0.000167840000,  -2.32000,
,,,0.000167850000,  -2.32000,
,,,0.000167860000,  -2.32000,
,,,0.000167870000,  -2.32000,
,,,0.000167880000,  -2.32000,
,,,0.000167890000,  -2.32000,
,,,0.000167900000,  -2.28000,
,,,0.000167910000,  -2.28000,
,,,0.000167920000,  -2.28000,
,,,0.000167930000,  -2.28000,
,,,0.000167940000,  -2.28000,
,,,0.000167950000,  -2.28000,
,,,0.000167960000,  -2.28000,
,,,0.000167970000,  -2.24000,
,,,0.000167980000,  -2.24000,
,,,0.000167990000,  -2.24000,
,,,0.000168000000,  -2.24000,
,,,0.000168010000,  -2.24000,
,,,0.000168020000,  -2.24000,
,,,0.000168030000,  -2.24000,
,,,0.000168040000,  -2.20000,
,,,0.000168050000,  -2.20000,
,,,0.000168060000,  -2.20000,
,,,0.000168070000,  -2.20000,
,,,0.000168080000,  -2.20000,
,,,0.000168090000,  -2.20000,
,,,0.000168100000,  -2.16000,
,,,0.000168110000,  -2.16000,
,,,0.000168120000,  -2.16000,
,,,0.000168130000,  -2.16000,
,,,0.000168140000,  -2.16000,
,,,0.000168150000,  -2.12000,
,,,0.000168160000,  -2.12000,
,,,0.000168170000,  -2.12000,
,,,0.000168180000,  -2.12000,
,,,0.000168190000,  -2.12000,
,,,0.000168200000,  -2.08000,
,,,0.000168210000,  -2.08000,
,,,0.000168220000,  -2.08000,
,,,0.000168230000,  -2.08000,
,,,0.000168240000,  -2.08000,
,,,0.000168250000,  -2.04000,
,,,0.000168260000,  -2.04000,
,,,0.000168270000,  -2.04000,
,,,0.000168280000,  -2.04000,
,,,0.000168290000,  -2.04000,
,,,0.000168300000,  -2.00000,
,,,0.000168310000,  -2.00000,
,,,0.000168320000,  -2.00000,
,,,0.000168330000,  -2.00000,
,,,0.000168340000,  -1.96000,
,,,0.000168350000,  -1.96000,
,,,0.000168360000,  -1.96000,
,,,0.000168370000,  -1.96000,
,,,0.000168380000,  -1.92000,
,,,0.000168390000,  -1.92000,
,,,0.000168400000,  -1.92000,
,,,0.000168410000,  -1.92000,
,,,0.000168420000,  -1.92000,
,,,0.000168430000,  -1.88000,
,,,0.000168440000,  -1.88000,
,,,0.000168450000,  -1.88000,
,,,0.000168460000,  -1.84000,
,,,0.000168470000,  -1.84000,
,,,0.000168480000,  -1.84000,
,,,0.000168490000,  -1.84000,
,,,0.000168500000,  -1.80000,
,,,0.000168510000,  -1.80000,
,,,0.000168520000,  -1.80000,
,,,0.000168530000,  -1.80000,
,,,0.000168540000,  -1.76000,
,,,0.000168550000,  -1.76000,
,,,0.000168560000,  -1.76000,
,,,0.000168570000,  -1.76000,
,,,0.000168580000,  -1.72000,
,,,0.000168590000,  -1.72000,
,,,0.000168600000,  -1.72000,
,,,0.000168610000,  -1.72000,
,,,0.000168620000,  -1.68000,
,,,0.000168630000,  -1.68000,
,,,0.000168640000,  -1.68000,
,,,0.000168650000,  -1.64000,
,,,0.000168660000,  -1.64000,
,,,0.000168670000,  -1.64000,
,,,0.000168680000,  -1.64000,
,,,0.000168690000,  -1.60000,
,,,0.000168700000,  -1.60000,
,,,0.000168710000,  -1.60000,
,,,0.000168720000,  -1.56000,
,,,0.000168730000,  -1.56000,
,,,0.000168740000,  -1.56000,
,,,0.000168750000,  -1.52000,
,,,0.000168760000,  -1.52000,
,,,0.000168770000,  -1.52000,
,,,0.000168780000,  -1.48000,
,,,0.000168790000,  -1.48000,
,,,0.000168800000,  -1.48000,
,,,0.000168810000,  -1.44000,
,,,0.000168820000,  -1.44000,
,,,0.000168830000,  -1.44000,
,,,0.000168840000,  -1.44000,
,,,0.000168850000,  -1.40000,
,,,0.000168860000,  -1.40000,
,,,0.000168870000,  -1.40000,
,,,0.000168880000,  -1.36000,
,,,0.000168890000,  -1.36000,
,,,0.000168900000,  -1.36000,
,,,0.000168910000,  -1.32000,
,,,0.000168920000,  -1.32000,
,,,0.000168930000,  -1.32000,
,,,0.000168940000,  -1.28000,
,,,0.000168950000,  -1.28000,
,,,0.000168960000,  -1.28000,
,,,0.000168970000,  -1.28000,
,,,0.000168980000,  -1.24000,
,,,0.000168990000,  -1.24000,
,,,0.000169000000,  -1.20000,
,,,0.000169010000,  -1.20000,
,,,0.000169020000,  -1.20000,
,,,0.000169030000,  -1.20000,
,,,0.000169040000,  -1.16000,
,,,0.000169050000,  -1.16000,
,,,0.000169060000,  -1.12000,
,,,0.000169070000,  -1.12000,
,,,0.000169080000,  -1.12000,
,,,0.000169090000,  -1.08000,
,,,0.000169100000,  -1.08000,
,,,0.000169110000,  -1.08000,
,,,0.000169120000,  -1.04000,
,,,0.000169130000,  -1.04000,
,,,0.000169140000,  -1.04000,
,,,0.000169150000,  -1.00000,
,,,0.000169160000,  -1.00000,
,,,0.000169170000,  -1.00000,
,,,0.000169180000,  -0.96000,
,,,0.000169190000,  -0.96000,
,,,0.000169200000,  -0.96000,
,,,0.000169210000,  -0.92000,
,,,0.000169220000,  -0.92000,
,,,0.000169230000,  -0.88000,
,,,0.000169240000,  -0.88000,
,,,0.000169250000,  -0.88000,
,,,0.000169260000,  -0.84000,
,,,0.000169270000,  -0.84000,
,,,0.000169280000,  -0.84000,
,,,0.000169290000,  -0.80000,
,,,0.000169300000,  -0.80000,
,,,0.000169310000,  -0.80000,
,,,0.000169320000,  -0.76000,
,,,0.000169330000,  -0.76000,
,,,0.000169340000,  -0.72000,
,,,0.000169350000,  -0.72000,
,,,0.000169360000,  -0.72000,
,,,0.000169370000,  -0.68000,
,,,0.000169380000,  -0.68000,
,,,0.000169390000,  -0.68000,
,,,0.000169400000,  -0.64000,
,,,0.000169410000,  -0.64000,
,,,0.000169420000,  -0.60000,
,,,0.000169430000,  -0.60000,
,,,0.000169440000,  -0.60000,
,,,0.000169450000,  -0.56000,
,,,0.000169460000,  -0.56000,
,,,0.000169470000,  -0.52000,
,,,0.000169480000,  -0.52000,
,,,0.000169490000,  -0.52000,
,,,0.000169500000,  -0.48000,
,,,0.000169510000,  -0.48000,
,,,0.000169520000,  -0.44000,
,,,0.000169530000,  -0.44000,
,,,0.000169540000,  -0.44000,
,,,0.000169550000,  -0.40000,
,,,0.000169560000,  -0.40000,
,,,0.000169570000,  -0.40000,
,,,0.000169580000,  -0.36000,
,,,0.000169590000,  -0.36000,
,,,0.000169600000,  -0.36000,
,,,0.000169610000,  -0.32000,
,,,0.000169620000,  -0.32000,
,,,0.000169630000,  -0.28000,
