lab2/exp7/data/F0028CH2.CSV

Record Length,2.500000e+03,,   0.000163100000,   0.22800,
Sample Interval,1.000000e-08,,   0.000163110000,   0.22800,
Trigger Point,-1.631000000000e+04,,   0.000163120000,   0.22400,
,,,   0.000163130000,   0.22400,
,,,   0.000163140000,   0.22400,
,,,   0.000163150000,   0.22400,
Source,CH2,,   0.000163160000,   0.22400,
Vertical Units,V,,   0.000163170000,   0.22000,
Vertical Scale,1.000000e-01,,   0.000163180000,   0.22000,
Vertical Offset,0.000000e+00,,   0.000163190000,   0.22000,
Horizontal Units,s,,   0.000163200000,   0.22000,
Horizontal Scale,2.500000e-06,,   0.000163210000,   0.21600,
Pt Fmt,Y,,   0.000163220000,   0.21600,
Yzero,0.000000e+00,,   0.000163230000,   0.21600,
Probe Atten,1.000000e+00,,   0.000163240000,   0.21600,
Model Number,TDS2002C,,   0.000163250000,   0.21600,
Serial Number,C012054,,   0.000163260000,   0.21200,
Firmware Version,FV:v24.09,,   0.000163270000,   0.21200,
,,,0.000163280000,   0.21200,
,,,0.000163290000,   0.21200,
,,,0.000163300000,   0.20800,
,,,0.000163310000,   0.20800,
,,,0.000163320000,   0.20800,
,,,0.000163330000,   0.20800,
,,,0.000163340000,   0.20400,
,,,0.000163350000,   0.20400,
,,,0.000163360000,   0.20400,
,,,0.000163370000,   0.20400,
,,,0.000163380000,   0.20000,
,,,0.000163390000,   0.20000,
,,,0.000163400000,   0.20000,
,,,0.000163410000,   0.20000,
,,,0.000163420000,   0.19600,
,,,0.000163430000,   0.19600,
,,,0.000163440000,   0.19600,
,,,0.000163450000,   0.19600,
,,,0.000163460000,   0.19200,
,,,0.000163470000,   0.19200,
,,,0.000163480000,   0.19200,
,,,0.000163490000,   0.19200,
,,,0.000163500000,   0.18800,
,,,0.000163510000,   0.18800,
,,,0.000163520000,   0.18800,
,,,0.000163530000,   0.18400,
,,,0.000163540000,   0.18400,
,,,0.000163550000,   0.18400,
,,,0.000163560000,   0.18400,
,,,0.000163570000,   0.18000,
,,,0.000163580000,   0.18000,
,,,0.000163590000,   0.18000,
,,,0.000163600000,   0.17600,
,,,0.000163610000,   0.17600,
,,,0.000163620000,   0.17600,
,,,0.000163630000,   0.17200,
,,,0.000163640000,   0.17200,
,,,0.000163650000,   0.17200,
,,,0.000163660000,   0.16800,
,,,0.000163670000,   0.16800,
,,,0.000163680000,   0.16800,
,,,0.000163690000,   0.16800,
,,,0.000163700000,   0.16400,
,,,0.000163710000,   0.16400,
,,,0.000163720000,   0.16400,
,,,0.000163730000,   0.16000,
,,,0.000163740000,   0.16000,
,,,0.000163750000,   0.16000,
,,,0.000163760000,   0.15600,
,,,0.000163770000,   0.15600,
,,,0.000163780000,   0.15600,
,,,0.000163790000,   0.15200,
,,,0.000163800000,   0.15200,
,,,0.000163810000,   0.15200,
,,,0.000163820000,   0.14800,
,,,0.000163830000,   0.14800,
,,,0.000163840000,   0.14800,
,,,0.000163850000,   0.14800,
,,,0.000163860000,   0.14400,
,,,0.000163870000,   0.14400,
,,,0.000163880000,   0.14400,
,,,0.000163890000,   0.14000,
,,,0.000163900000,   0.14000,
,,,0.000163910000,   0.14000,
,,,0.000163920000,   0.13600,
,,,0.000163930000,   0.13600,
,,,0.000163940000,   0.13200,
,,,0.000163950000,   0.13200,
,,,0.000163960000,   0.13200,
,,,0.000163970000,   0.12800,
,,,0.000163980000,   0.12800,
,,,0.000163990000,   0.12800,
,,,0.000164000000,   0.12400,
,,,0.000164010000,   0.12400,
,,,0.000164020000,   0.12400,
,,,0.000164030000,   0.12000,
,,,0.000164040000,   0.12000,
,,,0.000164050000,   0.12000,
,,,0.000164060000,   0.11600,
,,,0.000164070000,   0.11600,
,,,0.000164080000,   0.11600,
,,,0.000164090000,   0.11200,
,,,0.000164100000,   0.11200,
,,,0.000164110000,   0.11200,
,,,0.000164120000,   0.10800,
,,,0.000164130000,   0.10800,
,,,0.000164140000,   0.10400,
,,,0.000164150000,   0.10400,
,,,0.000164160000,   0.10400,
,,,0.000164170000,   0.10000,
,,,0.000164180000,   0.10000,
,,,0.000164190000,   0.09600,
,,,0.000164200000,   0.09600,
,,,0.000164210000,   0.09600,
,,,0.000164220000,   0.09200,
,,,0.000164230000,   0.09200,
,,,0.000164240000,   0.08800,
,,,0.000164250000,   0.08800,
,,,0.000164260000,   0.08800,
,,,0.000164270000,   0.08400,
,,,0.000164280000,   0.08400,
,,,0.000164290000,   0.08400,
,,,0.000164300000,   0.08000,
,,,0.000164310000,   0.08000,
,,,0.000164320000,   0.07600,
,,,0.000164330000,   0.07600,
,,,0.000164340000,   0.07600,
,,,0.000164350000,   0.07200,
,,,0.000164360000,   0.07200,
,,,0.000164370000,   0.06800,
,,,0.000164380000,   0.06800,
,,,0.000164390000,   0.06800,
,,,0.000164400000,   0.06400,
,,,0.000164410000,   0.06400,
,,,0.000164420000,   0.06000,
,,,0.000164430000,   0.06000,
,,,0.000164440000,   0.06000,
,,,0.000164450000,   0.05600,
,,,0.000164460000,   0.05600,
,,,0.000164470000,   0.05600,
,,,0.000164480000,   0.05200,
,,,0.000164490000,   0.05200,
,,,0.000164500000,   0.05200,
,,,0.000164510000,   0.04800,
,,,0.000164520000,   0.04800,
,,,0.000164530000,   0.04400,
,,,0.000164540000,   0.04400,
,,,0.000164550000,   0.04000,
,,,0.000164560000,   0.04000,
,,,0.000164570000,   0.04000,
,,,0.000164580000,   0.03600,
,,,0.000164590000,   0.03600,
,,,0.000164600000,   0.03200,
,,,0.000164610000,   0.03200,
,,,0.000164620000,   0.03200,
,,,0.000164630000,   0.02800,
,,,0.000164640000,   0.02800,
,,,0.000164650000,   0.02400,
,,,0.000164660000,   0.02400,
,,,0.000164670000,   0.02400,
,,,0.000164680000,   0.02000,
,,,0.000164690000,   0.02000,
,,,0.000164700000,   0.01600,
,,,0.000164710000,   0.01600,
,,,0.000164720000,   0.01600,
,,,0.000164730000,   0.01200,
,,,0.000164740000,   0.01200,
,,,0.000164750000,   0.00800,
,,,0.000164760000,   0.00800,
,,,0.000164770000,   0.00400,
,,,0.000164780000,   0.00400,
,,,0.000164790000,   0.00400,
,,,0.000164800000,   0.00000,
,,,0.000164810000,   0.00000,
,,,0.000164820000,  -0.00400,
,,,0.000164830000,  -0.00400,
,,,0.000164840000,  -0.00400,
,,,0.000164850000,  -0.00800,
,,,0.000164860000,  -0.00800,
,,,0.000164870000,  -0.01200,
,,,0.000164880000,  -0.01200,
,,,0.000164890000,  -0.01200,
,,,0.000164900000,  -0.01600,
,,,0.000164910000,  -0.01600,
,,,0.000164920000,  -0.01600,
,,,0.000164930000,  -0.02000,
,,,0.000164940000,  -0.02000,
,,,0.000164950000,  -0.02400,
,,,0.000164960000,  -0.02400,
,,,0.000164970000,  -0.02400,
,,,0.000164980000,  -0.02800,
,,,0.000164990000,  -0.02800,
,,,0.000165000000,  -0.02800,
,,,0.000165010000,  -0.03200,
,,,0.000165020000,  -0.03200,
,,,0.000165030000,  -0.03600,
,,,0.000165040000,  -0.03600,
,,,0.000165050000,  -0.04000,
,,,0.000165060000,  -0.04000,
,,,0.000165070000,  -0.04000,
,,,0.000165080000,  -0.04400,
,,,0.000165090000,  -0.04400,
,,,0.000165100000,  -0.04800,
,,,0.000165110000,  -0.04800,
,,,0.000165120000,  -0.04800,
,,,0.000165130000,  -0.05200,
,,,0.000165140000,  -0.05200,
,,,0.000165150000,  -0.05200,
,,,0.000165160000,  -0.05600,
,,,0.000165170000,  -0.05600,
,,,0.000165180000,  -0.06000,
,,,0.000165190000,  -0.06000,
,,,0.000165200000,  -0.06400,
,,,0.000165210000,  -0.06400,
,,,0.000165220000,  -0.06800,
,,,0.000165230000,  -0.06800,
,,,0.000165240000,  -0.06800,
,,,0.000165250000,  -0.07200,
,,,0.000165260000,  -0.07200,
,,,0.000165270000,  -0.07200,
,,,0.000165280000,  -0.07600,
,,,0.000165290000,  -0.07600,
,,,0.000165300000,  -0.08000,
,,,0.000165310000,  -0.08000,
,,,0.000165320000,  -0.08000,
,,,0.000165330000,  -0.08400,
,,,0.000165340000,  -0.08400,
,,,0.000165350000,  -0.08400,
,,,0.000165360000,  -0.08800,
,,,0.000165370000,  -0.08800,
,,,0.000165380000,  -0.09200,
,,,0.000165390000,  -0.09200,
,,,0.000165400000,  -0.09200,
,,,0.000165410000,  -0.09600,
,,,0.000165420000,  -0.09600,
,,,0.000165430000,  -0.09600,
,,,0.000165440000,  -0.10000,
,,,0.000165450000,  -0.10000,
,,,0.000165460000,  -0.10000,
,,,0.000165470000,  -0.10400,
,,,0.000165480000,  -0.10400,
,,,0.000165490000,  -0.10800,
,,,0.000165500000,  -0.10800,
,,,0.000165510000,  -0.10800,
,,,0.000165520000,  -0.11200,
,,,0.000165530000,  -0.11200,
,,,0.000165540000,  -0.11200,
,,,0.000165550000,  -0.11600,
,,,0.000165560000,  -0.11600,
,,,0.000165570000,  -0.11600,
,,,0.000165580000,  -0.12000,
,,,0.000165590000,  -0.12000,
,,,0.000165600000,  -0.12000,
,,,0.000165610000,  -0.12400,
,,,0.000165620000,  -0.12400,
,,,0.000165630000,  -0.12400,
,,,0.000165640000,  -0.12800,
,,,0.000165650000,  -0.12800,
,,,0.000165660000,  -0.13200,
,,,0.000165670000,  -0.13200,
,,,0.000165680000,  -0.13200,
,,,0.000165690000,  -0.13600,
,,,0.000165700000,  -0.13600,
,,,0.000165710000,  -0.13600,
,,,0.000165720000,  -0.14000,
,,,0.000165730000,  -0.14000,
,,,0.000165740000,  -0.14000,
,,,0.000165750000,  -0.14400,
,,,0.000165760000,  -0.14400,
,,,0.000165770000,  -0.14400,
,,,0.000165780000,  -0.14800,
,,,0.000165790000,  -0.14800,
,,,0.000165800000,  -0.15200,
,,,0.000165810000,  -0.15200,
,,,0.000165820000,  -0.15200,
,,,0.000165830000,  -0.15200,
,,,0.000165840000,  -0.15600,
,,,0.000165850000,  -0.15600,
,,,0.000165860000,  -0.15600,
,,,0.000165870000,  -0.16000,
,,,0.000165880000,  -0.16000,
,,,0.000165890000,  -0.16000,
,,,0.000165900000,  -0.16400,
,,,0.000165910000,  -0.16400,
,,,0.000165920000,  -0.16400,
,,,0.000165930000,  -0.16800,
,,,0.000165940000,  -0.16800,
,,,0.000165950000,  -0.16800,
,,,0.000165960000,  -0.16800,
,,,0.000165970000,  -0.17200,
,,,0.000165980000,  -0.17200,
,,,0.000165990000,  -0.17200,
,,,0.000166000000,  -0.17200,
,,,0.000166010000,  -0.17600,
,,,0.000166020000,  -0.17600,
,,,0.000166030000,  -0.17600,
,,,0.000166040000,  -0.18000,
,,,0.000166050000,  -0.18000,
,,,0.000166060000,  -0.18000,
,,,0.000166070000,  -0.18000,
,,,0.000166080000,  -0.18400,
,,,0.000166090000,  -0.18400,
,,,0.000166100000,  -0.18400,
,,,0.000166110000,  -0.18800,
,,,0.000166120000,  -0.18800,
,,,0.000166130000,  -0.18800,
,,,0.000166140000,  -0.18800,
,,,0.000166150000,  -0.19200,
,,,0.000166160000,  -0.19200,
,,,0.000166170000,  -0.19200,
,,,0.000166180000,  -0.19600,
,,,0.000166190000,  -0.19200,
,,,0.000166200000,  -0.19600,
,,,0.000166210000,  -0.19600,
,,,0.000166220000,  -0.19600,
,,,0.000166230000,  -0.20000,
,,,0.000166240000,  -0.20000,
,,,0.000166250000,  -0.20000,
,,,0.000166260000,  -0.20400,
,,,0.000166270000,  -0.20400,
,,,0.000166280000,  -0.20400,
,,,0.000166290000,  -0.20400,
,,,0.000166300000,  -0.20800,
,,,0.000166310000,  -0.20800,
,,,0.000166320000,  -0.20800,
,,,0.000166330000,  -0.20800,
,,,0.000166340000,  -0.20800,
,,,0.000166350000,  -0.21200,
,,,0.000166360000,  -0.21200,
,,,0.000166370000,  -0.21200,
,,,0.000166380000,  -0.21600,
,,,0.000166390000,  -0.21600,
,,,0.000166400000,  -0.21600,
,,,0.000166410000,  -0.21600,
,,,0.000166420000,  -0.21600,
,,,0.000166430000,  -0.22000,
,,,0.000166440000,  -0.22000,
,,,0.000166450000,  -0.22000,
,,,0.000166460000,  -0.22000,
,,,0.000166470000,  -0.22000,
,,,0.000166480000,  -0.22400,
,,,0.000166490000,  -0.22400,
,,,0.000166500000,  -0.22400,
,,,0.000166510000,  -0.22400,
,,,0.000166520000,  -0.22400,
,,,0.000166530000,  -0.22400,
,,,0.000166540000,  -0.22800,
,,,0.000166550000,  -0.22800,
,,,0.000166560000,  -0.22800,
,,,0.000166570000,  -0.22800,
,,,0.000166580000,  -0.22800,
,,,0.000166590000,  -0.22800,
,,,0.000166600000,  -0.23200,
,,,0.000166610000,  -0.23200,
,,,0.000166620000,  -0.23200,
,,,0.000166630000,  -0.23200,
,,,0.000166640000,  -0.23200,
,,,0.000166650000,  -0.23200,
,,,0.000166660000,  -0.23600,
,,,0.000166670000,  -0.23600,
,,,0.000166680000,  -0.23600,
,,,0.000166690000,  -0.23600,
,,,0.000166700000,  -0.23600,
,,,0.000166710000,  -0.24000,
,,,0.000166720000,  -0.24000,
,,,0.000166730000,  -0.24000,
,,,0.000166740000,  -0.24000,
,,,0.000166750000,  -0.24000,
,,,0.000166760000,  -0.24000,
,,,0.000166770000,  -0.24000,
,,,0.000166780000,  -0.24000,
,,,0.000166790000,  -0.24400,
,,,0.000166800000,  -0.24400,
,,,0.000166810000,  -0.24400,
,,,0.000166820000,  -0.24400,
,,,0.000166830000,  -0.24400,
,,,0.000166840000,  -0.24400,
,,,0.000166850000,  -0.24400,
,,,0.000166860000,  -0.24800,
,,,0.000166870000,  -0.24800,
,,,0.000166880000,  -0.24800,
,,,0.000166890000,  -0.24800,
,,,0.000166900000,  -0.24800,
,,,0.000166910000,  -0.24800,
,,,0.000166920000,  -0.24800,
,,,0.000166930000,  -0.24800,
,,,0.000166940000,  -0.25200,
,,,0.000166950000,  -0.24800,
,,,0.000166960000,  -0.24800,
,,,0.000166970000,  -0.25200,
,,,0.000166980000,  -0.25200,
,,,0.000166990000,  -0.25200,
,,,0.000167000000,  -0.25200,
,,,0.000167010000,  -0.25200,
,,,0.000167020000,  -0.25200,
,,,0.000167030000,  -0.25200,
,,,0.000167040000,  -0.25200,
,,,0.000167050000,  -0.25200,
,,,0.000167060000,  -0.25200,
,,,0.000167070000,  -0.25200,
,,,0.000167080000,  -0.25200,
,,,0.000167090000,  -0.25200,
,,,0.000167100000,  -0.25200,
,,,0.000167110000,  -0.25200,
,,,0.000167120000,  -0.25200,
,,,0.000167130000,  -0.25200,
,,,0.000167140000,  -0.25600,
,,,0.000167150000,  -0.25200,
,,,0.000167160000,  -0.25200,
,,,0.000167170000,  -0.25600,
,,,0.000167180000,  -0.25200,
,,,0.000167190000,  -0.25600,
,,,0.000167200000,  -0.25600,
,,,0.000167210000,  -0.25200,
,,,0.000167220000,  -0.25600,
,,,0.000167230000,  -0.25600,
,,,0.000167240000,  -0.25600,
,,,0.000167250000,  -0.25600,
,,,0.000167260000,  -0.25600,
,,,0.000167270000,  -0.25600,
,,,0.000167280000,  -0.25600,
,,,0.000167290000,  -0.25600,
,,,0.000167300000,  -0.25600,
,,,0.000167310000,  -0.25600,
,,,0.000167320000,  -0.25600,
,,,0.000167330000,  -0.25600,
,,,0.000167340000,  -0.25600,
,,,0.000167350000,  -0.25600,
,,,0.000167360000,  -0.25600,
,,,0.000167370000,  -0.25600,
,,,0.000167380000,  -0.25600,
,,,0.000167390000,  -0.25600,
,,,0.000167400000,  -0.25600,
,,,0.000167410000,  -0.25600,
,,,0.000167420000,  -0.25600,
,,,0.000167430000,  -0.25600,
,,,0.000167440000,  -0.25600,
,,,0.000167450000,  -0.25600,
,,,0.000167460000,  -0.25600,
,,,0.000167470000,  -0.25600,
,,,0.000167480000,  -0.25600,
,,,0.000167490000,  -0.25200,
,,,0.000167500000,  -0.25600,
,,,0.000167510000,  -0.25200,
,,,0.000167520000,  -0.25200,
,,,0.000167530000,  -0.25200,
,,,0.000167540000,  -0.25200,
,,,0.000167550000,  -0.25200,
,,,0.000167560000,  -0.25200,
,,,0.000167570000,  -0.25200,
,,,0.000167580000,  -0.25200,
,,,0.000167590000,  -0.25200,
,,,0.000167600000,  -0.25200,
,,,0.000167610000,  -0.24800,
,,,0.000167620000,  -0.25200,
,,,0.000167630000,  -0.25200,
,,,0.000167640000,  -0.24800,
,,,0.000167650000,  -0.24800,
,,,0.000167660000,  -0.24800,
,,,0.000167670000,  -0.24800,
,,,0.000167680000,  -0.24800,
,,,0.000167690000,  -0.24800,
,,,0.000167700000,  -0.24800,
,,,0.000167710000,  -0.24800,
,,,0.000167720000,  -0.24400,
,,,0.000167730000,  -0.24800,
,,,0.000167740000,  -0.24400,
,,,0.000167750000,  -0.24400,
,,,0.000167760000,  -0.24400,
,,,0.000167770000,  -0.24400,
,,,0.000167780000,  -0.24400,
,,,0.000167790000,  -0.24400,
,,,0.000167800000,  -0.24400,
,,,0.000167810000,  -0.24400,
,,,0.000167820000,  -0.24000,
,,,0.000167830000,  -0.24400,
,,,0.000167840000,  -0.24000,
,,,0.000167850000,  -0.24000,
,,,0.000167860000,  -0.24000,
,,,0.000167870000,  -0.24000,
,,,0.000167880000,  -0.24000,
,,,0.000167890000,  -0.24000,
,,,0.000167900000,  -0.24000,
,,,0.000167910000,  -0.23600,
,,,0.000167920000,  -0.23600,
,,,0.000167930000,  -0.23600,
,,,0.000167940000,  -0.23600,
,,,0.000167950000,  -0.23600,
,,,0.000167960000,  -0.23600,
,,,0.000167970000,  -0.23200,
,,,0.000167980000,  -0.23200,
,,,0.000167990000,  -0.23200,
,,,0.000168000000,  -0.23200,
,,,0.000168010000,  -0.23200,
,,,0.000168020000,  -0.22800,
,,,0.000168030000,  -0.22800,
,,,0.000168040000,  -0.22800,
,,,0.000168050000,  -0.22800,
,,,0.000168060000,  -0.22800,
,,,0.000168070000,  -0.22400,
,,,0.000168080000,  -0.22400,
,,,0.000168090000,  -0.22400,
,,,0.000168100000,  -0.22400,
,,,0.000168110000,  -0.22400,
,,,0.000168120000,  -0.22000,
,,,0.000168130000,  -0.22000,
,,,0.000168140000,  -0.22000,
,,,0.000168150000,  -0.22000,
,,,0.000168160000,  -0.22000,
,,,0.000168170000,  -0.21600,
,,,0.000168180000,  -0.21600,
,,,0.000168190000,  -0.21600,
,,,0.000168200000,  -0.21600,
,,,0.000168210000,  -0.21600,
,,,0.000168220000,  -0.21200,
,,,0.000168230000,  -0.21200,
,,,0.000168240000,  -0.21200,
,,,0.000168250000,  -0.21200,
,,,0.000168260000,  -0.21200,
,,,0.000168270000,  -0.20800,
,,,0.000168280000,  -0.20800,
,,,0.000168290000,  -0.20800,
,,,0.000168300000,  -0.20400,
,,,0.000168310000,  -0.20400,
,,,0.000168320000,  -0.20400,
,,,0.000168330000,  -0.20400,
,,,0.000168340000,  -0.20400,
,,,0.000168350000,  -0.20000,
,,,0.000168360000,  -0.20000,
,,,0.000168370000,  -0.20000,
,,,0.000168380000,  -0.20000,
,,,0.000168390000,  -0.19600,
,,,0.000168400000,  -0.19600,
,,,0.000168410000,  -0.19600,
,,,0.000168420000,  -0.19600,
,,,0.000168430000,  -0.19200,
,,,0.000168440000,  -0.19200,
,,,0.000168450000,  -0.19200,
,,,0.000168460000,  -0.19200,
,,,0.000168470000,  -0.18800,
,,,0.000168480000,  -0.18800,
,,,0.000168490000,  -0.18800,
,,,0.000168500000,  -0.18400,
,,,0.000168510000,  -0.18400,
,,,0.000168520000,  -0.18400,
,,,0.000168530000,  -0.18400,
,,,0.000168540000,  -0.18000,
,,,0.000168550000,  -0.18000,
,,,0.000168560000,  -0.18000,
,,,0.000168570000,  -0.17600,
,,,0.000168580000,  -0.17600,
,,,0.000168590000,  -0.17600,
,,,0.000168600000,  -0.17600,
,,,0.000168610000,  -0.17200,
,,,0.000168620000,  -0.17200,
,,,0.000168630000,  -0.17200,
,,,0.000168640000,  -0.16800,
,,,0.000168650000,  -0.16800,
,,,0.000168660000,  -0.16800,
,,,0.000168670000,  -0.16400,
,,,0.000168680000,  -0.16400,
,,,0.000168690000,  -0.16400,
,,,0.000168700000,  -0.16000,
,,,0.000168710000,  -0.16000,
,,,0.000168720000,  -0.16000,
,,,0.000168730000,  -0.15600,
,,,0.000168740000,  -0.15600,
,,,0.000168750000,  -0.15600,
,,,0.000168760000,  -0.15200,
,,,0.000168770000,  -0.15200,
,,,0.000168780000,  -0.15200,
,,,0.000168790000,  -0.15200,
,,,0.000168800000,  -0.14800,
,,,0.000168810000,  -0.14800,
,,,0.000168820000,  -0.14800,
,,,0.000168830000,  -0.14400,
,,,0.000168840000,  -0.14400,
,,,0.000168850000,  -0.14400,
,,,0.000168860000,  -0.14000,
,,,0.000168870000,  -0.14000,
,,,0.000168880000,  -0.14000,
,,,0.000168890000,  -0.13600,
,,,0.000168900000,  -0.13600,
,,,0.000168910000,  -0.13600,
,,,0.000168920000,  -0.13600,
,,,0.000168930000,  -0.13200,
,,,0.000168940000,  -0.13200,
,,,0.000168950000,  -0.12800,
,,,0.000168960000,  -0.12800,
,,,0.000168970000,  -0.12800,
,,,0.000168980000,  -0.12400,
,,,0.000168990000,  -0.12400,
,,,0.000169000000,  -0.12400,
,,,0.000169010000,  -0.12000,
,,,0.000169020000,  -0.12000,
,,,0.000169030000,  -0.12000,
,,,0.000169040000,  -0.11600,
,,,0.000169050000,  -0.11600,
,,,0.000169060000,  -0.11200,
,,,0.000169070000,  -0.11200,
,,,0.000169080000,  -0.11200,
,,,0.000169090000,  -0.10800,
,,,0.000169100000,  -0.10800,
,,,0.000169110000,  -0.10800,
,,,0.000169120000,  -0.10400,
,,,0.000169130000,  -0.10400,
,,,0.000169140000,  -0.10000,
,,,0.000169150000,  -0.10000,
,,,0.000169160000,  -0.10000,
,,,0.000169170000,  -0.09600,
,,,0.000169180000,  -0.09600,
,,,0.000169190000,  -0.09600,
,,,0.000169200000,  -0.09200,
,,,0.000169210000,  -0.09200,
,,,0.000169220000,  -0.09200,
,,,0.000169230000,  -0.08800,
,,,0.000169240000,  -0.08800,
,,,0.000169250000,  -0.08400,
,,,0.000169260000,  -0.08400,
,,,0.000169270000,  -0.08400,
,,,0.000169280000,  -0.08000,
,,,0.000169290000,  -0.08000,
,,,0.000169300000,  -0.07600,
,,,0.000169310000,  -0.07600,
,,,0.000169320000,  -0.07600,
,,,0.000169330000,  -0.07200,
,,,0.000169340000,  -0.07200,
,,,0.000169350000,  -0.07200,
,,,0.000169360000,  -0.06800,
,,,0.000169370000,  -0.06800,
,,,0.000169380000,  -0.06400,
,,,0.000169390000,  -0.06400,
,,,0.000169400000,  -0.06400,
,,,0.000169410000,  -0.06000,
,,,0.000169420000,  -0.06000,
,,,0.000169430000,  -0.06000,
,,,0.000169440000,  -0.05600,
,,,0.000169450000,  -0.05600,
,,,0.000169460000,  -0.05200,
,,,0.000169470000,  -0.05200,
,,,0.000169480000,  -0.05200,
,,,0.000169490000,  -0.04800,
,,,0.000169500000,  -0.04800,
,,,0.000169510000,  -0.04400,
,,,0.000169520000,  -0.04400,
,,,0.000169530000,  -0.04400,
,,,0.000169540000,  -0.04000,
,,,0.000169550000,  -0.04000,
,,,0.000169560000,  -0.03600,
,,,0.000169570000,  -0.03600,
,,,0.000169580000,  -0.03600,
,,,0.000169590000,  -0.03200,
,,,0.000169600000,  -0.03200,
,,,0.000169610000,  -0.02800,
,,,0.000169620000,  -0.02800,
,,,0.000169630000,  -0.02800,
