lab2/exp7/data/F0039CH2.CSV

Record Length,2.500000e+03,,   0.000125600000,   0.16800,
Sample Interval,4.000000e-08,,   0.000125640000,   0.16800,
Trigger Point,-3.140000000000e+03,,   0.000125680000,   0.17200,
,,,   0.000125720000,   0.17200,
,,,   0.000125760000,   0.17200,
,,,   0.000125800000,   0.17200,
Source,CH2,,   0.000125840000,   0.17600,
Vertical Units,V,,   0.000125880000,   0.17600,
Vertical Scale,1.000000e-01,,   0.000125920000,   0.17600,
Vertical Offset,0.000000e+00,,   0.000125960000,   0.17600,
Horizontal Units,s,,   0.000126000000,   0.17600,
Horizontal Scale,1.000000e-05,,   0.000126040000,   0.18000,
Pt Fmt,Y,,   0.000126080000,   0.18000,
Yzero,0.000000e+00,,   0.000126120000,   0.18000,
Probe Atten,1.000000e+00,,   0.000126160000,   0.18000,
Model Number,TDS2002C,,   0.000126200000,   0.18400,
Serial Number,C012054,,   0.000126240000,   0.18400,
Firmware Version,FV:v24.09,,   0.000126280000,   0.18400,
,,,0.000126320000,   0.18400,
,,,0.000126360000,   0.18400,
,,,0.000126400000,   0.18800,
,,,0.000126440000,   0.18800,
,,,0.000126480000,   0.18800,
,,,0.000126520000,   0.18800,
,,,0.000126560000,   0.18800,
,,,0.000126600000,   0.19200,
,,,0.000126640000,   0.19200,
,,,0.000126680000,   0.19200,
,,,0.000126720000,   0.19200,
,,,0.000126760000,   0.19600,
,,,0.000126800000,   0.19600,
,,,0.000126840000,   0.19600,
,,,0.000126880000,   0.19600,
,,,0.000126920000,   0.19600,
,,,0.000126960000,   0.19600,
,,,0.000127000000,   0.20000,
,,,0.000127040000,   0.20000,
,,,0.000127080000,   0.20000,
,,,0.000127120000,   0.20000,
,,,0.000127160000,   0.20000,
,,,0.000127200000,   0.20400,
,,,0.000127240000,   0.20400,
,,,0.000127280000,   0.20400,
,,,0.000127320000,   0.20400,
,,,0.000127360000,   0.20400,
,,,0.000127400000,   0.20400,
,,,0.000127440000,   0.20800,
,,,0.000127480000,   0.20800,
,,,0.000127520000,   0.20800,
,,,0.000127560000,   0.20800,
,,,0.000127600000,   0.20800,
,,,0.000127640000,   0.20800,
,,,0.000127680000,   0.21200,
,,,0.000127720000,   0.21200,
,,,0.000127760000,   0.21200,
,,,0.000127800000,   0.21200,
,,,0.000127840000,   0.21200,
,,,0.000127880000,   0.21200,
,,,0.000127920000,   0.21200,
,,,0.000127960000,   0.21600,
,,,0.000128000000,   0.21600,
,,,0.000128040000,   0.21600,
,,,0.000128080000,   0.21600,
,,,0.000128120000,   0.21600,
,,,0.000128160000,   0.21600,
,,,0.000128200000,   0.21600,
,,,0.000128240000,   0.21600,
,,,0.000128280000,   0.22000,
,,,0.000128320000,   0.22000,
,,,0.000128360000,   0.22000,
,,,0.000128400000,   0.22000,
,,,0.000128440000,   0.22000,
,,,0.000128480000,   0.22000,
,,,0.000128520000,   0.22000,
,,,0.000128560000,   0.22000,
,,,0.000128600000,   0.22000,
,,,0.000128640000,   0.22400,
,,,0.000128680000,   0.22400,
,,,0.000128720000,   0.22400,
,,,0.000128760000,   0.22400,
,,,0.000128800000,   0.22400,
,,,0.000128840000,   0.22400,
,,,0.000128880000,   0.22400,
,,,0.000128920000,   0.22400,
,,,0.000128960000,   0.22400,
,,,0.000129000000,   0.22400,
,,,0.000129040000,   0.22400,
,,,0.000129080000,   0.22800,
,,,0.000129120000,   0.22800,
,,,0.000129160000,   0.22800,
,,,0.000129200000,   0.22800,
,,,0.000129240000,   0.22800,
,,,0.000129280000,   0.22800,
,,,0.000129320000,   0.22800,
,,,0.000129360000,   0.22800,
,,,0.000129400000,   0.22800,
,,,0.000129440000,   0.22800,
,,,0.000129480000,   0.22800,
,,,0.000129520000,   0.22800,
,,,0.000129560000,   0.22800,
,,,0.000129600000,   0.22800,
,,,0.000129640000,   0.22800,
,,,0.000129680000,   0.23200,
,,,0.000129720000,   0.23200,
,,,0.000129760000,   0.23200,
,,,0.000129800000,   0.23200,
,,,0.000129840000,   0.23200,
,,,0.000129880000,   0.23200,
,,,0.000129920000,   0.23200,
,,,0.000129960000,   0.23200,
,,,0.000130000000,   0.23200,
,,,0.000130040000,   0.23200,
,,,0.000130080000,   0.23200,
,,,0.000130120000,   0.23200,
,,,0.000130160000,   0.23200,
,,,0.000130200000,   0.23200,
,,,0.000130240000,   0.23200,
,,,0.000130280000,   0.23200,
,,,0.000130320000,   0.23200,
,,,0.000130360000,   0.23200,
,,,0.000130400000,   0.23200,
,,,0.000130440000,   0.23200,
,,,0.000130480000,   0.23200,
,,,0.000130520000,   0.23200,
,,,0.000130560000,   0.23200,
,,,0.000130600000,   0.23200,
,,,0.000130640000,   0.23200,
,,,0.000130680000,   0.23200,
,,,0.000130720000,   0.23200,
,,,0.000130760000,   0.23200,
,,,0.000130800000,   0.23200,
,,,0.000130840000,   0.23200,
,,,0.000130880000,   0.23200,
,,,0.000130920000,   0.23200,
,,,0.000130960000,   0.23200,
,,,0.000131000000,   0.23200,
,,,0.000131040000,   0.23200,
,,,0.000131080000,   0.23200,
,,,0.000131120000,   0.23200,
,,,0.000131160000,   0.23200,
,,,0.000131200000,   0.23200,
,,,0.000131240000,   0.23200,
,,,0.000131280000,   0.22800,
,,,0.000131320000,   0.22800,
,,,0.000131360000,   0.22800,
,,,0.000131400000,   0.22800,
,,,0.000131440000,   0.22800,
,,,0.000131480000,   0.22800,
,,,0.000131520000,   0.22800,
,,,0.000131560000,   0.22800,
,,,0.000131600000,   0.22800,
,,,0.000131640000,   0.22800,
,,,0.000131680000,   0.22800,
,,,0.000131720000,   0.22800,
,,,0.000131760000,   0.22800,
,,,0.000131800000,   0.22800,
,,,0.000131840000,   0.22800,
,,,0.000131880000,   0.22800,
,,,0.000131920000,   0.22400,
,,,0.000131960000,   0.22400,
,,,0.000132000000,   0.22400,
,,,0.000132040000,   0.22400,
,,,0.000132080000,   0.22400,
,,,0.000132120000,   0.22400,
,,,0.000132160000,   0.22400,
,,,0.000132200000,   0.22400,
,,,0.000132240000,   0.22400,
,,,0.000132280000,   0.22000,
,,,0.000132320000,   0.22000,
,,,0.000132360000,   0.22000,
,,,0.000132400000,   0.22000,
,,,0.000132440000,   0.22000,
,,,0.000132480000,   0.22000,
,,,0.000132520000,   0.22000,
,,,0.000132560000,   0.22000,
,,,0.000132600000,   0.22000,
,,,0.000132640000,   0.22000,
,,,0.000132680000,   0.21600,
,,,0.000132720000,   0.21600,
,,,0.000132760000,   0.21600,
,,,0.000132800000,   0.21600,
,,,0.000132840000,   0.21600,
,,,0.000132880000,   0.21600,
,,,0.000132920000,   0.21600,
,,,0.000132960000,   0.21200,
,,,0.000133000000,   0.21200,
,,,0.000133040000,   0.21200,
,,,0.000133080000,   0.21200,
,,,0.000133120000,   0.21200,
,,,0.000133160000,   0.21200,
,,,0.000133200000,   0.21200,
,,,0.000133240000,   0.20800,
,,,0.000133280000,   0.20800,
,,,0.000133320000,   0.20800,
,,,0.000133360000,   0.20800,
,,,0.000133400000,   0.20800,
,,,0.000133440000,   0.20800,
,,,0.000133480000,   0.20800,
,,,0.000133520000,   0.20400,
,,,0.000133560000,   0.20400,
,,,0.000133600000,   0.20400,
,,,0.000133640000,   0.20400,
,,,0.000133680000,   0.20400,
,,,0.000133720000,   0.20000,
,,,0.000133760000,   0.20000,
,,,0.000133800000,   0.20000,
,,,0.000133840000,   0.20000,
,,,0.000133880000,   0.20000,
,,,0.000133920000,   0.20000,
,,,0.000133960000,   0.19600,
,,,0.000134000000,   0.19600,
,,,0.000134040000,   0.19600,
,,,0.000134080000,   0.19600,
,,,0.000134120000,   0.19200,
,,,0.000134160000,   0.19200,
,,,0.000134200000,   0.19200,
,,,0.000134240000,   0.19200,
,,,0.000134280000,   0.19200,
,,,0.000134320000,   0.18800,
,,,0.000134360000,   0.18800,
,,,0.000134400000,   0.18800,
,,,0.000134440000,   0.18800,
,,,0.000134480000,   0.18800,
,,,0.000134520000,   0.18800,
,,,0.000134560000,   0.18400,
,,,0.000134600000,   0.18400,
,,,0.000134640000,   0.18400,
,,,0.000134680000,   0.18400,
,,,0.000134720000,   0.18000,
,,,0.000134760000,   0.18000,
,,,0.000134800000,   0.18000,
,,,0.000134840000,   0.18000,
,,,0.000134880000,   0.18000,
,,,0.000134920000,   0.17600,
,,,0.000134960000,   0.17600,
,,,0.000135000000,   0.17600,
,,,0.000135040000,   0.17200,
,,,0.000135080000,   0.17200,
,,,0.000135120000,   0.17200,
,,,0.000135160000,   0.17200,
,,,0.000135200000,   0.17200,
,,,0.000135240000,   0.16800,
,,,0.000135280000,   0.16800,
,,,0.000135320000,   0.16800,
,,,0.000135360000,   0.16400,
,,,0.000135400000,   0.16400,
,,,0.000135440000,   0.16400,
,,,0.000135480000,   0.16400,
,,,0.000135520000,   0.16400,
,,,0.000135560000,   0.16000,
,,,0.000135600000,   0.16000,
,,,0.000135640000,   0.16000,
,,,0.000135680000,   0.16000,
,,,0.000135720000,   0.15600,
,,,0.000135760000,   0.15600,
,,,0.000135800000,   0.15600,
,,,0.000135840000,   0.15200,
,,,0.000135880000,   0.15200,
,,,0.000135920000,   0.15200,
,,,0.000135960000,   0.15200,
,,,0.000136000000,   0.14800,
,,,0.000136040000,   0.14800,
,,,0.000136080000,   0.14800,
,,,0.000136120000,   0.14800,
,,,0.000136160000,   0.14400,
,,,0.000136200000,   0.14400,
,,,0.000136240000,   0.14400,
,,,0.000136280000,   0.14000,
,,,0.000136320000,   0.14000,
,,,0.000136360000,   0.14000,
,,,0.000136400000,   0.13600,
,,,0.000136440000,   0.13600,
,,,0.000136480000,   0.13600,
,,,0.000136520000,   0.13600,
,,,0.000136560000,   0.13200,
,,,0.000136600000,   0.13200,
,,,0.000136640000,   0.13200,
,,,0.000136680000,   0.12800,
,,,0.000136720000,   0.12800,
,,,0.000136760000,   0.12800,
,,,0.000136800000,   0.12400,
,,,0.000136840000,   0.12400,
,,,0.000136880000,   0.12400,
,,,0.000136920000,   0.12400,
,,,0.000136960000,   0.12000,
,,,0.000137000000,   0.12000,
,,,0.000137040000,   0.12000,
,,,0.000137080000,   0.11600,
,,,0.000137120000,   0.11600,
,,,0.000137160000,   0.11600,
,,,0.000137200000,   0.11200,
,,,0.000137240000,   0.11200,
,,,0.000137280000,   0.11200,
,,,0.000137320000,   0.11200,
,,,0.000137360000,   0.10800,
,,,0.000137400000,   0.10800,
,,,0.000137440000,   0.10800,
,,,0.000137480000,   0.10400,
,,,0.000137520000,   0.10400,
,,,0.000137560000,   0.10400,
,,,0.000137600000,   0.10000,
,,,0.000137640000,   0.10000,
,,,0.000137680000,   0.10000,
,,,0.000137720000,   0.09600,
,,,0.000137760000,   0.09600,
,,,0.000137800000,   0.09600,
,,,0.000137840000,   0.09200,
,,,0.000137880000,   0.09200,
,,,0.000137920000,   0.09200,
,,,0.000137960000,   0.08800,
,,,0.000138000000,   0.08800,
,,,0.000138040000,   0.08800,
,,,0.000138080000,   0.08400,
,,,0.000138120000,   0.08400,
,,,0.000138160000,   0.08400,
,,,0.000138200000,   0.08000,
,,,0.000138240000,   0.08000,
,,,0.000138280000,   0.08000,
,,,0.000138320000,   0.07600,
,,,0.000138360000,   0.07600,
,,,0.000138400000,   0.07600,
,,,0.000138440000,   0.07200,
,,,0.000138480000,   0.07200,
,,,0.000138520000,   0.07200,
,,,0.000138560000,   0.06800,
,,,0.000138600000,   0.06800,
,,,0.000138640000,   0.06800,
,,,0.000138680000,   0.06400,
,,,0.000138720000,   0.06400,
,,,0.000138760000,   0.06000,
,,,0.000138800000,   0.06000,
,,,0.000138840000,   0.06000,
,,,0.000138880000,   0.05600,
,,,0.000138920000,   0.05600,
,,,0.000138960000,   0.05600,
,,,0.000139000000,   0.05200,
,,,0.000139040000,   0.05200,
,,,0.000139080000,   0.05200,
,,,0.000139120000,   0.04800,
,,,0.000139160000,   0.04800,
,,,0.000139200000,   0.04800,
,,,0.000139240000,   0.04400,
,,,0.000139280000,   0.04400,
,,,0.000139320000,   0.04000,
,,,0.000139360000,   0.04000,
,,,0.000139400000,   0.04000,
,,,0.000139440000,   0.03600,
,,,0.000139480000,   0.03600,
,,,0.000139520000,   0.03600,
,,,0.000139560000,   0.03200,
,,,0.000139600000,   0.03200,
,,,0.000139640000,   0.03200,
,,,0.000139680000,   0.02800,
,,,0.000139720000,   0.02800,
,,,0.000139760000,   0.02400,
,,,0.000139800000,   0.02400,
,,,0.000139840000,   0.02400,
,,,0.000139880000,   0.02400,
,,,0.000139920000,   0.02000,
,,,0.000139960000,   0.02000,
,,,0.000140000000,   0.02000,
,,,0.000140040000,   0.01600,
,,,0.000140080000,   0.01600,
,,,0.000140120000,   0.01200,
,,,0.000140160000,   0.01200,
,,,0.000140200000,   0.01200,
,,,0.000140240000,   0.00800,
,,,0.000140280000,   0.00800,
,,,0.000140320000,   0.00400,
,,,0.000140360000,   0.00400,
,,,0.000140400000,   0.00400,
,,,0.000140440000,   0.00000,
,,,0.000140480000,   0.00000,
,,,0.000140520000,   0.00000,
,,,0.000140560000,  -0.00400,
,,,0.000140600000,  -0.00400,
,,,0.000140640000,  -0.00400,
,,,0.000140680000,  -0.00800,
,,,0.000140720000,  -0.00800,
,,,0.000140760000,  -0.01200,
,,,0.000140800000,  -0.01200,
,,,0.000140840000,  -0.01200,
,,,0.000140880000,  -0.01600,
,,,0.000140920000,  -0.01600,
,,,0.000140960000,  -0.01600,
,,,0.000141000000,  -0.02000,
,,,0.000141040000,  -0.02000,
,,,0.000141080000,  -0.02000,
,,,0.000141120000,  -0.02400,
,,,0.000141160000,  -0.02400,
,,,0.000141200000,  -0.02400,
,,,0.000141240000,  -0.02800,
,,,0.000141280000,  -0.02800,
,,,0.000141320000,  -0.02800,
,,,0.000141360000,  -0.03200,
,,,0.000141400000,  -0.03200,
,,,0.000141440000,  -0.03600,
,,,0.000141480000,  -0.03600,
,,,0.000141520000,  -0.03600,
,,,0.000141560000,  -0.04000,
,,,0.000141600000,  -0.04000,
,,,0.000141640000,  -0.04000,
,,,0.000141680000,  -0.04400,
,,,0.000141720000,  -0.04400,
,,,0.000141760000,  -0.04400,
,,,0.000141800000,  -0.04800,
,,,0.000141840000,  -0.04800,
,,,0.000141880000,  -0.04800,
,,,0.000141920000,  -0.05200,
,,,0.000141960000,  -0.05200,
,,,0.000142000000,  -0.05200,
,,,0.000142040000,  -0.05600,
,,,0.000142080000,  -0.05600,
,,,0.000142120000,  -0.06000,
,,,0.000142160000,  -0.06000,
,,,0.000142200000,  -0.06000,
,,,0.000142240000,  -0.06400,
,,,0.000142280000,  -0.06400,
,,,0.000142320000,  -0.06400,
,,,0.000142360000,  -0.06800,
,,,0.000142400000,  -0.06800,
,,,0.000142440000,  -0.06800,
,,,0.000142480000,  -0.07200,
,,,0.000142520000,  -0.07200,
,,,0.000142560000,  -0.07200,
,,,0.000142600000,  -0.07600,
,,,0.000142640000,  -0.07600,
,,,0.000142680000,  -0.07600,
,,,0.000142720000,  -0.08000,
,,,0.000142760000,  -0.08000,
,,,0.000142800000,  -0.08000,
,,,0.000142840000,  -0.08400,
,,,0.000142880000,  -0.08400,
,,,0.000142920000,  -0.08400,
,,,0.000142960000,  -0.08800,
,,,0.000143000000,  -0.08800,
,,,0.000143040000,  -0.08800,
,,,0.000143080000,  -0.09200,
,,,0.000143120000,  -0.09200,
,,,0.000143160000,  -0.09200,
,,,0.000143200000,  -0.09600,
,,,0.000143240000,  -0.09600,
,,,0.000143280000,  -0.09600,
,,,0.000143320000,  -0.10000,
,,,0.000143360000,  -0.10000,
,,,0.000143400000,  -0.10000,
,,,0.000143440000,  -0.10400,
,,,0.000143480000,  -0.10400,
,,,0.000143520000,  -0.10400,
,,,0.000143560000,  -0.10800,
,,,0.000143600000,  -0.10800,
,,,0.000143640000,  -0.10800,
,,,0.000143680000,  -0.10800,
,,,0.000143720000,  -0.11200,
,,,0.000143760000,  -0.11200,
,,,0.000143800000,  -0.11200,
,,,0.000143840000,  -0.11600,
,,,0.000143880000,  -0.11600,
,,,0.000143920000,  -0.11600,
,,,0.000143960000,  -0.12000,
,,,0.000144000000,  -0.12000,
,,,0.000144040000,  -0.12000,
,,,0.000144080000,  -0.12400,
,,,0.000144120000,  -0.12400,
,,,0.000144160000,  -0.12400,
,,,0.000144200000,  -0.12800,
,,,0.000144240000,  -0.12800,
,,,0.000144280000,  -0.12800,
,,,0.000144320000,  -0.12800,
,,,0.000144360000,  -0.13200,
,,,0.000144400000,  -0.13200,
,,,0.000144440000,  -0.13200,
,,,0.000144480000,  -0.13200,
,,,0.000144520000,  -0.13600,
,,,0.000144560000,  -0.13600,
,,,0.000144600000,  -0.13600,
,,,0.000144640000,  -0.14000,
,,,0.000144680000,  -0.14000,
,,,0.000144720000,  -0.14000,
,,,0.000144760000,  -0.14000,
,,,0.000144800000,  -0.14400,
,,,0.000144840000,  -0.14400,
,,,0.000144880000,  -0.14400,
,,,0.000144920000,  -0.14800,
,,,0.000144960000,  -0.14800,
,,,0.000145000000,  -0.14800,
,,,0.000145040000,  -0.14800,
,,,0.000145080000,  -0.15200,
,,,0.000145120000,  -0.15200,
,,,0.000145160000,  -0.15200,
,,,0.000145200000,  -0.15600,
,,,0.000145240000,  -0.15600,
,,,0.000145280000,  -0.15600,
,,,0.000145320000,  -0.15600,
,,,0.000145360000,  -0.15600,
,,,0.000145400000,  -0.16000,
,,,0.000145440000,  -0.16000,
,,,0.000145480000,  -0.16000,
,,,0.000145520000,  -0.16000,
,,,0.000145560000,  -0.16400,
,,,0.000145600000,  -0.16400,
,,,0.000145640000,  -0.16400,
,,,0.000145680000,  -0.16800,
,,,0.000145720000,  -0.16800,
,,,0.000145760000,  -0.16800,
,,,0.000145800000,  -0.16800,
,,,0.000145840000,  -0.16800,
,,,0.000145880000,  -0.17200,
,,,0.000145920000,  -0.17200,
,,,0.000145960000,  -0.17200,
,,,0.000146000000,  -0.17200,
,,,0.000146040000,  -0.17600,
,,,0.000146080000,  -0.17600,
,,,0.000146120000,  -0.17600,
,,,0.000146160000,  -0.17600,
,,,0.000146200000,  -0.18000,
,,,0.000146240000,  -0.18000,
,,,0.000146280000,  -0.18000,
,,,0.000146320000,  -0.18000,
,,,0.000146360000,  -0.18000,
,,,0.000146400000,  -0.18000,
,,,0.000146440000,  -0.18400,
,,,0.000146480000,  -0.18400,
,,,0.000146520000,  -0.18400,
,,,0.000146560000,  -0.18400,
,,,0.000146600000,  -0.18800,
,,,0.000146640000,  -0.18800,
,,,0.000146680000,  -0.18800,
,,,0.000146720000,  -0.18800,
,,,0.000146760000,  -0.19200,
,,,0.000146800000,  -0.19200,
,,,0.000146840000,  -0.19200,
,,,0.000146880000,  -0.19200,
,,,0.000146920000,  -0.19200,
,,,0.000146960000,  -0.19200,
,,,0.000147000000,  -0.19600,
,,,0.000147040000,  -0.19600,
,,,0.000147080000,  -0.19600,
,,,0.000147120000,  -0.19600,
,,,0.000147160000,  -0.19600,
,,,0.000147200000,  -0.20000,
,,,0.000147240000,  -0.20000,
,,,0.000147280000,  -0.20000,
,,,0.000147320000,  -0.20000,
,,,0.000147360000,  -0.20000,
,,,0.000147400000,  -0.20000,
,,,0.000147440000,  -0.20400,
,,,0.000147480000,  -0.20400,
,,,0.000147520000,  -0.20400,
,,,0.000147560000,  -0.20400,
,,,0.000147600000,  -0.20400,
,,,0.000147640000,  -0.20400,
,,,0.000147680000,  -0.20800,
,,,0.000147720000,  -0.20800,
,,,0.000147760000,  -0.20800,
,,,0.000147800000,  -0.20800,
,,,0.000147840000,  -0.20800,
,,,0.000147880000,  -0.20800,
,,,0.000147920000,  -0.20800,
,,,0.000147960000,  -0.21200,
,,,0.000148000000,  -0.21200,
,,,0.000148040000,  -0.21200,
,,,0.000148080000,  -0.21200,
,,,0.000148120000,  -0.21200,
,,,0.000148160000,  -0.21200,
,,,0.000148200000,  -0.21200,
,,,0.000148240000,  -0.21600,
,,,0.000148280000,  -0.21600,
,,,0.000148320000,  -0.21600,
,,,0.000148360000,  -0.21600,
,,,0.000148400000,  -0.21600,
,,,0.000148440000,  -0.21600,
,,,0.000148480000,  -0.21600,
,,,0.000148520000,  -0.21600,
,,,0.000148560000,  -0.21600,
,,,0.000148600000,  -0.21600,
,,,0.000148640000,  -0.22000,
,,,0.000148680000,  -0.22000,
,,,0.000148720000,  -0.22000,
,,,0.000148760000,  -0.22000,
,,,0.000148800000,  -0.22000,
,,,0.000148840000,  -0.22000,
,,,0.000148880000,  -0.22000,
,,,0.000148920000,  -0.22000,
,,,0.000148960000,  -0.22000,
,,,0.000149000000,  -0.22000,
,,,0.000149040000,  -0.22000,
,,,0.000149080000,  -0.22400,
,,,0.000149120000,  -0.22400,
,,,0.000149160000,  -0.22400,
,,,0.000149200000,  -0.22400,
,,,0.000149240000,  -0.22400,
,,,0.000149280000,  -0.22400,
,,,0.000149320000,  -0.22400,
,,,0.000149360000,  -0.22400,
,,,0.000149400000,  -0.22400,
,,,0.000149440000,  -0.22400,
,,,0.000149480000,  -0.22400,
,,,0.000149520000,  -0.22400,
,,,0.000149560000,  -0.22400,
,,,0.000149600000,  -0.22400,
,,,0.000149640000,  -0.22400,
,,,0.000149680000,  -0.22400,
,,,0.000149720000,  -0.22400,
,,,0.000149760000,  -0.22800,
,,,0.000149800000,  -0.22800,
,,,0.000149840000,  -0.22800,
,,,0.000149880000,  -0.22800,
,,,0.000149920000,  -0.22800,
,,,0.000149960000,  -0.22800,
,,,0.000150000000,  -0.22800,
,,,0.000150040000,  -0.22800,
,,,0.000150080000,  -0.22800,
,,,0.000150120000,  -0.22800,
,,,0.000150160000,  -0.22800,
,,,0.000150200000,  -0.22800,
,,,0.000150240000,  -0.22800,
,,,0.000150280000,  -0.22800,
,,,0.000150320000,  -0.22800,
,,,0.000150360000,  -0.22800,
,,,0.000150400000,  -0.22800,
,,,0.000150440000,  -0.22800,
,,,0.000150480000,  -0.22800,
,,,0.000150520000,  -0.22800,
,,,0.000150560000,  -0.22800,
,,,0.000150600000,  -0.22800,
,,,0.000150640000,  -0.22800,
,,,0.000150680000,  -0.22800,
,,,0.000150720000,  -0.22800,
,,,0.000150760000,  -0.22800,
,,,0.000150800000,  -0.22800,
,,,0.000150840000,  -0.22800,
,,,0.000150880000,  -0.22800,
,,,0.000150920000,  -0.22800,
,,,0.000150960000,  -0.22800,
,,,0.000151000000,  -0.22800,
,,,0.000151040000,  -0.22800,
,,,0.000151080000,  -0.22800,
,,,0.000151120000,  -0.22800,
,,,0.000151160000,  -0.22800,
,,,0.000151200000,  -0.22800,
,,,0.000151240000,  -0.22800,
,,,0.000151280000,  -0.22400,
,,,0.000151320000,  -0.22400,
,,,0.000151360000,  -0.22400,
,,,0.000151400000,  -0.22400,
,,,0.000151440000,  -0.22400,
,,,0.000151480000,  -0.22400,
,,,0.000151520000,  -0.22400,
,,,0.000151560000,  -0.22400,
,,,0.000151600000,  -0.22400,
,,,0.000151640000,  -0.22400,
,,,0.000151680000,  -0.22400,
,,,0.000151720000,  -0.22400,
