lab2/exp7/data/F0040CH1.CSV

Record Length,2.500000e+03,,   0.000150600000,  -0.68000,
Sample Interval,2.000000e-08,,   0.000150620000,  -0.68000,
Trigger Point,-7.530000000000e+03,,   0.000150640000,  -0.72000,
,,,   0.000150660000,  -0.72000,
,,,   0.000150680000,  -0.72000,
,,,   0.000150700000,  -0.76000,
Source,CH1,,   0.000150720000,  -0.76000,
Vertical Units,V,,   0.000150740000,  -0.80000,
Vertical Scale,1.000000e+00,,   0.000150760000,  -0.80000,
Vertical Offset,-4.000000e-02,,   0.000150780000,  -0.80000,
Horizontal Units,s,,   0.000150800000,  -0.84000,
Horizontal Scale,5.000000e-06,,   0.000150820000,  -0.84000,
Pt Fmt,Y,,   0.000150840000,  -0.84000,
Yzero,0.000000e+00,,   0.000150860000,  -0.88000,
Probe Atten,1.000000e+00,,   0.000150880000,  -0.88000,
Model Number,TDS2002C,,   0.000150900000,  -0.92000,
Serial Number,C012054,,   0.000150920000,  -0.92000,
Firmware Version,FV:v24.09,,   0.000150940000,  -0.92000,
,,,0.000150960000,  -0.96000,
,,,0.000150980000,  -0.96000,
,,,0.000151000000,  -0.96000,
,,,0.000151020000,  -1.00000,
,,,0.000151040000,  -1.00000,
,,,0.000151060000,  -1.00000,
,,,0.000151080000,  -1.04000,
,,,0.000151100000,  -1.04000,
,,,0.000151120000,  -1.04000,
,,,0.000151140000,  -1.08000,
,,,0.000151160000,  -1.08000,
,,,0.000151180000,  -1.08000,
,,,0.000151200000,  -1.12000,
,,,0.000151220000,  -1.12000,
,,,0.000151240000,  -1.12000,
,,,0.000151260000,  -1.16000,
,,,0.000151280000,  -1.16000,
,,,0.000151300000,  -1.16000,
,,,0.000151320000,  -1.20000,
,,,0.000151340000,  -1.20000,
,,,0.000151360000,  -1.20000,
,,,0.000151380000,  -1.24000,
,,,0.000151400000,  -1.24000,
,,,0.000151420000,  -1.24000,
,,,0.000151440000,  -1.28000,
,,,0.000151460000,  -1.28000,
,,,0.000151480000,  -1.28000,
,,,0.000151500000,  -1.32000,
,,,0.000151520000,  -1.32000,
,,,0.000151540000,  -1.32000,
,,,0.000151560000,  -1.36000,
,,,0.000151580000,  -1.36000,
,,,0.000151600000,  -1.36000,
,,,0.000151620000,  -1.40000,
,,,0.000151640000,  -1.40000,
,,,0.000151660000,  -1.40000,
,,,0.000151680000,  -1.40000,
,,,0.000151700000,  -1.44000,
,,,0.000151720000,  -1.44000,
,,,0.000151740000,  -1.44000,
,,,0.000151760000,  -1.48000,
,,,0.000151780000,  -1.48000,
,,,0.000151800000,  -1.48000,
,,,0.000151820000,  -1.52000,
,,,0.000151840000,  -1.52000,
,,,0.000151860000,  -1.52000,
,,,0.000151880000,  -1.56000,
,,,0.000151900000,  -1.56000,
,,,0.000151920000,  -1.56000,
,,,0.000151940000,  -1.56000,
,,,0.000151960000,  -1.60000,
,,,0.000151980000,  -1.60000,
,,,0.000152000000,  -1.60000,
,,,0.000152020000,  -1.64000,
,,,0.000152040000,  -1.64000,
,,,0.000152060000,  -1.64000,
,,,0.000152080000,  -1.64000,
,,,0.000152100000,  -1.68000,
,,,0.000152120000,  -1.68000,
,,,0.000152140000,  -1.68000,
,,,0.000152160000,  -1.68000,
,,,0.000152180000,  -1.72000,
,,,0.000152200000,  -1.72000,
,,,0.000152220000,  -1.72000,
,,,0.000152240000,  -1.76000,
,,,0.000152260000,  -1.76000,
,,,0.000152280000,  -1.76000,
,,,0.000152300000,  -1.76000,
,,,0.000152320000,  -1.80000,
,,,0.000152340000,  -1.80000,
,,,0.000152360000,  -1.80000,
,,,0.000152380000,  -1.80000,
,,,0.000152400000,  -1.84000,
,,,0.000152420000,  -1.84000,
,,,0.000152440000,  -1.84000,
,,,0.000152460000,  -1.84000,
,,,0.000152480000,  -1.88000,
,,,0.000152500000,  -1.88000,
,,,0.000152520000,  -1.88000,
,,,0.000152540000,  -1.88000,
,,,0.000152560000,  -1.88000,
,,,0.000152580000,  -1.92000,
,,,0.000152600000,  -1.92000,
,,,0.000152620000,  -1.92000,
,,,0.000152640000,  -1.96000,
,,,0.000152660000,  -1.96000,
,,,0.000152680000,  -1.96000,
,,,0.000152700000,  -1.96000,
,,,0.000152720000,  -1.96000,
,,,0.000152740000,  -2.00000,
,,,0.000152760000,  -2.00000,
,,,0.000152780000,  -2.00000,
,,,0.000152800000,  -2.00000,
,,,0.000152820000,  -2.00000,
,,,0.000152840000,  -2.04000,
,,,0.000152860000,  -2.04000,
,,,0.000152880000,  -2.04000,
,,,0.000152900000,  -2.04000,
,,,0.000152920000,  -2.04000,
,,,0.000152940000,  -2.08000,
,,,0.000152960000,  -2.08000,
,,,0.000152980000,  -2.08000,
,,,0.000153000000,  -2.08000,
,,,0.000153020000,  -2.12000,
,,,0.000153040000,  -2.12000,
,,,0.000153060000,  -2.12000,
,,,0.000153080000,  -2.12000,
,,,0.000153100000,  -2.12000,
,,,0.000153120000,  -2.12000,
,,,0.000153140000,  -2.16000,
,,,0.000153160000,  -2.16000,
,,,0.000153180000,  -2.16000,
,,,0.000153200000,  -2.16000,
,,,0.000153220000,  -2.16000,
,,,0.000153240000,  -2.20000,
,,,0.000153260000,  -2.20000,
,,,0.000153280000,  -2.20000,
,,,0.000153300000,  -2.20000,
,,,0.000153320000,  -2.20000,
,,,0.000153340000,  -2.20000,
,,,0.000153360000,  -2.20000,
,,,0.000153380000,  -2.24000,
,,,0.000153400000,  -2.24000,
,,,0.000153420000,  -2.24000,
,,,0.000153440000,  -2.24000,
,,,0.000153460000,  -2.24000,
,,,0.000153480000,  -2.24000,
,,,0.000153500000,  -2.24000,
,,,0.000153520000,  -2.28000,
,,,0.000153540000,  -2.28000,
,,,0.000153560000,  -2.28000,
,,,0.000153580000,  -2.28000,
,,,0.000153600000,  -2.28000,
,,,0.000153620000,  -2.28000,
,,,0.000153640000,  -2.28000,
,,,0.000153660000,  -2.28000,
,,,0.000153680000,  -2.32000,
,,,0.000153700000,  -2.32000,
,,,0.000153720000,  -2.32000,
,,,0.000153740000,  -2.32000,
,,,0.000153760000,  -2.32000,
,,,0.000153780000,  -2.32000,
,,,0.000153800000,  -2.32000,
,,,0.000153820000,  -2.32000,
,,,0.000153840000,  -2.32000,
,,,0.000153860000,  -2.36000,
,,,0.000153880000,  -2.36000,
,,,0.000153900000,  -2.36000,
,,,0.000153920000,  -2.36000,
,,,0.000153940000,  -2.36000,
,,,0.000153960000,  -2.36000,
,,,0.000153980000,  -2.36000,
,,,0.000154000000,  -2.36000,
,,,0.000154020000,  -2.36000,
,,,0.000154040000,  -2.36000,
,,,0.000154060000,  -2.36000,
,,,0.000154080000,  -2.40000,
,,,0.000154100000,  -2.40000,
,,,0.000154120000,  -2.40000,
,,,0.000154140000,  -2.40000,
,,,0.000154160000,  -2.40000,
,,,0.000154180000,  -2.40000,
,,,0.000154200000,  -2.40000,
,,,0.000154220000,  -2.40000,
,,,0.000154240000,  -2.40000,
,,,0.000154260000,  -2.40000,
,,,0.000154280000,  -2.40000,
,,,0.000154300000,  -2.40000,
,,,0.000154320000,  -2.40000,
,,,0.000154340000,  -2.40000,
,,,0.000154360000,  -2.40000,
,,,0.000154380000,  -2.40000,
,,,0.000154400000,  -2.40000,
,,,0.000154420000,  -2.44000,
,,,0.000154440000,  -2.40000,
,,,0.000154460000,  -2.44000,
,,,0.000154480000,  -2.40000,
,,,0.000154500000,  -2.40000,
,,,0.000154520000,  -2.44000,
,,,0.000154540000,  -2.44000,
,,,0.000154560000,  -2.44000,
,,,0.000154580000,  -2.44000,
,,,0.000154600000,  -2.40000,
,,,0.000154620000,  -2.44000,
,,,0.000154640000,  -2.40000,
,,,0.000154660000,  -2.44000,
,,,0.000154680000,  -2.44000,
,,,0.000154700000,  -2.44000,
,,,0.000154720000,  -2.44000,
,,,0.000154740000,  -2.44000,
,,,0.000154760000,  -2.44000,
,,,0.000154780000,  -2.44000,
,,,0.000154800000,  -2.44000,
,,,0.000154820000,  -2.44000,
,,,0.000154840000,  -2.40000,
,,,0.000154860000,  -2.44000,
,,,0.000154880000,  -2.40000,
,,,0.000154900000,  -2.40000,
,,,0.000154920000,  -2.40000,
,,,0.000154940000,  -2.40000,
,,,0.000154960000,  -2.40000,
,,,0.000154980000,  -2.40000,
,,,0.000155000000,  -2.40000,
,,,0.000155020000,  -2.40000,
,,,0.000155040000,  -2.40000,
,,,0.000155060000,  -2.40000,
,,,0.000155080000,  -2.40000,
,,,0.000155100000,  -2.40000,
,,,0.000155120000,  -2.40000,
,,,0.000155140000,  -2.40000,
,,,0.000155160000,  -2.40000,
,,,0.000155180000,  -2.40000,
,,,0.000155200000,  -2.40000,
,,,0.000155220000,  -2.40000,
,,,0.000155240000,  -2.40000,
,,,0.000155260000,  -2.40000,
,,,0.000155280000,  -2.40000,
,,,0.000155300000,  -2.36000,
,,,0.000155320000,  -2.36000,
,,,0.000155340000,  -2.36000,
,,,0.000155360000,  -2.36000,
,,,0.000155380000,  -2.36000,
,,,0.000155400000,  -2.36000,
,,,0.000155420000,  -2.36000,
,,,0.000155440000,  -2.36000,
,,,0.000155460000,  -2.36000,
,,,0.000155480000,  -2.36000,
,,,0.000155500000,  -2.32000,
,,,0.000155520000,  -2.32000,
,,,0.000155540000,  -2.32000,
,,,0.000155560000,  -2.32000,
,,,0.000155580000,  -2.32000,
,,,0.000155600000,  -2.32000,
,,,0.000155620000,  -2.32000,
,,,0.000155640000,  -2.32000,
,,,0.000155660000,  -2.32000,
,,,0.000155680000,  -2.32000,
,,,0.000155700000,  -2.28000,
,,,0.000155720000,  -2.28000,
,,,0.000155740000,  -2.28000,
,,,0.000155760000,  -2.28000,
,,,0.000155780000,  -2.28000,
,,,0.000155800000,  -2.28000,
,,,0.000155820000,  -2.28000,
,,,0.000155840000,  -2.28000,
,,,0.000155860000,  -2.28000,
,,,0.000155880000,  -2.24000,
,,,0.000155900000,  -2.24000,
,,,0.000155920000,  -2.24000,
,,,0.000155940000,  -2.24000,
,,,0.000155960000,  -2.24000,
,,,0.000155980000,  -2.24000,
,,,0.000156000000,  -2.20000,
,,,0.000156020000,  -2.20000,
,,,0.000156040000,  -2.20000,
,,,0.000156060000,  -2.20000,
,,,0.000156080000,  -2.20000,
,,,0.000156100000,  -2.20000,
,,,0.000156120000,  -2.16000,
,,,0.000156140000,  -2.16000,
,,,0.000156160000,  -2.16000,
,,,0.000156180000,  -2.16000,
,,,0.000156200000,  -2.16000,
,,,0.000156220000,  -2.16000,
,,,0.000156240000,  -2.12000,
,,,0.000156260000,  -2.12000,
,,,0.000156280000,  -2.12000,
,,,0.000156300000,  -2.12000,
,,,0.000156320000,  -2.12000,
,,,0.000156340000,  -2.12000,
,,,0.000156360000,  -2.08000,
,,,0.000156380000,  -2.08000,
,,,0.000156400000,  -2.08000,
,,,0.000156420000,  -2.08000,
,,,0.000156440000,  -2.08000,
,,,0.000156460000,  -2.04000,
,,,0.000156480000,  -2.04000,
,,,0.000156500000,  -2.04000,
,,,0.000156520000,  -2.04000,
,,,0.000156540000,  -2.00000,
,,,0.000156560000,  -2.00000,
,,,0.000156580000,  -2.00000,
,,,0.000156600000,  -2.00000,
,,,0.000156620000,  -2.00000,
,,,0.000156640000,  -1.96000,
,,,0.000156660000,  -1.96000,
,,,0.000156680000,  -1.96000,
,,,0.000156700000,  -1.96000,
,,,0.000156720000,  -1.92000,
,,,0.000156740000,  -1.92000,
,,,0.000156760000,  -1.92000,
,,,0.000156780000,  -1.92000,
,,,0.000156800000,  -1.92000,
,,,0.000156820000,  -1.88000,
,,,0.000156840000,  -1.88000,
,,,0.000156860000,  -1.88000,
,,,0.000156880000,  -1.88000,
,,,0.000156900000,  -1.84000,
,,,0.000156920000,  -1.84000,
,,,0.000156940000,  -1.84000,
,,,0.000156960000,  -1.84000,
,,,0.000156980000,  -1.80000,
,,,0.000157000000,  -1.80000,
,,,0.000157020000,  -1.80000,
,,,0.000157040000,  -1.80000,
,,,0.000157060000,  -1.76000,
,,,0.000157080000,  -1.76000,
,,,0.000157100000,  -1.76000,
,,,0.000157120000,  -1.76000,
,,,0.000157140000,  -1.72000,
,,,0.000157160000,  -1.72000,
,,,0.000157180000,  -1.72000,
,,,0.000157200000,  -1.72000,
,,,0.000157220000,  -1.68000,
,,,0.000157240000,  -1.68000,
,,,0.000157260000,  -1.68000,
,,,0.000157280000,  -1.64000,
,,,0.000157300000,  -1.64000,
,,,0.000157320000,  -1.64000,
,,,0.000157340000,  -1.64000,
,,,0.000157360000,  -1.60000,
,,,0.000157380000,  -1.60000,
,,,0.000157400000,  -1.60000,
,,,0.000157420000,  -1.56000,
,,,0.000157440000,  -1.56000,
,,,0.000157460000,  -1.56000,
,,,0.000157480000,  -1.52000,
,,,0.000157500000,  -1.52000,
,,,0.000157520000,  -1.52000,
,,,0.000157540000,  -1.52000,
,,,0.000157560000,  -1.48000,
,,,0.000157580000,  -1.48000,
,,,0.000157600000,  -1.48000,
,,,0.000157620000,  -1.44000,
,,,0.000157640000,  -1.44000,
,,,0.000157660000,  -1.44000,
,,,0.000157680000,  -1.44000,
,,,0.000157700000,  -1.40000,
,,,0.000157720000,  -1.40000,
,,,0.000157740000,  -1.40000,
,,,0.000157760000,  -1.36000,
,,,0.000157780000,  -1.36000,
,,,0.000157800000,  -1.36000,
,,,0.000157820000,  -1.32000,
,,,0.000157840000,  -1.32000,
,,,0.000157860000,  -1.32000,
,,,0.000157880000,  -1.28000,
,,,0.000157900000,  -1.28000,
,,,0.000157920000,  -1.28000,
,,,0.000157940000,  -1.24000,
,,,0.000157960000,  -1.24000,
,,,0.000157980000,  -1.24000,
,,,0.000158000000,  -1.24000,
,,,0.000158020000,  -1.20000,
,,,0.000158040000,  -1.20000,
,,,0.000158060000,  -1.16000,
,,,0.000158080000,  -1.16000,
,,,0.000158100000,  -1.16000,
,,,0.000158120000,  -1.12000,
,,,0.000158140000,  -1.12000,
,,,0.000158160000,  -1.12000,
,,,0.000158180000,  -1.08000,
,,,0.000158200000,  -1.08000,
,,,0.000158220000,  -1.08000,
,,,0.000158240000,  -1.04000,
,,,0.000158260000,  -1.04000,
,,,0.000158280000,  -1.04000,
,,,0.000158300000,  -1.00000,
,,,0.000158320000,  -1.00000,
,,,0.000158340000,  -1.00000,
,,,0.000158360000,  -0.96000,
,,,0.000158380000,  -0.96000,
,,,0.000158400000,  -0.96000,
,,,0.000158420000,  -0.92000,
,,,0.000158440000,  -0.92000,
,,,0.000158460000,  -0.92000,
,,,0.000158480000,  -0.88000,
,,,0.000158500000,  -0.88000,
,,,0.000158520000,  -0.84000,
,,,0.000158540000,  -0.84000,
,,,0.000158560000,  -0.84000,
,,,0.000158580000,  -0.80000,
,,,0.000158600000,  -0.80000,
,,,0.000158620000,  -0.80000,
,,,0.000158640000,  -0.76000,
,,,0.000158660000,  -0.76000,
,,,0.000158680000,  -0.76000,
,,,0.000158700000,  -0.72000,
,,,0.000158720000,  -0.72000,
,,,0.000158740000,  -0.68000,
,,,0.000158760000,  -0.68000,
,,,0.000158780000,  -0.68000,
,,,0.000158800000,  -0.64000,
,,,0.000158820000,  -0.64000,
,,,0.000158840000,  -0.64000,
,,,0.000158860000,  -0.60000,
,,,0.000158880000,  -0.60000,
,,,0.000158900000,  -0.56000,
,,,0.000158920000,  -0.56000,
,,,0.000158940000,  -0.56000,
,,,0.000158960000,  -0.52000,
,,,0.000158980000,  -0.52000,
,,,0.000159000000,  -0.52000,
,,,0.000159020000,  -0.48000,
,,,0.000159040000,  -0.48000,
,,,0.000159060000,  -0.44000,
,,,0.000159080000,  -0.44000,
,,,0.000159100000,  -0.44000,
,,,0.000159120000,  -0.40000,
,,,0.000159140000,  -0.40000,
,,,0.000159160000,  -0.40000,
,,,0.000159180000,  -0.36000,
,,,0.000159200000,  -0.36000,
,,,0.000159220000,  -0.32000,
,,,0.000159240000,  -0.32000,
,,,0.000159260000,  -0.32000,
,,,0.000159280000,  -0.28000,
,,,0.000159300000,  -0.28000,
,,,0.000159320000,  -0.28000,
,,,0.000159340000,  -0.24000,
,,,0.000159360000,  -0.24000,
,,,0.000159380000,  -0.20000,
,,,0.000159400000,  -0.20000,
,,,0.000159420000,  -0.20000,
,,,0.000159440000,  -0.16000,
,,,0.000159460000,  -0.16000,
,,,0.000159480000,  -0.16000,
,,,0.000159500000,  -0.12000,
,,,0.000159520000,  -0.12000,
,,,0.000159540000,  -0.08000,
,,,0.000159560000,  -0.08000,
,,,0.000159580000,  -0.08000,
,,,0.000159600000,  -0.04000,
,,,0.000159620000,  -0.04000,
,,,0.000159640000,   0.00000,
,,,0.000159660000,   0.00000,
,,,0.000159680000,   0.00000,
,,,0.000159700000,   0.04000,
,,,0.000159720000,   0.04000,
,,,0.000159740000,   0.08000,
,,,0.000159760000,   0.08000,
,,,0.000159780000,   0.08000,
,,,0.000159800000,   0.12000,
,,,0.000159820000,   0.12000,
,,,0.000159840000,   0.12000,
,,,0.000159860000,   0.16000,
,,,0.000159880000,   0.16000,
,,,0.000159900000,   0.20000,
,,,0.000159920000,   0.20000,
,,,0.000159940000,   0.20000,
,,,0.000159960000,   0.24000,
,,,0.000159980000,   0.24000,
,,,0.000160000000,   0.28000,
,,,0.000160020000,   0.28000,
,,,0.000160040000,   0.28000,
,,,0.000160060000,   0.32000,
,,,0.000160080000,   0.32000,
,,,0.000160100000,   0.32000,
,,,0.000160120000,   0.36000,
,,,0.000160140000,   0.36000,
,,,0.000160160000,   0.36000,
,,,0.000160180000,   0.40000,
,,,0.000160200000,   0.40000,
,,,0.000160220000,   0.44000,
,,,0.000160240000,   0.44000,
,,,0.000160260000,   0.44000,
,,,0.000160280000,   0.48000,
,,,0.000160300000,   0.48000,
,,,0.000160320000,   0.48000,
,,,0.000160340000,   0.52000,
,,,0.000160360000,   0.52000,
,,,0.000160380000,   0.56000,
,,,0.000160400000,   0.56000,
,,,0.000160420000,   0.56000,
,,,0.000160440000,   0.60000,
,,,0.000160460000,   0.60000,
,,,0.000160480000,   0.64000,
,,,0.000160500000,   0.64000,
,,,0.000160520000,   0.64000,
,,,0.000160540000,   0.64000,
,,,0.000160560000,   0.68000,
,,,0.000160580000,   0.68000,
,,,0.000160600000,   0.72000,
,,,0.000160620000,   0.72000,
,,,0.000160640000,   0.72000,
,,,0.000160660000,   0.76000,
,,,0.000160680000,   0.76000,
,,,0.000160700000,   0.76000,
,,,0.000160720000,   0.80000,
,,,0.000160740000,   0.80000,
,,,0.000160760000,   0.84000,
,,,0.000160780000,   0.84000,
,,,0.000160800000,   0.84000,
,,,0.000160820000,   0.88000,
,,,0.000160840000,   0.88000,
,,,0.000160860000,   0.88000,
,,,0.000160880000,   0.92000,
,,,0.000160900000,   0.92000,
,,,0.000160920000,   0.92000,
,,,0.000160940000,   0.96000,
,,,0.000160960000,   0.96000,
,,,0.000160980000,   1.00000,
,,,0.000161000000,   1.00000,
,,,0.000161020000,   1.00000,
,,,0.000161040000,   1.00000,
,,,0.000161060000,   1.04000,
,,,0.000161080000,   1.04000,
,,,0.000161100000,   1.08000,
,,,0.000161120000,   1.08000,
,,,0.000161140000,   1.08000,
,,,0.000161160000,   1.08000,
,,,0.000161180000,   1.12000,
,,,0.000161200000,   1.12000,
,,,0.000161220000,   1.16000,
,,,0.000161240000,   1.16000,
,,,0.000161260000,   1.16000,
,,,0.000161280000,   1.20000,
,,,0.000161300000,   1.20000,
,,,0.000161320000,   1.20000,
,,,0.000161340000,   1.24000,
,,,0.000161360000,   1.24000,
,,,0.000161380000,   1.24000,
,,,0.000161400000,   1.28000,
,,,0.000161420000,   1.28000,
,,,0.000161440000,   1.28000,
,,,0.000161460000,   1.32000,
,,,0.000161480000,   1.32000,
,,,0.000161500000,   1.32000,
,,,0.000161520000,   1.36000,
,,,0.000161540000,   1.36000,
,,,0.000161560000,   1.36000,
,,,0.000161580000,   1.40000,
,,,0.000161600000,   1.40000,
,,,0.000161620000,   1.40000,
,,,0.000161640000,   1.44000,
,,,0.000161660000,   1.44000,
,,,0.000161680000,   1.44000,
,,,0.000161700000,   1.44000,
,,,0.000161720000,   1.48000,
,,,0.000161740000,   1.48000,
,,,0.000161760000,   1.48000,
,,,0.000161780000,   1.52000,
,,,0.000161800000,   1.52000,
,,,0.000161820000,   1.52000,
,,,0.000161840000,   1.56000,
,,,0.000161860000,   1.56000,
,,,0.000161880000,   1.56000,
,,,0.000161900000,   1.56000,
,,,0.000161920000,   1.60000,
,,,0.000161940000,   1.60000,
,,,0.000161960000,   1.60000,
,,,0.000161980000,   1.64000,
,,,0.000162000000,   1.64000,
,,,0.000162020000,   1.64000,
,,,0.000162040000,   1.64000,
,,,0.000162060000,   1.68000,
,,,0.000162080000,   1.68000,
,,,0.000162100000,   1.68000,
,,,0.000162120000,   1.72000,
,,,0.000162140000,   1.72000,
,,,0.000162160000,   1.72000,
,,,0.000162180000,   1.72000,
,,,0.000162200000,   1.76000,
,,,0.000162220000,   1.76000,
,,,0.000162240000,   1.76000,
,,,0.000162260000,   1.80000,
,,,0.000162280000,   1.80000,
,,,0.000162300000,   1.80000,
,,,0.000162320000,   1.80000,
,,,0.000162340000,   1.84000,
,,,0.000162360000,   1.84000,
,,,0.000162380000,   1.84000,
,,,0.000162400000,   1.84000,
,,,0.000162420000,   1.88000,
,,,0.000162440000,   1.88000,
,,,0.000162460000,   1.88000,
,,,0.000162480000,   1.88000,
,,,0.000162500000,   1.92000,
,,,0.000162520000,   1.92000,
,,,0.000162540000,   1.92000,
,,,0.000162560000,   1.92000,
,,,0.000162580000,   1.96000,
,,,0.000162600000,   1.96000,
,,,0.000162620000,   1.96000,
,,,0.000162640000,   1.96000,
,,,0.000162660000,   2.00000,
,,,0.000162680000,   2.00000,
,,,0.000162700000,   2.00000,
,,,0.000162720000,   2.00000,
,,,0.000162740000,   2.00000,
,,,0.000162760000,   2.04000,
,,,0.000162780000,   2.04000,
,,,0.000162800000,   2.04000,
,,,0.000162820000,   2.04000,
,,,0.000162840000,   2.08000,
,,,0.000162860000,   2.08000,
,,,0.000162880000,   2.08000,
,,,0.000162900000,   2.08000,
,,,0.000162920000,   2.08000,
,,,0.000162940000,   2.08000,
,,,0.000162960000,   2.12000,
,,,0.000162980000,   2.12000,
,,,0.000163000000,   2.12000,
,,,0.000163020000,   2.12000,
,,,0.000163040000,   2.12000,
,,,0.000163060000,   2.16000,
,,,0.000163080000,   2.16000,
,,,0.000163100000,   2.16000,
,,,0.000163120000,   2.16000,
,,,0.000163140000,   2.16000,
,,,0.000163160000,   2.20000,
,,,0.000163180000,   2.20000,
,,,0.000163200000,   2.20000,
,,,0.000163220000,   2.20000,
,,,0.000163240000,   2.20000,
,,,0.000163260000,   2.24000,
,,,0.000163280000,   2.24000,
,,,0.000163300000,   2.24000,
,,,0.000163320000,   2.24000,
,,,0.000163340000,   2.24000,
,,,0.000163360000,   2.24000,
,,,0.000163380000,   2.28000,
,,,0.000163400000,   2.28000,
,,,0.000163420000,   2.28000,
,,,0.000163440000,   2.28000,
,,,0.000163460000,   2.28000,
,,,0.000163480000,   2.28000,
,,,0.000163500000,   2.28000,
,,,0.000163520000,   2.28000,
,,,0.000163540000,   2.32000,
,,,0.000163560000,   2.32000,
,,,0.000163580000,   2.32000,
,,,0.000163600000,   2.32000,
,,,0.000163620000,   2.32000,
,,,0.000163640000,   2.32000,
,,,0.000163660000,   2.36000,
