lab2/exp3/data/F0007CH1.CSV

Record Length,2.500000e+03,,   0.000030000000,   1.00000,
Sample Interval,1.000000e-07,,   0.000030100000,   1.00000,
Trigger Point,-3.000000000000e+02,,   0.000030200000,   1.00000,
,,,   0.000030300000,   0.98000,
,,,   0.000030400000,   1.00000,
,,,   0.000030500000,   1.04000,
Source,CH1,,   0.000030600000,   0.98000,
Vertical Units,V,,   0.000030700000,   1.00000,
Vertical Scale,5.000000e-01,,   0.000030800000,   1.02000,
Vertical Offset,0.000000e+00,,   0.000030900000,   1.00000,
Horizontal Units,s,,   0.000031000000,   1.02000,
Horizontal Scale,2.500000e-05,,   0.000031100000,   1.02000,
Pt Fmt,Y,,   0.000031200000,   1.02000,
Yzero,0.000000e+00,,   0.000031300000,   1.02000,
Probe Atten,1.000000e+00,,   0.000031400000,   1.04000,
Model Number,TDS2002C,,   0.000031500000,   1.02000,
Serial Number,C050621,,   0.000031600000,   1.00000,
Firmware Version,FV:v24.26,,   0.000031700000,   1.02000,
,,,0.000031800000,   1.04000,
,,,0.000031900000,   1.04000,
,,,0.000032000000,   1.02000,
,,,0.000032100000,   1.04000,
,,,0.000032200000,   1.04000,
,,,0.000032300000,   1.04000,
,,,0.000032400000,   1.04000,
,,,0.000032500000,   1.04000,
,,,0.000032600000,   1.04000,
,,,0.000032700000,   1.06000,
,,,0.000032800000,   1.06000,
,,,0.000032900000,   1.06000,
,,,0.000033000000,   1.06000,
,,,0.000033100000,   1.06000,
,,,0.000033200000,   1.04000,
,,,0.000033300000,   1.06000,
,,,0.000033400000,   1.08000,
,,,0.000033500000,   1.10000,
,,,0.000033600000,   1.08000,
,,,0.000033700000,   1.08000,
,,,0.000033800000,   1.08000,
,,,0.000033900000,   1.08000,
,,,0.000034000000,   1.08000,
,,,0.000034100000,   1.08000,
,,,0.000034200000,   1.08000,
,,,0.000034300000,   1.12000,
,,,0.000034400000,   1.10000,
,,,0.000034500000,   1.08000,
,,,0.000034600000,   1.10000,
,,,0.000034700000,   1.10000,
,,,0.000034800000,   1.12000,
,,,0.000034900000,   1.12000,
,,,0.000035000000,   1.12000,
,,,0.000035100000,   1.14000,
,,,0.000035200000,   1.12000,
,,,0.000035300000,   1.10000,
,,,0.000035400000,   1.10000,
,,,0.000035500000,   1.12000,
,,,0.000035600000,   1.12000,
,,,0.000035700000,   1.12000,
,,,0.000035800000,   1.14000,
,,,0.000035900000,   1.12000,
,,,0.000036000000,   1.14000,
,,,0.000036100000,   1.14000,
,,,0.000036200000,   1.16000,
,,,0.000036300000,   1.14000,
,,,0.000036400000,   1.14000,
,,,0.000036500000,   1.14000,
,,,0.000036600000,   1.14000,
,,,0.000036700000,   1.14000,
,,,0.000036800000,   1.14000,
,,,0.000036900000,   1.16000,
,,,0.000037000000,   1.16000,
,,,0.000037100000,   1.14000,
,,,0.000037200000,   1.16000,
,,,0.000037300000,   1.14000,
,,,0.000037400000,   1.14000,
,,,0.000037500000,   1.16000,
,,,0.000037600000,   1.16000,
,,,0.000037700000,   1.18000,
,,,0.000037800000,   1.18000,
,,,0.000037900000,   1.18000,
,,,0.000038000000,   1.18000,
,,,0.000038100000,   1.20000,
,,,0.000038200000,   1.16000,
,,,0.000038300000,   1.18000,
,,,0.000038400000,   1.18000,
,,,0.000038500000,   1.18000,
,,,0.000038600000,   1.20000,
,,,0.000038700000,   1.20000,
,,,0.000038800000,   1.22000,
,,,0.000038900000,   1.20000,
,,,0.000039000000,   1.22000,
,,,0.000039100000,   1.20000,
,,,0.000039200000,   1.22000,
,,,0.000039300000,   1.22000,
,,,0.000039400000,   1.22000,
,,,0.000039500000,   1.20000,
,,,0.000039600000,   1.24000,
,,,0.000039700000,   1.22000,
,,,0.000039800000,   1.20000,
,,,0.000039900000,   1.24000,
,,,0.000040000000,   1.24000,
,,,0.000040100000,   1.24000,
,,,0.000040200000,   1.24000,
,,,0.000040300000,   1.26000,
,,,0.000040400000,   1.28000,
,,,0.000040500000,   1.24000,
,,,0.000040600000,   1.26000,
,,,0.000040700000,   1.22000,
,,,0.000040800000,   1.24000,
,,,0.000040900000,   1.26000,
,,,0.000041000000,   1.28000,
,,,0.000041100000,   1.26000,
,,,0.000041200000,   1.28000,
,,,0.000041300000,   1.26000,
,,,0.000041400000,   1.24000,
,,,0.000041500000,   1.24000,
,,,0.000041600000,   1.28000,
,,,0.000041700000,   1.28000,
,,,0.000041800000,   1.24000,
,,,0.000041900000,   1.28000,
,,,0.000042000000,   1.28000,
,,,0.000042100000,   1.28000,
,,,0.000042200000,   1.28000,
,,,0.000042300000,   1.28000,
,,,0.000042400000,   1.26000,
,,,0.000042500000,   1.28000,
,,,0.000042600000,   1.30000,
,,,0.000042700000,   1.28000,
,,,0.000042800000,   1.30000,
,,,0.000042900000,   1.30000,
,,,0.000043000000,   1.30000,
,,,0.000043100000,   1.28000,
,,,0.000043200000,   1.30000,
,,,0.000043300000,   1.32000,
,,,0.000043400000,   1.32000,
,,,0.000043500000,   1.34000,
,,,0.000043600000,   1.34000,
,,,0.000043700000,   1.34000,
,,,0.000043800000,   1.30000,
,,,0.000043900000,   1.32000,
,,,0.000044000000,   1.30000,
,,,0.000044100000,   1.34000,
,,,0.000044200000,   1.36000,
,,,0.000044300000,   1.34000,
,,,0.000044400000,   1.34000,
,,,0.000044500000,   1.34000,
,,,0.000044600000,   1.34000,
,,,0.000044700000,   1.34000,
,,,0.000044800000,   1.34000,
,,,0.000044900000,   1.36000,
,,,0.000045000000,   1.36000,
,,,0.000045100000,   1.38000,
,,,0.000045200000,   1.36000,
,,,0.000045300000,   1.34000,
,,,0.000045400000,   1.34000,
,,,0.000045500000,   1.36000,
,,,0.000045600000,   1.36000,
,,,0.000045700000,   1.36000,
,,,0.000045800000,   1.36000,
,,,0.000045900000,   1.38000,
,,,0.000046000000,   1.36000,
,,,0.000046100000,   1.38000,
,,,0.000046200000,   1.38000,
,,,0.000046300000,   1.36000,
,,,0.000046400000,   1.36000,
,,,0.000046500000,   1.40000,
,,,0.000046600000,   1.38000,
,,,0.000046700000,   1.38000,
,,,0.000046800000,   1.40000,
,,,0.000046900000,   1.40000,
,,,0.000047000000,   1.38000,
,,,0.000047100000,   1.40000,
,,,0.000047200000,   1.40000,
,,,0.000047300000,   1.38000,
,,,0.000047400000,   1.42000,
,,,0.000047500000,   1.40000,
,,,0.000047600000,   1.44000,
,,,0.000047700000,   1.42000,
,,,0.000047800000,   1.46000,
,,,0.000047900000,   1.40000,
,,,0.000048000000,   1.42000,
,,,0.000048100000,   1.40000,
,,,0.000048200000,   1.44000,
,,,0.000048300000,   1.44000,
,,,0.000048400000,   1.44000,
,,,0.000048500000,   1.44000,
,,,0.000048600000,   1.42000,
,,,0.000048700000,   1.44000,
,,,0.000048800000,   1.42000,
,,,0.000048900000,   1.42000,
,,,0.000049000000,   1.44000,
,,,0.000049100000,   1.48000,
,,,0.000049200000,   1.46000,
,,,0.000049300000,   1.46000,
,,,0.000049400000,   1.46000,
,,,0.000049500000,   1.48000,
,,,0.000049600000,   1.48000,
,,,0.000049700000,   1.46000,
,,,0.000049800000,   1.46000,
,,,0.000049900000,   1.48000,
,,,0.000050000000,   1.46000,
,,,0.000050100000,   1.46000,
,,,0.000050200000,   1.50000,
,,,0.000050300000,   1.50000,
,,,0.000050400000,   1.48000,
,,,0.000050500000,   1.50000,
,,,0.000050600000,   1.50000,
,,,0.000050700000,   1.48000,
,,,0.000050800000,   1.50000,
,,,0.000050900000,   1.50000,
,,,0.000051000000,   1.50000,
,,,0.000051100000,   1.50000,
,,,0.000051200000,   1.50000,
,,,0.000051300000,   1.50000,
,,,0.000051400000,   1.48000,
,,,0.000051500000,   1.48000,
,,,0.000051600000,   1.50000,
,,,0.000051700000,   1.52000,
,,,0.000051800000,   1.52000,
,,,0.000051900000,   1.52000,
,,,0.000052000000,   1.50000,
,,,0.000052100000,   1.54000,
,,,0.000052200000,   1.52000,
,,,0.000052300000,   1.54000,
,,,0.000052400000,   1.52000,
,,,0.000052500000,   1.52000,
,,,0.000052600000,   1.56000,
,,,0.000052700000,   1.54000,
,,,0.000052800000,   1.56000,
,,,0.000052900000,   1.56000,
,,,0.000053000000,   1.56000,
,,,0.000053100000,   1.54000,
,,,0.000053200000,   1.54000,
,,,0.000053300000,   1.56000,
,,,0.000053400000,   1.58000,
,,,0.000053500000,   1.58000,
,,,0.000053600000,   1.56000,
,,,0.000053700000,   1.58000,
,,,0.000053800000,   1.54000,
,,,0.000053900000,   1.56000,
,,,0.000054000000,   1.56000,
,,,0.000054100000,   1.58000,
,,,0.000054200000,   1.60000,
,,,0.000054300000,   1.60000,
,,,0.000054400000,   1.60000,
,,,0.000054500000,   1.60000,
,,,0.000054600000,   1.60000,
,,,0.000054700000,   1.58000,
,,,0.000054800000,   1.60000,
,,,0.000054900000,   1.62000,
,,,0.000055000000,   1.60000,
,,,0.000055100000,   1.62000,
,,,0.000055200000,   1.58000,
,,,0.000055300000,   1.60000,
,,,0.000055400000,   1.60000,
,,,0.000055500000,   1.62000,
,,,0.000055600000,   1.58000,
,,,0.000055700000,   1.62000,
,,,0.000055800000,   1.64000,
,,,0.000055900000,   1.60000,
,,,0.000056000000,   1.64000,
,,,0.000056100000,   1.64000,
,,,0.000056200000,   1.62000,
,,,0.000056300000,   1.64000,
,,,0.000056400000,   1.64000,
,,,0.000056500000,   1.66000,
,,,0.000056600000,   1.66000,
,,,0.000056700000,   1.68000,
,,,0.000056800000,   1.64000,
,,,0.000056900000,   1.64000,
,,,0.000057000000,   1.62000,
,,,0.000057100000,   1.62000,
,,,0.000057200000,   1.64000,
,,,0.000057300000,   1.66000,
,,,0.000057400000,   1.64000,
,,,0.000057500000,   1.68000,
,,,0.000057600000,   1.66000,
,,,0.000057700000,   1.68000,
,,,0.000057800000,   1.66000,
,,,0.000057900000,   1.64000,
,,,0.000058000000,   1.66000,
,,,0.000058100000,   1.70000,
,,,0.000058200000,   1.68000,
,,,0.000058300000,   1.68000,
,,,0.000058400000,   1.68000,
,,,0.000058500000,   1.68000,
,,,0.000058600000,   1.72000,
,,,0.000058700000,   1.68000,
,,,0.000058800000,   1.68000,
,,,0.000058900000,   1.70000,
,,,0.000059000000,   1.72000,
,,,0.000059100000,   1.70000,
,,,0.000059200000,   1.72000,
,,,0.000059300000,   1.74000,
,,,0.000059400000,   1.70000,
,,,0.000059500000,   1.68000,
,,,0.000059600000,   1.72000,
,,,0.000059700000,   1.72000,
,,,0.000059800000,   1.74000,
,,,0.000059900000,   1.72000,
,,,0.000060000000,   1.74000,
,,,0.000060100000,   1.72000,
,,,0.000060200000,   1.74000,
,,,0.000060300000,   1.72000,
,,,0.000060400000,   1.72000,
,,,0.000060500000,   1.70000,
,,,0.000060600000,   1.72000,
,,,0.000060700000,   1.74000,
,,,0.000060800000,   1.72000,
,,,0.000060900000,   1.72000,
,,,0.000061000000,   1.74000,
,,,0.000061100000,   1.72000,
,,,0.000061200000,   1.74000,
,,,0.000061300000,   1.76000,
,,,0.000061400000,   1.76000,
,,,0.000061500000,   1.72000,
,,,0.000061600000,   1.78000,
,,,0.000061700000,   1.76000,
,,,0.000061800000,   1.76000,
,,,0.000061900000,   1.76000,
,,,0.000062000000,   1.78000,
,,,0.000062100000,   1.74000,
,,,0.000062200000,   1.76000,
,,,0.000062300000,   1.76000,
,,,0.000062400000,   1.78000,
,,,0.000062500000,   1.80000,
,,,0.000062600000,   1.76000,
,,,0.000062700000,   1.80000,
,,,0.000062800000,   1.76000,
,,,0.000062900000,   1.78000,
,,,0.000063000000,   1.78000,
,,,0.000063100000,   1.76000,
,,,0.000063200000,   1.78000,
,,,0.000063300000,   1.82000,
,,,0.000063400000,   1.82000,
,,,0.000063500000,   1.80000,
,,,0.000063600000,   1.80000,
,,,0.000063700000,   1.80000,
,,,0.000063800000,   1.78000,
,,,0.000063900000,   1.82000,
,,,0.000064000000,   1.84000,
,,,0.000064100000,   1.80000,
,,,0.000064200000,   1.82000,
,,,0.000064300000,   1.80000,
,,,0.000064400000,   1.84000,
,,,0.000064500000,   1.84000,
,,,0.000064600000,   1.84000,
,,,0.000064700000,   1.82000,
,,,0.000064800000,   1.84000,
,,,0.000064900000,   1.86000,
,,,0.000065000000,   1.86000,
,,,0.000065100000,   1.84000,
,,,0.000065200000,   1.86000,
,,,0.000065300000,   1.84000,
,,,0.000065400000,   1.84000,
,,,0.000065500000,   1.84000,
,,,0.000065600000,   1.84000,
,,,0.000065700000,   1.88000,
,,,0.000065800000,   1.86000,
,,,0.000065900000,   1.86000,
,,,0.000066000000,   1.86000,
,,,0.000066100000,   1.90000,
,,,0.000066200000,   1.86000,
,,,0.000066300000,   1.90000,
,,,0.000066400000,   1.88000,
,,,0.000066500000,   1.88000,
,,,0.000066600000,   1.90000,
,,,0.000066700000,   1.92000,
,,,0.000066800000,   1.88000,
,,,0.000066900000,   1.88000,
,,,0.000067000000,   1.88000,
,,,0.000067100000,   1.88000,
,,,0.000067200000,   1.90000,
,,,0.000067300000,   1.90000,
,,,0.000067400000,   1.90000,
,,,0.000067500000,   1.92000,
,,,0.000067600000,   1.94000,
,,,0.000067700000,   1.90000,
,,,0.000067800000,   1.90000,
,,,0.000067900000,   1.90000,
,,,0.000068000000,   1.90000,
,,,0.000068100000,   1.90000,
,,,0.000068200000,   1.90000,
,,,0.000068300000,   1.92000,
,,,0.000068400000,   1.90000,
,,,0.000068500000,   1.94000,
,,,0.000068600000,   1.94000,
,,,0.000068700000,   1.92000,
,,,0.000068800000,   1.94000,
,,,0.000068900000,   1.96000,
,,,0.000069000000,   1.94000,
,,,0.000069100000,   1.94000,
,,,0.000069200000,   1.94000,
,,,0.000069300000,   1.96000,
,,,0.000069400000,   1.94000,
,,,0.000069500000,   1.94000,
,,,0.000069600000,   1.96000,
,,,0.000069700000,   1.96000,
,,,0.000069800000,   1.92000,
,,,0.000069900000,   1.98000,
,,,0.000070000000,   1.94000,
,,,0.000070100000,   1.96000,
,,,0.000070200000,   1.96000,
,,,0.000070300000,   1.96000,
,,,0.000070400000,   1.98000,
,,,0.000070500000,   1.98000,
,,,0.000070600000,   1.98000,
,,,0.000070700000,   1.98000,
,,,0.000070800000,   2.00000,
,,,0.000070900000,   1.98000,
,,,0.000071000000,   2.00000,
,,,0.000071100000,   1.98000,
,,,0.000071200000,   1.98000,
,,,0.000071300000,   1.98000,
,,,0.000071400000,   2.00000,
,,,0.000071500000,   2.02000,
,,,0.000071600000,   1.98000,
,,,0.000071700000,   2.02000,
,,,0.000071800000,   2.02000,
,,,0.000071900000,   2.02000,
,,,0.000072000000,   1.98000,
,,,0.000072100000,   1.98000,
,,,0.000072200000,   2.00000,
,,,0.000072300000,   1.98000,
,,,0.000072400000,   2.00000,
,,,0.000072500000,   2.00000,
,,,0.000072600000,   2.00000,
,,,0.000072700000,   1.96000,
,,,0.000072800000,   1.96000,
,,,0.000072900000,   2.00000,
,,,0.000073000000,   1.98000,
,,,0.000073100000,   2.00000,
,,,0.000073200000,   1.98000,
,,,0.000073300000,   2.00000,
,,,0.000073400000,   1.96000,
,,,0.000073500000,   1.96000,
,,,0.000073600000,   1.94000,
,,,0.000073700000,   1.96000,
,,,0.000073800000,   1.94000,
,,,0.000073900000,   1.94000,
,,,0.000074000000,   1.96000,
,,,0.000074100000,   1.94000,
,,,0.000074200000,   1.94000,
,,,0.000074300000,   1.94000,
,,,0.000074400000,   1.96000,
,,,0.000074500000,   1.94000,
,,,0.000074600000,   1.92000,
,,,0.000074700000,   1.98000,
,,,0.000074800000,   1.94000,
,,,0.000074900000,   1.92000,
,,,0.000075000000,   1.94000,
,,,0.000075100000,   1.92000,
,,,0.000075200000,   1.90000,
,,,0.000075300000,   1.88000,
,,,0.000075400000,   1.92000,
,,,0.000075500000,   1.92000,
,,,0.000075600000,   1.92000,
,,,0.000075700000,   1.90000,
,,,0.000075800000,   1.92000,
,,,0.000075900000,   1.92000,
,,,0.000076000000,   1.90000,
,,,0.000076100000,   1.94000,
,,,0.000076200000,   1.90000,
,,,0.000076300000,   1.90000,
,,,0.000076400000,   1.88000,
,,,0.000076500000,   1.92000,
,,,0.000076600000,   1.88000,
,,,0.000076700000,   1.88000,
,,,0.000076800000,   1.88000,
,,,0.000076900000,   1.88000,
,,,0.000077000000,   1.86000,
,,,0.000077100000,   1.86000,
,,,0.000077200000,   1.88000,
,,,0.000077300000,   1.86000,
,,,0.000077400000,   1.86000,
,,,0.000077500000,   1.88000,
,,,0.000077600000,   1.86000,
,,,0.000077700000,   1.86000,
,,,0.000077800000,   1.86000,
,,,0.000077900000,   1.86000,
,,,0.000078000000,   1.84000,
,,,0.000078100000,   1.86000,
,,,0.000078200000,   1.86000,
,,,0.000078300000,   1.88000,
,,,0.000078400000,   1.86000,
,,,0.000078500000,   1.84000,
,,,0.000078600000,   1.86000,
,,,0.000078700000,   1.84000,
,,,0.000078800000,   1.84000,
,,,0.000078900000,   1.82000,
,,,0.000079000000,   1.84000,
,,,0.000079100000,   1.84000,
,,,0.000079200000,   1.82000,
,,,0.000079300000,   1.80000,
,,,0.000079400000,   1.80000,
,,,0.000079500000,   1.80000,
,,,0.000079600000,   1.84000,
,,,0.000079700000,   1.82000,
,,,0.000079800000,   1.84000,
,,,0.000079900000,   1.82000,
,,,0.000080000000,   1.80000,
,,,0.000080100000,   1.82000,
,,,0.000080200000,   1.80000,
,,,0.000080300000,   1.78000,
,,,0.000080400000,   1.78000,
,,,0.000080500000,   1.78000,
,,,0.000080600000,   1.80000,
,,,0.000080700000,   1.80000,
,,,0.000080800000,   1.78000,
,,,0.000080900000,   1.78000,
,,,0.000081000000,   1.76000,
,,,0.000081100000,   1.76000,
,,,0.000081200000,   1.76000,
,,,0.000081300000,   1.78000,
,,,0.000081400000,   1.76000,
,,,0.000081500000,   1.78000,
,,,0.000081600000,   1.76000,
,,,0.000081700000,   1.76000,
,,,0.000081800000,   1.74000,
,,,0.000081900000,   1.76000,
,,,0.000082000000,   1.74000,
,,,0.000082100000,   1.76000,
,,,0.000082200000,   1.78000,
,,,0.000082300000,   1.78000,
,,,0.000082400000,   1.72000,
,,,0.000082500000,   1.76000,
,,,0.000082600000,   1.72000,
,,,0.000082700000,   1.72000,
,,,0.000082800000,   1.74000,
,,,0.000082900000,   1.70000,
,,,0.000083000000,   1.74000,
,,,0.000083100000,   1.74000,
,,,0.000083200000,   1.74000,
,,,0.000083300000,   1.74000,
,,,0.000083400000,   1.72000,
,,,0.000083500000,   1.70000,
,,,0.000083600000,   1.68000,
,,,0.000083700000,   1.72000,
,,,0.000083800000,   1.72000,
,,,0.000083900000,   1.72000,
,,,0.000084000000,   1.72000,
,,,0.000084100000,   1.72000,
,,,0.000084200000,   1.70000,
,,,0.000084300000,   1.68000,
,,,0.000084400000,   1.72000,
,,,0.000084500000,   1.68000,
,,,0.000084600000,   1.74000,
,,,0.000084700000,   1.68000,
,,,0.000084800000,   1.72000,
,,,0.000084900000,   1.68000,
,,,0.000085000000,   1.68000,
,,,0.000085100000,   1.66000,
,,,0.000085200000,   1.68000,
,,,0.000085300000,   1.66000,
,,,0.000085400000,   1.68000,
,,,0.000085500000,   1.66000,
,,,0.000085600000,   1.68000,
,,,0.000085700000,   1.66000,
,,,0.000085800000,   1.66000,
,,,0.000085900000,   1.64000,
,,,0.000086000000,   1.64000,
,,,0.000086100000,   1.64000,
,,,0.000086200000,   1.66000,
,,,0.000086300000,   1.64000,
,,,0.000086400000,   1.66000,
,,,0.000086500000,   1.68000,
,,,0.000086600000,   1.64000,
,,,0.000086700000,   1.64000,
,,,0.000086800000,   1.62000,
,,,0.000086900000,   1.60000,
,,,0.000087000000,   1.62000,
,,,0.000087100000,   1.64000,
,,,0.000087200000,   1.62000,
,,,0.000087300000,   1.64000,
,,,0.000087400000,   1.64000,
,,,0.000087500000,   1.60000,
,,,0.000087600000,   1.62000,
,,,0.000087700000,   1.62000,
,,,0.000087800000,   1.62000,
,,,0.000087900000,   1.62000,
,,,0.000088000000,   1.62000,
,,,0.000088100000,   1.62000,
,,,0.000088200000,   1.62000,
,,,0.000088300000,   1.58000,
,,,0.000088400000,   1.58000,
,,,0.000088500000,   1.58000,
,,,0.000088600000,   1.58000,
,,,0.000088700000,   1.60000,
,,,0.000088800000,   1.58000,
,,,0.000088900000,   1.62000,
,,,0.000089000000,   1.58000,
,,,0.000089100000,   1.60000,
,,,0.000089200000,   1.58000,
,,,0.000089300000,   1.58000,
,,,0.000089400000,   1.58000,
,,,0.000089500000,   1.58000,
,,,0.000089600000,   1.58000,
,,,0.000089700000,   1.58000,
,,,0.000089800000,   1.58000,
,,,0.000089900000,   1.58000,
,,,0.000090000000,   1.56000,
,,,0.000090100000,   1.56000,
,,,0.000090200000,   1.54000,
,,,0.000090300000,   1.54000,
,,,0.000090400000,   1.56000,
,,,0.000090500000,   1.54000,
,,,0.000090600000,   1.52000,
,,,0.000090700000,   1.54000,
,,,0.000090800000,   1.52000,
,,,0.000090900000,   1.54000,
,,,0.000091000000,   1.54000,
,,,0.000091100000,   1.52000,
,,,0.000091200000,   1.52000,
,,,0.000091300000,   1.52000,
,,,0.000091400000,   1.54000,
,,,0.000091500000,   1.50000,
,,,0.000091600000,   1.52000,
,,,0.000091700000,   1.50000,
,,,0.000091800000,   1.50000,
,,,0.000091900000,   1.48000,
,,,0.000092000000,   1.48000,
,,,0.000092100000,   1.52000,
,,,0.000092200000,   1.50000,
,,,0.000092300000,   1.52000,
,,,0.000092400000,   1.52000,
,,,0.000092500000,   1.50000,
,,,0.000092600000,   1.50000,
,,,0.000092700000,   1.50000,
,,,0.000092800000,   1.50000,
,,,0.000092900000,   1.50000,
,,,0.000093000000,   1.50000,
,,,0.000093100000,   1.52000,
,,,0.000093200000,   1.48000,
,,,0.000093300000,   1.48000,
,,,0.000093400000,   1.48000,
,,,0.000093500000,   1.50000,
,,,0.000093600000,   1.46000,
,,,0.000093700000,   1.48000,
,,,0.000093800000,   1.48000,
,,,0.000093900000,   1.50000,
,,,0.000094000000,   1.48000,
,,,0.000094100000,   1.46000,
,,,0.000094200000,   1.48000,
,,,0.000094300000,   1.48000,
,,,0.000094400000,   1.44000,
,,,0.000094500000,   1.46000,
,,,0.000094600000,   1.44000,
,,,0.000094700000,   1.44000,
,,,0.000094800000,   1.44000,
,,,0.000094900000,   1.44000,
,,,0.000095000000,   1.42000,
,,,0.000095100000,   1.42000,
,,,0.000095200000,   1.42000,
,,,0.000095300000,   1.44000,
